5.0
4.7362499833106995
3.9517260773731833
3.1800222082772254
2.175837006848375
1.4519598317625393
0.6607727785969562
0.23808624951967394
0.17800271313561572
0.29685845670492284
0.5738977548293744
0.8462765837699828
1.0065275570759358
1.816951565836376
2.7968813220179594
3.8384964400167823
4.891709879828079
5.659774349410709
6.165721073040384
6.670808094759475
6.924872977661509
7.688107206653335
8.202913117280923
