-0.5927683538028301 0.49341370323910205 -5.069163352059848
1.0296044549013694 1.061315184386746 -4.8300886765014965
-0.9839560995287542 -0.9850090413376211 -4.88653788265224
-0.00481705839838098 -0.8910543883712854 -5.067575619710449
-0.6187061570072325 -0.3571899559854155 -5.133296396203291
-0.8261461781419545 -0.4848963798235255 -5.058323592745941
-0.02160126503024029 -0.9443154865667589 -5.009395459567486
0.7476361293887553 0.8168531206278672 -4.990520129866283
0.3149880359117965 0.6787026459199349 -5.081883328227574
0.5337784955991708 0.9729574985749977 -4.983125639516827
-0.8134698882318752 -0.9818761144200685 -4.9153667011888365
-0.5678996442668917 -0.7527511488756886 -5.00055411321995
-0.9737797461381781 1.0440782172065273 -4.869247662116608
0.5070064143624229 0.5608125547790985 -5.062223843116735
-0.22850620884507272 0.6085942473728181 -5.097361123740025
-0.9818638931869813 -0.8570395326577773 -4.875859356060154
-1.0034149874736888 -0.8950522645260364 -4.86269128884415
-0.778592514015573 0.7826687232447453 -4.937858583126573
0.9648766635662778 0.8021038674791723 -4.871331198353538
-0.5974820791476346 0.4390288015591194 -5.028417210480402
-0.007822563933893911 0.6535503075462923 -5.060144997739374
-0.2095140479123428 0.7613443756954713 -5.0226944053916025
-0.4784593949945524 -0.6196420733857451 -5.030038860281846
-0.11468085413867642 -0.7208382206270207 -4.94916677708199
0.9270190461109505 0.016932876425312715 -4.921314711710165
0.5990497917042149 0.47621178749378323 -4.982761963082664
0.7857010935891762 0.2821093607531404 -4.926633518093805
0.5181013981635045 -0.504426063360645 -4.955724884663001
0.4710356631318564 0.5567711936841687 -4.945838031539719
-0.7365082565147766 -0.8826077549181721 -4.757043764174394
-0.5539724258033237 -0.9885830164203826 -4.747936034521527
-0.47274942039159307 -0.3509820132836867 -4.954354436430335
-0.41158465497602476 0.23218603558233308 -4.985685353973065
-0.7387490195888674 0.10293401786721579 -4.869487122750771
0.16428445541363773 0.35002956197745794 -4.880332272601556
-0.9903609798159569 -0.5037097956941088 -4.757952800109715
-0.50998652365092 -0.5449682064302785 -4.818504148117582
-0.2388773154950611 0.757179036067575 -4.821248460149267
-0.23803286660266776 -0.5583869946518027 -4.8107293410515055
0.5715220919573261 -0.7749747485751215 -4.772215442382772
-0.3888285666753235 -0.6454082642550234 -4.790405103123902
0.08146718038426504 0.5160389903860014 -4.801346751404799
-0.8504363207713196 0.21553151096465473 -4.659082061686772
0.4521181526099954 -0.21579360044470275 -4.799785904625674
-0.36080991035973486 -1.081833361234667 -4.559223646425182
0.3233181702219562 0.511532509395444 -4.607752306752245
-0.3891118304373414 -1.0860693154477212 -4.514166677896173
-0.08083678847073514 1.0852170841445745 -4.554856681397071
-0.02093585396153924 0.3177399093761776 -4.6354817651765785
0.35636798424909727 -0.29657165314462075 -4.7364494111655215
-0.6818436138507861 0.3206729258297838 -4.562529392802822
-0.15271639520029542 -1.1624792416721113 -4.469579046268873
-0.721621739798797 -0.045766895002143926 -4.555634032135844
-0.46320271424367165 -1.1054797314422364 -4.423277242888974
-0.34883789306085694 -0.6267445258616711 -4.515160141388911
0.24230104792286697 1.249463729957775 -4.393836051667543
0.8699511894066111 0.7834332103058448 -4.4115538632776845
0.785305127327437 1.0192106476685283 -4.290615968753626
-0.2148347247511095 0.5496959049126557 -4.537286098155098
-0.18788175404036514 0.8998444663508013 -4.477420308326544
-0.4706702571056423 -0.7408701296761839 -4.41971939717975
0.5108538007381924 0.8066368608980975 -4.375696840917616
-0.885048753946783 -0.5064206538278524 -4.315754442255562
-0.44686760944715376 0.702032757514122 -4.379354206769593
1.015583641204206 0.10712221038421466 -4.242996210903201
0.7425282089622994 -0.04072422703632017 -4.2706278660993
-0.39123605147785123 0.08131992296504587 -4.310564853362176
0.46209990370980714 0.38167647767679747 -4.267851974238506
-0.4120824121646059 0.16033878570254956 -4.2770903305425865
-0.348785736567878 -0.3656199928335806 -4.271232414311044
-0.9726844676318976 -0.756851116267053 -4.001783023083405
1.0821915077622384 0.35618288095132444 -3.9963397403174876
0.26921992258051197 -0.3214376656759965 -4.255596812715967
0.792980448247861 0.3921865630416079 -4.110730719645049
-0.1445097929175026 -0.002931896687777158 -4.266642515982669
-0.4947484321717864 -0.6642142484592592 -3.997003335452169
-0.044462123633783546 1.0377930322913829 -3.9689407813696063
-0.35218513332131324 0.9041942171982595 -3.9723587685906208
-0.2599404511593456 -0.32003045926492457 -4.0862060143544445
-0.32963800419484224 -0.1709872615659147 -4.121850061093828
-0.6283095251896975 0.6325429791721844 -3.944303995672906
0.0364427666753627 0.41190732358240634 -4.006058438959997
0.8926913857841356 0.8477103296615923 -3.7674626338929684
0.27430562753634297 0.9859887913719143 -3.7693679202195227
0.1095378762290447 0.20122747547709285 -4.028807911417552
-0.4149052798761409 -0.9852316130216991 -3.7786915557333085
-0.5215083054162781 0.13816282741966102 -3.955925236201474
0.544398578864742 0.3303077058267717 -3.862157301391489
0.5346325750977323 -0.3403411958956253 -3.898318161553675
0.12160407427389153 1.0866152857220424 -3.715680528246511
0.39660408545799697 0.569071225914655 -3.7914913141819424
0.5689195000489707 -0.15402587328289186 -3.7604063437640103
-0.6746547325314161 -0.6571457745760072 -3.6634714525471805
-0.9085195157720438 0.2112605805214014 -3.6154821222863514
0.33446869732335305 0.23986587383099145 -3.7937508147891066
0.4654199787622827 0.24921116942555077 -3.7647818250917067
-0.44087777042256 -0.8319902882045425 -3.588325325900635
-0.8988824072997849 -0.2224437800349648 -3.5499935831654983
-0.48709703048608977 0.09036782203481053 -3.6260991136356977
-0.29363481590532414 0.1838097982012794 -3.6357108598500583
-0.22310696258192683 0.1343382649844893 -3.6360199625130782
0.68538717317552 0.30304044335975255 -3.5047308083562188
0.24768139685370244 0.07415338421562845 -3.4959656080378303
0.2186380601822367 0.15022403009735652 -3.616563779787763
-0.3232072013804411 0.3001469232391296 -3.5843961862329117
-0.44283173923841795 0.30357984019464224 -3.4658137009041683
-0.4732184188536155 -0.5290293993619433 -3.3924019169660635
-0.03990489290264314 0.06850343141929915 -3.4804030634142458
-0.6382534637647234 0.52435820735086 -3.3592054246100562
0.46792776975812833 0.627361993075893 -3.2991982260625536
0.2155471163865248 -0.777942952629039 -3.276652437667901
-0.054776218360444426 0.4005073627057465 -3.421427775410087
0.008190944318400242 0.8535957092737897 -3.2327997296223527
-0.13406713624269365 0.7018995111352346 -3.2599333709440614
-0.4128674238353697 0.4695199273913152 -3.251294585713398
-0.15753416895285868 0.3587050542961109 -3.2671727446369236
-0.45250354488469946 -0.6740841218659899 -3.121880797634426
0.27422491156705564 0.2564424813744922 -3.2903674506641054
0.33824886204722093 0.2637414096801409 -3.234968222357703
-0.43214846510806265 0.10658157632184917 -3.1804484186576447
0.03237126484980127 0.74177369499285 -3.1121959216991573
0.7175514131677696 0.35434163476830316 -2.9848131794087314
-0.6714312516640517 0.36866484603724037 -3.0800065618762336
-0.4931191187146931 -0.06912041413654713 -3.0793670510907543
0.4016037535748499 0.6242457655723823 -3.053163710650691
-0.6990438833038598 -0.014340765179404413 -2.982397993190423
-0.06360097580764679 0.6938785925277986 -2.9774580096895975
-0.4590705447149752 -0.383178446552664 -2.972695394737681
-0.07726349057890977 0.15920126179099103 -3.0328519184050955
0.2082120725195703 0.23250899711667983 -3.0276039958771404
-0.015099083460439602 0.1127487041632923 -3.030166779180496
-0.4739437868773979 -0.2775385584717823 -2.9439528436130615
0.03545450438766931 -0.5478321359609102 -2.9050025112113507
0.25635802446519773 0.39186602826990996 -2.9033897516565594
-0.36426865284109256 -0.48162878548854526 -2.853569387786273
0.4481733857374612 0.5363779603909804 -2.8057495004270887
-0.31202802120197715 0.38160814596828146 -2.861901357902868
0.020192679302155153 0.18408661079708677 -2.908666368302
-0.016453460462027898 -0.5605557899307345 -2.7913006324268945
0.5165139859586543 0.3512555597575786 -2.7853279794711017
0.263946145857416 0.5281174583090367 -2.7523892889593657
-0.07271967373195619 0.17329007945866637 -2.8109493712461435
0.47496158932384663 0.4713415148432672 -2.686535724320056
-0.24966377835934905 0.06271925326383154 -2.7720448694851947
-0.021743254023634133 -0.3872247523720347 -2.7313345529434883
-0.29310525632443024 -0.43621081364200165 -2.7001338360372613
0.017134192411429276 0.23249558479412957 -2.7188681190481865
-0.27168795920806105 0.40775288503886603 -2.646571046255607
0.16447625621783526 0.4651405610228756 -2.649163414743325
-0.006628306360889923 0.3205093815969267 -2.657852557843959
0.11401857198353577 0.4313145824816068 -2.588410275879618
-0.17556572575123955 -0.10974100786240215 -2.607600916314859
0.21508855251690218 -0.23301635832263 -2.594098392368187
0.1909655880924116 -0.2270205557886601 -2.5858765333837397
-0.2963196022274412 -0.17036200436122395 -2.5300929296479304
-0.06060948823412869 0.0960548906346036 -2.6004066469122087
-0.18351184327789447 0.06141891951157619 -2.5136692712688236
-0.24761764459377134 0.32617777092177236 -2.4901474950312217
-0.2687174459621664 0.09827239190801784 -2.483606914977437
0.4335260678604045 -0.01478705914510381 -2.3762501567140526
0.116013633854435 0.2526634753204584 -2.448866263942041
0.35404039350084643 0.05677898015066274 -2.459918034420517
-0.3909390450784822 -0.46241386384100525 -2.3034376694936656
0.23567577184869676 0.2929643767887261 -2.287345737531149
-0.24172396754746253 -0.2914501888651482 -2.338164361904462
0.08621918019772556 0.2786451689580367 -2.319525938834726
0.2524817806010467 0.32555547930768086 -2.261507317848354
-0.3378146847519408 -0.25625846207563663 -2.231695824438539
0.23139774417456815 0.187721831338736 -2.235707768390475
0.22035586931765344 0.20761202099458342 -2.2118804825782807
-0.24315915447139702 -0.08731858621810495 -2.2039002089513096
-0.3977791606486851 -0.3439479304954296 -2.11112348486873
0.3569977329025854 0.1668887768423502 -2.1247670339943188
0.3115815597585047 0.20307087437261978 -2.106363279071246
0.2388514527218598 0.040521888870139966 -2.1156358642440694
0.19751464007009262 -0.2297444984592475 -2.079225231832187
-0.14466973831959237 0.10820546580813523 -2.0767273014387704
-0.14851468568721357 0.2575280072562867 -2.0458726709168693
-0.3386341099969517 0.06970635101736244 -2.001760960277328
-0.40848824761716196 0.18935860690344258 -1.8960645289754057
-0.3100798568092567 0.1450692851069197 -1.9826195125645965
-0.298316865381536 0.1408632587158246 -1.9529021815528655
-0.33308290931781015 0.21989644633580482 -1.888139530961321
0.16930848147593772 0.2808844843516324 -1.8681979936904045
-0.041812224926625605 0.2706117123335939 -1.8591562503716046
-0.014268987483648354 -0.19230854314837958 -1.9173391085911478
-0.05219232776124062 0.2862130040053844 -1.8422964432459674
0.06478955288312954 -0.1982771745287999 -1.8282807961625676
-0.17621321381693705 -0.22036253263481037 -1.7871488531106419
-0.30761278699171357 -0.06057757230216365 -1.7580344806179466
-0.2814207121792536 0.07904507794426036 -1.7304826802671205
-0.20933705921835688 -0.08720352987938945 -1.723253958315651
0.08680357432856195 -0.2386812584863403 -1.6992251837980281
-0.1794354258071414 0.16939108372264192 -1.6744198427070134
-0.21724829722074782 0.02798259007811238 -1.653471527724469
0.2605157439970629 0.2949380457116954 -1.5687348539976194
-0.28196775572737776 0.030919072169969697 -1.609163072240311
-0.14730281037775772 -0.17667910421871297 -1.590852052504955
-0.2606337806105329 -0.11487039786403835 -1.538544103422898
-0.14232902933628055 -0.1376598346686257 -1.5344775490588556
0.0016748889589737609 0.12010010244790009 -1.5377462009543048
0.024927654347975368 0.12156908861664445 -1.5082926743086953
-0.3130579315498665 -0.17172672092035252 -1.4179154668688267
0.15592419401174365 0.22023873678543063 -1.4148367002243152
0.11741181594196307 0.23458730433740269 -1.4468725188568095
-0.020744725344102627 0.07543220647993079 -1.4225304001374197
-0.15186368651592053 0.14430768083144294 -1.3806835950287466
-0.16704485343661093 0.14146705549754185 -1.3024147231130507
0.18116035599867758 0.09981060683212364 -1.3591470197527407
-0.02469103782859812 0.08605025075956485 -1.3461773067354676
-0.04682207807393963 0.10062032480795324 -1.3109541211464786
0.09863907673940286 0.0782995415816917 -1.2749370415222538
-0.2570406144191671 0.175581625158404 -1.209873209841849
-0.19844249374056228 0.10141019081189473 -1.2101812288421658
-0.114771149346607 0.0960864200123709 -1.2023329065146668
-0.014631098870257861 0.11160526392787633 -1.1875538499151477
0.021976656956575878 0.1838568484406659 -1.1573536725842748
-0.028176330016566453 0.06726999767921707 -1.1119783123043703
0.08604829600425244 0.1456813252720468 -1.118805507773737
0.09026425250904489 0.1773128271774605 -1.1352142689308728
-0.06562297696987227 0.0535550650741729 -1.088662372137578
-0.07214071492298453 0.004681182839462478 -1.0697485333155987
-0.11328662556213187 -0.050506794231930136 -1.0419141513780619
-0.09955588883267211 -0.016995177947333406 -1.0247326501505063
-0.062062429715824284 0.024393679121970796 -1.008432334324728
-0.03627060769752822 0.04302923284981078 -0.9884131105436831
-0.05491239561328265 0.040002483577820325 -0.9457731770708104
-0.096006743152287 0.01772096521540692 -0.9616335898622717
-0.11910322963483193 0.026068356650021607 -0.9116062175920169
-0.08155501874566225 3.781052064392998E-4 -0.897598960063707
-0.09694606002025938 -0.030366769858646586 -0.8536246251769981
-0.12354810918788141 -0.06873434957473012 -0.8695354549975954
-0.06673277341471198 0.01335362674046267 -0.8358637854601049
-0.06414024270665206 0.028497174907662723 -0.8174682180024181
-0.06667700749387999 0.05389159936203511 -0.7973433513020863
-0.020114440930729 0.029905009584441172 -0.7715088207462943
-0.06662152512505051 0.0020421426548357935 -0.7839336259484093
-0.03862762385989978 0.028690329732357106 -0.7513024978099391
-0.05681446168532428 0.028107767723822258 -0.730703442289947
-0.0676199374843621 -8.925350751819716E-4 -0.7138833959517653
-0.05778357503746606 0.017523416237929898 -0.697318959624813
-0.058934875989850144 0.027650937674655263 -0.6829279234892811
-0.05427867512243459 0.01292045835326018 -0.667119359694515
-0.03728929452097908 0.017911720325585967 -0.6368702825480752
-0.05658281649114935 0.012355163796887142 -0.6490283259172449
-0.05467000729295236 0.013694537390890382 -0.6150040135104753
-0.05943088609244662 0.008164272194772462 -0.5964591944806032
-0.07345746752251925 0.012693184808746073 -0.5746683595243065
-0.07180748934797032 0.03248226578806605 -0.5603056579325028
-0.05907580421950809 0.026430876511937252 -0.5462655519335214
-0.03067734171582446 0.02046224219255557 -0.5377629047270277
-0.017873135795652438 0.019118216848139573 -0.524962912024493
-0.024574445675354998 0.016342553132919442 -0.5103096116219269
-0.03263660348707246 0.016689646897884165 -0.49691838136893485
-0.03756953542826619 0.018096489671439557 -0.48446451444260846
-0.03538127847213866 0.008497718679438306 -0.4740223241752655
-0.030523818077054184 -0.0034208803940443955 -0.4649422499570797
-0.03212144520027571 -0.004960540293260783 -0.45605013472443173
-0.031409481178646656 4.931950145547551E-4 -0.44184667560216845
-0.0334938838447247 -0.00611675510328618 -0.4482515097028139
-0.030506835226640872 -0.0065221800694951065 -0.4360481186751984
-0.024195476995464052 -0.004854932197119841 -0.43150583080165184
