0.0
4.225031457058369E-15
2.3909796819078575
29.001078640954002
63.7866465220154
108.02212927656375
131.69917682834017
155.37622438011658
167.80567583798256
189.8603727283163
169.71988312626772
167.8070105077427
180.28182492713373
197.48641999550327
209.9612344148943
214.7606461851473
224.33775913625036
225.29767362814013
228.88948644587077
222.17063013238442
215.4762060236744
209.00557868677046
236.5939995241334
263.3317067959049
272.90881974700795
276.74843398623113
274.3538525696104
271.95228986606077
253.7932265944236
246.5890524730787
219.85134520130725
186.28283680171097
160.49715168776132
122.15182990460505
86.86182920606754
46.68898910627758
11.39898840774007
-28.773851692049888
-63.24047639034649
-123.94477896952979
-178.3005547529946
-251.95478089284933
-301.5975530401288
-369.3940297445958
-423.7498055280606
-491.54628223252763
-551.1076071722847
-600.7503793195642
-674.4046054594189
-724.0473776066984
-773.690149753978
-823.1524027298128
-879.3365427791889
-937.2395227434376
-1005.23365681439
-1075.3758204793314
-1134.4280426031216
-1184.5345304366779
-1231.1719475893346
-1338.6230079238849
-1590.2924010999932
-1861.1145331783505
-2118.867090499958
-2423.387784416784
-2676.149979631091
-2989.98117519351
-3244.595563878733
-3497.9211882112813
-3750.303721908732
-4060.147743033519
-4308.564961136482
-4556.078843900889
-4806.516862724387
-5053.6852254566575
-5358.205919373483
-5604.526666464806
-5919.316517585626
-6165.20891959945
-6477.573430350212
-6719.018734569737
-7019.591961029956
-7261.069079309903
-7576.776685098714
-7892.040077675104
-8148.774694961834
-8385.585961332605
-8668.0613311023
-8904.390091235326
-9211.439645827752
-9462.904424857212
-9710.072787589483
-9955.965189603306
-10196.073248058408
-10497.792725930285
-10739.696097401906
-11043.107405982875
-11278.332547176044
-11585.561697184494
-11893.68655900055
-12144.769935215116
-12455.000308464649
-12698.261737424446
-13005.850778489012
-13255.378113607696
-13570.167964728516
-13820.605983552014
-14072.988517249463
-14301.736847851202
-14355.053571142322
-14241.449879618844
-14055.309074211315
-13794.87903957381
-13534.449004936307
-13260.442757447176
-12926.25837014357
-12591.26088214093
-12195.332317971735
-11799.40375380254
-11347.50192068635
-10890.228191900516
-10426.879405112923
-9912.967035967458
-9404.268797596227
-8957.063413126683
-8448.365174755452
-7905.771727454849
-7358.097945990287
-6806.404811290179
-6253.81752240093
-5635.298622003078
-5073.390734017149
-4439.145342984676
-3873.7495651584445
-3259.465637218454
-2722.1178033020756
-2130.788068003887
-1540.3190746784762
-955.182709269416
-383.79877858256293
194.9659787321225
782.6011496401451
1335.1884385293943
1881.9760164640777
2382.055852050261
2831.3644112143547
3291.8350450979647
3685.832604554735
4141.709193426117
4529.836849251882
4910.199441836131
5342.352385345547
5704.081350212617
6125.584789259647
6476.4962631294175
6819.659790014233
7214.765217875383
7605.866654111474
7941.6993313756475
8280.831490289802
8699.01414472872
9088.56779787564
9551.848978726068
10007.72556759745
10450.866452161623
10888.208999283357
11331.34988384753
11784.47950144994
12238.16961694241
12698.164438077656
13066.555964003823
13500.337387064943
13879.02111225874
14264.677625541255
14655.614556192273
15067.122678345037
15386.909781801674
15582.716923879783
15666.857339525139
15669.737072833816
15682.166524291682
15739.342239266567
15761.590095633961
15783.644792524296
15786.514054075486
15819.984979601828
15847.57340043919
15863.132896242285
15872.710009193388
15884.213713379553
15903.416292803222
15922.563050775077
15948.877686530297
15982.446194929893
16015.917120456235
16044.618638924432
16060.178134727526
16082.976374747392
16109.291010502611
16124.850506305705
16146.450435880593
16173.958657820172
16195.495796902109
16217.095726476997
16243.410362232216
16260.165851519585
16287.674073459164
16315.262494296527
16336.799633378463
16370.270558904806
16399.05575526941
16450.346369038667
16471.883508120605
16487.488366885227
16482.699320761396
16505.431286827716
16507.825868244337
16511.428152819553
16515.019965637282
16530.57946144038
16527.70317122566
16519.29849278261
16516.90391136599
16509.720679611277
16501.340433373
16483.115096147816
16360.194889453778
16198.553945073349
16056.49230317225
15999.020145864726
15974.628917498547
15953.09605406541
15936.786794021218
15925.287574947743
15919.550606741512
