0.09579778838616457
0.09579778838616458
0.09251664660198455
0.09251664660198454
0.07955710209126732
0.07955710209126733
0.11542548278781142
0.11542548278781142
0.11058308613696614
0.11058308613696614
0.13467552664437366
0.1346755266443736
0.15943182497201985
0.15943182497201983
0.14124712617240245
0.14124712617240243
0.12591791088203316
0.12591791088203316
0.12024603370461397
0.12024603370461401
0.1315645817116577
0.1315645817116577
0.1545688107203336
0.1545688107203336
0.1916863998487525
0.1916863998487525
0.2433602575564981
0.2433602575564981
0.2288763901962382
0.2288763901962382
0.22793322912930802
0.1893852077955206
0.18612443327050288
0.22222530164850673
0.23763194343743893
0.26673490492881563
0.24433832030417338
0.22932580692919993
0.17455110440073268
0.17726871947502323
0.17054668594588873
0.1859088846054242
0.1930316517398006
0.202068989288211
0.15277369105698155
0.16043471884183333
0.1669616007924985
0.16183855744092
0.14790983293529017
0.11521442620835755
0.10090728669253693
0.10647201907209246
0.10276294063737687
0.1257184437245716
0.1257184437245716
0.09212664217291786
0.0715854141429837
0.08820704144141393
0.09477260901941949
0.1076002058645924
0.1252389751008511
0.12816538421733564
0.1572967269356716
0.16747859611481017
0.17932918230455666
0.15983422615011003
0.1732499790401679
0.17860105163368273
0.16841955839224593
0.1532762606103577
0.15503273436473233
0.13719255375186765
0.15806761343333103
0.17230686922093438
0.2096229356215631
0.22465678423326504
0.22243594592344407
0.2307446276127109
0.1724141201617675
0.16417141967180543
0.1551196548488362
0.13459983766710776
0.133983659517044
0.043721844737787355
0.018017664198521587
0.024970862773148788
0.059926968017656464
0.05490358979727523
0.0549035897972752
0.0535458719362487
0.05911785970292906
0.03595835245798309
0.06770844400678783
0.08522218762964852
0.07225456470603452
0.12729789187754756
0.09918835533909391
0.10376541614420896
0.12958901621054295
0.11958890945401794
0.05159170854900157
0.1007910295192856
0.06697953105071164
0.05626613674289393
0.05701536240873115
0.06860938241379422
0.11508762420809389
0.13097974952195887
0.13573283702567593
0.14093776928475196
0.1285030841996792
0.1285030841996792
0.10971375956493064
0.13161671421707716
0.1387143737295982
0.13371815489124186
0.19740569598134863
0.15464543009554593
0.16825835799286826
0.15601238522056146
0.1510136594859169
0.1368037523260644
0.169154283012662
0.17936201641911367
0.17188979173384164
0.17073535574264945
0.17073535574264945
0.1495563213436992
0.14955632134369928
0.10705953390156596
0.10793963965560154
0.10592760759433777
0.1326702675436915
0.19395912739016608
0.15230285868006826
0.161942574790621
0.19483314047190578
0.1983109709962208
0.18013138325600894
0.18143240630460214
0.16222500267383372
0.19545286396517036
0.21975609711907482
0.18825833489812105
0.17885802477826143
0.17885802477826152
0.16263834618269848
0.1609004505078614
0.2257754104524925
0.19987965099426944
0.20238584680487026
0.2201731468432559
0.20673930518176611
0.23883221023291135
0.24342357867539524
0.3372646216943527
0.3280350614140188
0.337323602378007
0.3160971179352356
0.2770636722049042
0.308416832442252
0.3100594484724822
0.29502541139372535
0.3136275900785776
0.34135824498977607
0.36942289592302824
0.37200266798534487
0.3732824393892396
0.34111187788043745
0.33041931277375597
0.3275117275677177
0.28229914685819435
0.29235584511463736
0.2828349379293315
0.26948479235361356
0.2790564758142707
0.20246498193406953
0.17015001303394645
0.11766169238524958
0.12340221800891713
0.06443654266534568
0.06443654266534567
0.008554391176661342
0.008554391176661342
-3.031165137524827E-4
-0.004824685678382824
-0.017416681193754717
-0.04656827110481134
0.007869038831987455
0.0402355618186931
0.02632413081401017
-0.008974618060862263
-0.029699801730036203
-0.020636419100399497
-0.05602581833386515
-0.046331277872062426
-0.04258320543086727
-0.07341849386367615
-0.09353712321192002
-0.09450219510412115
-0.07385811407088663
-0.06691208435272744
-0.093582419889864
-0.1649955836432226
-0.174201269307692
-0.18952038665247775
-0.1695786510348153
-0.17004776246089648
-0.19446106661706608
-0.24371656422847535
-0.23784906738335806
-0.26453034319990104
-0.253979196953392
-0.23116404472982138
-0.1836208658630562
-0.19267113481850648
-0.19267113481850648
-0.1903730338470392
-0.18923273729965118
-0.23723934073359013
-0.24668083669993796
-0.251530381234482
-0.2555957418448271
-0.3036558014675757
-0.24697822969921537
-0.27157232767661216
-0.2665067326295195
-0.2571857844071016
-0.2331355682327112
-0.2503549430626181
-0.24934485637584755
-0.27838884046207774
-0.26827385583070273
-0.27460616717498604
-0.2898872200271178
-0.2336151438555378
-0.1988350101267737
-0.15952472601953116
-0.15400334627458448
-0.1049450125125666
-0.07683939834103501
-0.024007025049411265
0.003944573147002381
0.013270123599957915
-3.1813687334020235E-4
-0.043339663644993434
-0.04757398798202738
-0.03580493868417861
-0.04453266352124571
-0.02359703978500167
0.008438582411824942
0.04739418878740331
0.06672620888399534
0.06674818436685978
0.06802880380885014
0.09463616731313032
0.07758394902755426
0.061611224496648555
0.03789546408541662
0.07021395031942526
0.04109213861370926
0.05831564904910277
0.08299089437253568
0.07135729481879059
0.0643036813384606
0.09883048735576226
0.08222506113591971
0.08757922970773671
0.11207388870007919
0.1142192402895331
0.10077622243648658
0.06169211176374905
0.08819118778581592
0.08819118778581592
0.08592843320017356
0.09431577344751696
0.08941889490837068
0.11012446796582064
0.10413487839095782
0.12046455829873183
0.14329001313354386
0.1020243660066015
0.12168889010879971
0.1301840267094799
0.12392992100448456
0.11302162570635574
0.10096167726029702
0.11206595679155798
0.09394936774408592
0.09667363167154408
0.09598610095747079
0.12404619753830808
0.11844276671486892
0.09580256093680849
0.08612343358978848
0.0890726800382666
0.1090220849001772
0.08829464650149879
0.07947301307416557
0.055089692054426986
0.046945631641300285
0.050265330689630135
0.07232595803322267
0.0862607126632911
0.08055811598289077
0.0890647775484724
0.06195839145727357
0.07405726560956315
0.049791736541637675
0.020286761804350326
-0.0044213562134432114
-0.025540119241098877
-0.0256574769575486
-0.030124498514173766
-0.030509932307487976
-0.017773096767450515
-0.020006933357862224
8.944078170072754E-4
-0.0023781357978891657
0.024240500524471166
0.019884096016240218
-0.006116375273843104
-0.010360784474349032
-0.006125035797230739
-0.010900698039688668
0.0019208942010003607
-0.004095219733888987
-0.03175106663801165
-0.03503149800898472
-0.026735057338645663
-0.0320865611607847
-0.06181938452507682
-0.06274577084692533
-0.06560971295256225
-0.0648310395644716
-0.0652531242830095
-0.06844869511883712
-0.06841026325120862
-0.041581805858303005
-0.07078215100317874
-0.07085647303879362
-0.09716049242194338
-0.09627837500684182
-0.09761765881947841
-0.09757286546612173
-0.09235893573476708
-0.09007809086353631
-0.0783072762508098
-0.07715196692391148
-0.08243471441264445
-0.08275393720306415
-0.08408832375610546
-0.085395600456516
-0.08163092255936856
-0.07901550773331871
-0.10544896751362574
-0.10410623377482059
-0.10161491920434892
-0.10113062371431168
-0.09809264107206812
-0.09753895678808329
-0.12545699498758295
-0.12351254708353758
-0.12484686981922097
-0.12192693618662455
-0.10116142346245664
-0.09864939049723066
-0.07950252098236962
-0.07883781234006385
-0.056695779016291706
-0.055558566928690496
-0.05647228128021117
-0.055192054545504105
-0.055657728415569735
-0.05345783294531318
-0.05237747565102051
-0.051244294636408984
-0.049656790981461515
-0.0501117881214785
-0.048169034790410285
-0.046200383290630705
-0.04319182232516897
-0.04307346278312571
-0.03940720622147595
-0.04002851830455721
-0.03525148363072544
-0.03425266142015652
-0.03094537361508588
-0.031667677736015934
-0.026301729657850395
-0.028203253729417458
-0.026085746127654883
-0.027179173909349378
-0.02665950710243583
-0.027866418625969166
-0.02327145894555991
-0.02502681707144027
-0.051284412782040295
-0.051460510173623915
-0.05071736183231354
-0.05143554390804613
-0.05077135680249958
-0.05117439189049421
-0.04961923787917405
-0.04996102927663741
-0.05085852719659584
-0.05162125539517358
-0.051896195359012
-0.05197460414791293
-0.050594025045246634
-0.05106957162245336
-0.048578638755351025
-0.048143335144746814
-0.049694192295328676
-0.048779030580749366
-0.048213929726655516
-0.04813270832797655
-0.04678948949434708
-0.04720938403170704
-0.04602756580685129
-0.04684686040950798
-0.04614766394548336
-0.04755463104673883
-0.04791000243313227
-0.04755764217490266
-0.0483078907152208
-0.04735331354172548
-0.04693234981167477
-0.046562077715975286
-0.04738906603762081
-0.046994882566692806
-0.047992448198682244
-0.04765971470097335
-0.04965967505935612
-0.04870979418556446
-0.04975557863290546
-0.04826663059097382
-0.047748007329215296
-0.0465382408676668
-0.04851854262872349
-0.04727267549230974
-0.047535835472600735
-0.04615052435550745
-0.045740315929355506
-0.04472270559886401
-0.04608256381559525
-0.045455144882375856
-0.04520827066304442
-0.04442688124266482
-0.043084792602589045
-0.0423870939992447
-0.041818077255132806
-0.041446471687942556
-0.040707837856201405
-0.04106108477370252
-0.0398586324306588
-0.04047068930198686
-0.03991563257000196
-0.040782024401259644
-0.03969647958391372
-0.040198894416356566
-0.03941739389821926
-0.03954756479356891
-0.03884668841393076
-0.038947169959496944
-0.03774740433210276
-0.038112907453050446
-0.03755650912294735
-0.03799186586221555
-0.037065363913966136
-0.037558808983648224
-0.037629128933524894
-0.03788228169464589
-0.03842169344763544
-0.038643536946361655
-0.03839754553877802
-0.038660143394697276
-0.03794544745606112
-0.03816274635015118
-0.037043999538551156
-0.03687878384434609
-0.035103684080939154
-0.03492248784230922
-0.034839153123552846
-0.034502941063366564
-0.03501440194450466
-0.034605532461249616
-0.03456350989299303
-0.03387621390605328
-0.033818029492131654
-0.03339471401121862
-0.033235550933418706
-0.032584639635711246
-0.03297848069743901
-0.03245963802065857
-0.033403517353268984
-0.032693789685410604
-0.03342616127860545
-0.03282456640470377
-0.0335722228829242
-0.033000351072447136
-0.03393220793840042
-0.03330092884857428
-0.03392468480836613
-0.03329619305716023
-0.03350433778951012
-0.03291260566819613
-0.03329695110324921
-0.0328253821511165
-0.03319336655280126
-0.03298797322699665
-0.033067906433464626
-0.03299283577271041
-0.03236137337241645
-0.032366921691428296
-0.03147542455766718
-0.031578286136051605
-0.030394524019786744
-0.030496211277383365
-0.029659221164286275
-0.029842448734616382
-0.029377618664820086
-0.02957841219119905
-0.029154870032932944
-0.029417452630792464
-0.02875210624011174
-0.029030410263740616
-0.028286037814180178
-0.028594675054181545
-0.02779212191796613
-0.028040007409143593
-0.027447465879557
-0.027652027893102595
-0.02705116684081573
-0.02718944698159399
-0.026531307870050487
-0.026566277262057323
-0.025949100123550218
-0.025912312352402093
-0.025699373857229785
-0.02560813497037169
-0.025468146627210673
-0.025262489451578503
-0.025280065249289344
-0.024963950274722608
-0.0250403514067181
-0.02449748750400761
-0.02486137913225613
-0.024194177684568306
-0.024300233292148577
-0.023531038102990873
-0.023869756244397636
-0.0229521211810716
-0.023143118449590418
-0.0221608212292881
-0.02250734308831467
-0.021460688470421773
-0.02167042548452063
-0.02059287773242336
-0.020736905634623742
-0.01963237005880957
-0.019792319535195543
-0.018686576994077848
-0.01881128888103952
-0.01768462366699887
-0.017751252960685367
-0.016625247131152193
-0.0165381907377689
-0.015397358244604963
-0.014996178639982274
-0.013874654652573783
-0.013290477688495705
-0.012202706960258195
-0.011501840891895656
-0.010462889956145277
-0.009631911268108907
-0.0086564060960007
-0.007801622108011577
-0.006860826280951698
-0.005885128970840043
-0.0049946225396822344
-0.00394611212876821
-0.003123390184274475
-0.0019541157779143377
-0.001198480988668236
3.9544734101064015E-5
7.227226036233177E-4
0.0020423045904455436
0.002672425209395914
0.003979360101212673
0.00454196616874573
0.005856665908561954
0.006324803214798187
0.0076187471554520405
0.008030876334603672
0.00925885102304709
0.00962600450922489
0.010814675940201838
0.011126035526464123
0.012301492173979679
0.012562342481817626
0.013660989855612909
0.013881227622728557
0.014904601541177382
0.01510070034627208
0.015923291197019507
0.016102568726756937
0.016824910258769983
0.016973723685784797
0.017601244420377977
0.0177338249321789
0.01821915352793047
0.01833889927344617
0.01875314413944503
0.018853027646962502
0.019196501171048378
0.019306906212966914
0.019605213079676196
0.019712241544686426
0.019964416713820397
0.02007391709478986
0.020304743315357258
0.02040957778292558
0.020596505722330603
0.020699858651911207
0.02086092543558711
0.020961729442780724
0.021074658594009397
0.021181809674767172
0.021269129284853198
0.021384917259762784
0.021455340470146692
0.021563101873455358
0.02162849548355328
0.021723293750966467
0.02179536443565023
0.021897250870182426
0.021948112875920276
0.022063494962906747
0.022106027066320966
0.02223619599095965
0.02228794253526709
0.022429515449863727
0.02248863915849804
0.02261860869415736
0.022690461379481105
0.02281472857188642
0.02287917013784951
0.023017234205686177
0.02309170634632348
0.023234054325676993
0.023348994643953822
0.023454869068843635
0.023574601708114068
0.02369779356762993
0.023815874186914377
0.023944377672645272
0.024075029884527165
0.02420637813940546
0.02434704630251882
0.02448034900033687
0.024625598177276685
0.02474673632513316
0.024883259450344017
0.02501943178507064
0.02514763229182678
0.025285593508920973
0.02542339628270396
0.025549466219427924
0.025686390579601103
0.025815857403910916
0.025953937800825035
0.026088571539853497
0.026238189545883996
0.0263707619260404
0.026503938115607154
0.026503938115607154
0.02663564779723659
0.02663564779723659
0.026761063339989635
0.026761063339989635
0.02688842049374281
0.02688842049374281
0.02701607356910257
0.02701607356910257
0.027146533065673707
0.027146533065673707
0.02727076532867071
0.02727076532867071
0.02738567427396752
0.02738567427396752
0.02751412625989899
0.02751412625989899
0.027666210397596498
0.027666210397596498
0.027814328972648093
0.027814328972648093
0.027947926388599973
0.027947926388599973
0.028061857658195175
0.028061857658195175
0.028157278138509476
0.028157278138509476
0.028275248332524937
