-9.33859003046815
-9.338590030468149
-9.335489982347898
-9.335489982347898
-9.332781976791834
-9.332781976791836
-9.332435366428196
-9.332435366428195
-9.32237387296249
-9.322373872962487
-9.320100752753353
-9.320100752753351
-9.318626126036031
-9.318626126036031
-9.321899484994818
-9.321899484994818
-9.323275137828057
-9.323275137828057
-9.32525669791316
-9.32525669791316
-9.326164554658241
-9.326164554658241
-9.325200190490667
-9.325200190490667
-9.321488048018162
-9.32148804801816
-9.30899640188568
-9.30899640188568
-9.302188959435204
-9.302188959435206
-9.299304809838913
-9.297021168896546
-9.293440211868651
-9.29160002536547
-9.28916718567837
-9.287893515416133
-9.28633986724711
-9.282926955644763
-9.270049051462797
-9.266238331134005
-9.263736686520575
-9.262591117810418
-9.254993625626865
-9.25334649944185
-9.24396838963894
-9.238305551813157
-9.227639416817143
-9.224056478607663
-9.215941099003663
-9.212368169864497
-9.206340601035969
-9.203339689357858
-9.186979159129113
-9.181914021554933
-9.181914021554933
-9.174851979329313
-9.149404114381108
-9.14365198196975
-9.134104734305053
-9.128245027047408
-9.118546411179558
-9.112459166559395
-9.100262101759144
-9.093505252254298
-9.080978345796066
-9.072208179922843
-9.056931597224642
-9.053919618890532
-9.035037928447315
-9.026399587721155
-9.013946522613757
-9.004118413003905
-8.987579272000973
-8.97318424517496
-8.95551771258009
-8.941302648737977
-8.926085005555581
-8.910201163615763
-8.893448687708469
-8.877216386678763
-8.866849585976365
-8.851340960964757
-8.830545474085863
-8.811416782947651
-8.79414590040439
-8.78280894788948
-8.778600095524272
-8.762990653523477
-8.762990653523477
-8.7471905866888
-8.725625200799087
-8.707366325467483
-8.695477158409293
-8.675262087596842
-8.658779097914808
-8.649971293015884
-8.635813366610021
-8.615243898975908
-8.599275768024983
-8.58315019082947
-8.56829831310027
-8.553346280053816
-8.539019440539748
-8.524971216043715
-8.506302102692588
-8.488735695737217
-8.472691779871564
-8.45199365671834
-8.438474824021513
-8.42832486259655
-8.411742841642903
-8.411742841642903
-8.391947996302877
-8.390343857034
-8.376236731814744
-8.358717265104783
-8.326982195606767
-8.292990586213257
-8.266378310365488
-8.249812358415484
-8.22995424885532
-8.215695926254615
-8.199545147664626
-8.188587810222746
-8.169441628072823
-8.151733804089472
-8.151733804089472
-8.137928266318013
-8.137928266318013
-8.125508015025485
-8.10314286901943
-8.087879479502927
-8.068872674913248
-8.055199340782826
-8.037294954314124
-8.016553253852772
-7.998640172911957
-7.975457250021494
-7.9576543530850685
-7.937663322530696
-7.921807787377412
-7.906855733461426
-7.8891479239839
-7.859470835317956
-7.839006829929308
-7.839006829929308
-7.821036475190821
-7.809098574946894
-7.785948652264752
-7.7641515783546255
-7.746568745178607
-7.7292661662407784
-7.704310484549978
-7.683968304212876
-7.637916666485352
-7.579624865708843
-7.562378340911237
-7.54608731493713
-7.529773342928535
-7.510894353722225
-7.493462888705042
-7.471981279353111
-7.453637396895489
-7.43473403100664
-7.4175012746214
-7.40193864305989
-7.385676291541995
-7.3636184791666786
-7.346914634833772
-7.324048085194068
-7.3088225383779335
-7.290591114978475
-7.275383810000216
-7.266278225680673
-7.246852948437791
-7.231035384262499
-7.210370184201682
-7.190483030018596
-7.177982817999994
-7.161117421337959
-7.148442651146241
-7.148442651146241
-7.128579152273329
-7.128579152273329
-7.11320101019743
-7.099116594243477
-7.084629109291006
-7.067730259418917
-7.049243965677681
-7.031225450489742
-7.014881975351179
-6.997019282485678
-6.982810406267967
-6.965156315700034
-6.9498130770018625
-6.930511325402204
-6.921537588431448
-6.904047681909488
-6.887005743062806
-6.872525158691716
-6.8583643078357905
-6.841899735786966
-6.824818647424567
-6.813229609754833
-6.798889481502818
-6.782581110195119
-6.767499706081312
-6.758430486328999
-6.742930393399971
-6.7265763379955565
-6.711807420585676
-6.697532341651768
-6.681797901582554
-6.659536688843474
-6.641835180105214
-6.626149421785537
-6.626149421785537
-6.609608469038719
-6.596689893851145
-6.5814711995872175
-6.565217649437444
-6.551177116540934
-6.536247859000607
-6.521391823528488
-6.500733262288253
-6.484809707350018
-6.466755800627323
-6.451428835012395
-6.4332599601590115
-6.41667164536675
-6.398469723076686
-6.381815549772737
-6.364225514674616
-6.351434623667282
-6.333761737981968
-6.322381450675626
-6.303933501965208
-6.2847712308390475
-6.266842381183958
-6.247578757084462
-6.228258180900841
-6.215967359367594
-6.198279135309927
-6.181530715499697
-6.1470803930488955
-6.115527796379132
-6.096622256566127
-6.080754437288745
-6.066270817930016
-6.0482535972862905
-6.029736745802284
-6.01276808833969
-5.996959928057032
-5.973233524906229
-5.957558386683597
-5.94201441776126
-5.9267372719093006
-5.90813147329842
-5.890856645710805
-5.8751919871678
-5.856020489092242
-5.837198872195735
-5.820992279599516
-5.802808468628752
-5.785400939129834
-5.767257126296681
-5.749366612307354
-5.73029010504336
-5.713162586069755
-5.694864852015984
-5.67823901215109
-5.662158568774499
-5.64607237530492
-5.64607237530492
-5.630938422660488
-5.610109754869502
-5.596348219715065
-5.57863201193821
-5.562808745588649
-5.543656335165105
-5.527890205604347
-5.5142900903644385
-5.499418954328476
-5.483493869567669
-5.46869344501311
-5.45297489262514
-5.434499688066997
-5.418833611829483
-5.404857639551327
-5.3887594708487105
-5.373771394148298
-5.357731754677786
-5.342162941979804
-5.32681025245933
-5.310854610419764
-5.295200128336256
-5.27950760017089
-5.265446412323005
-5.249752704153924
-5.2341231814800855
-5.218404835442286
-5.202613019704428
-5.186672454413387
-5.170585840233326
-5.154791841668898
-5.14056855545741
-5.1243975898859855
-5.105903386920482
-5.089670108943894
-5.075132357381612
-5.058270868863873
-5.041165331923225
-5.0248324437691325
-5.007804096435314
-4.990754153145744
-4.9732292209075135
-4.9578732710150355
-4.942380574385981
-4.927876570274825
-4.914382019492004
-4.898459826450206
-4.882296107124166
-4.867823094325002
-4.852989748847925
-4.836388771896478
-4.822180377113383
-4.8025035028023515
-4.787638380319368
-4.771385812922958
-4.75616754799154
-4.740579641908997
-4.724887251693559
-4.708440308817406
-4.691763981674146
-4.675072610662746
-4.657066021367103
-4.639760735080619
-4.6237547596885245
-4.607273924237998
-4.591294664786125
-4.574468351226312
-4.55744463887944
-4.541450827809028
-4.524277369011722
-4.507675949891971
-4.494191715202701
-4.479528122771577
-4.461596180678017
-4.447409495595877
-4.430454058553102
-4.414183077776286
-4.3977525848120775
-4.382108183003451
-4.366038086166593
-4.351211816300349
-4.334894145021906
-4.320300470698556
-4.303944101851934
-4.287658892600063
-4.271282550953649
-4.253437568102966
-4.237197620072958
-4.220520668698705
-4.204098419919334
-4.1881897390952085
-4.172077675329019
-4.154884604162884
-4.1388838992159895
-4.1219689650111455
-4.106544180982239
-4.089062217482966
-4.073127166799603
-4.056207917923861
-4.0410321289644
-4.024736271370414
-4.007915083344114
-3.99042260065388
-3.9726006058125893
-3.9550473542539804
-3.9384380827372896
-3.9219249711649247
-3.9037808073033964
-3.8856251526139585
-3.8694411771763537
-3.851090233809203
-3.8379597540170236
-3.820438697122297
-3.803899984663512
-3.7867621722777782
-3.7694598207868295
-3.75350355013966
-3.7370216392683058
-3.72021218532695
-3.7039773347750473
-3.6865815106986415
-3.671018547868505
-3.65358337404084
-3.6371783284500845
-3.6188145447664746
-3.6026872787931903
-3.5836377751900517
-3.5666035499632596
-3.5484188952095512
-3.531942484857495
-3.513327825007182
-3.4946741657912583
-3.4758350631550394
-3.4565191816012892
-3.437643144327694
-3.420240334295938
-3.4013371059722064
-3.383161815469411
-3.3647143791692247
-3.345523496030946
-3.327768287050944
-3.3081367136623068
-3.2899614496861376
-3.271843298837529
-3.2532525118171396
-3.236608354795897
-3.2177642030824645
-3.1998633452975374
-3.182873861784159
-3.1641164778734194
-3.1469380982627797
-3.1293743933633933
-3.1119547135196575
-3.094041570086864
-3.0759089054104445
-3.0584545478037692
-3.0408363513760306
-3.0227427876121924
-3.0051976900646906
-2.9863370448550297
-2.9687842496324945
-2.951047823666818
-2.933648072473047
-2.915980659142658
-2.898595783533605
-2.8798216817393727
-2.8623110972257426
-2.8451800603500694
-2.827458466880236
-2.8105117631119056
-2.7928613204284867
-2.774948674678599
-2.7573316410851403
-2.73897184894699
-2.7213665009030454
-2.7017318388179175
-2.6841123956853647
-2.6651942706735623
-2.647582811897615
-2.629151094636055
-2.612004634671612
-2.593523300245166
-2.5765644125071545
-2.5589885364576843
-2.5428463973338538
-2.526006543079882
-2.5092125813851642
-2.4915625356621685
-2.4751091438500348
-2.4579231595225157
-2.4412466376553694
-2.424410277343323
-2.4075024644635907
-2.390856409328079
-2.3738857984371666
-2.3573596713286555
-2.3405149791513042
-2.3236451947612173
-2.30690119072971
-2.289454086043463
-2.2728211418465216
-2.2559226021040835
-2.2390494805581866
-2.222667749259302
-2.205945039845737
-2.1898988755854902
-2.173327954774648
-2.1555055104601104
-2.1394531562573684
-2.121890675798856
-2.105629120218221
-2.0883479175343216
-2.0721148850545412
-2.0556339628221365
-2.039844826029685
-2.022946073307551
-2.0075496756325237
-1.9906931175099511
-1.9754445157119165
-1.9587442166613285
-1.9434593920912917
-1.92671470603052
-1.911916473416955
-1.8952779245392268
-1.8810776174718493
-1.8647525647525867
-1.8507329853160215
-1.8347743897663995
-1.8208313478595257
-1.8049635156267738
-1.7911040821867052
-1.7754029240940101
-1.7616783265431766
-1.7461909789195398
-1.7328734074154766
-1.7176915061249294
-1.704393614493221
-1.6894813078414312
-1.676631454648893
-1.661523667026346
-1.6489307739658208
-1.633902294857579
-1.6213790779840187
-1.6057464819578546
-1.593563444520775
-1.5787832980477556
-1.5668982331760721
-1.5520340073787586
-1.540402078660082
-1.5260149950446318
-1.5147996797621388
-1.500924637996993
-1.4899762366549396
-1.4764672074843952
-1.4658940039035173
-1.4525793521068064
-1.4423819387096775
-1.429314934050839
-1.4193682821583773
-1.4065718174005548
-1.3969232275476695
-1.3847575127828589
-1.3753930364144642
-1.363476021571779
-1.3542051106029678
-1.3425304160975455
-1.3334871746289307
-1.3217475984306926
-1.3130451881620682
-1.3019762633269731
-1.2936173996798854
-1.2830056912846777
-1.2748369870354046
-1.2642465431728807
-1.256282821628171
-1.245773465716841
-1.2380604874358911
-1.2278820537761321
-1.2205154359961294
-1.2108711586318501
-1.2036598744215161
-1.1940354656904106
-1.1870904282687245
-1.1773601426049596
-1.1706116720621798
-1.1611787924210264
-1.1548020263131125
-1.1457785398908
-1.13976964365341
-1.1311692688681925
-1.1253313286407531
-1.117112926263917
-1.1115206399808715
-1.1034122539871896
-1.098142330384412
-1.090535005322713
-1.0854301720116253
-1.0778937740787402
-1.073134087277179
-1.065871922176027
-1.0612803249681162
-1.0544897917376799
-1.0503051455120695
-1.0437551381557455
-1.0396568886848063
-1.0333612175395495
-1.0295117604040263
-1.0235267815966322
-1.019946972170043
-1.0140984009838434
-1.0108040749185443
-1.0052292982696878
-1.0021640869282435
-0.9967466037168706
-0.9938403991815756
-0.9885708629398045
-0.9859390115050771
-0.9809398264784593
-0.97857265170334
-0.9737953596305589
-0.9715729647953866
-0.9670126111079512
-0.9649298420446387
-0.9607774678907491
-0.9588490651299997
-0.9549737510986513
-0.9532033601665709
-0.9494974315387988
-0.9477984589777206
-0.9442325315661129
-0.9426699614353734
-0.939384630319128
-0.9379546084512715
-0.934941495058847
-0.9336857158971955
-0.9309030124009489
-0.9296398679687862
-0.9269762937478462
-0.9258468286070116
-0.9234783526168451
-0.9224485854005855
-0.9202680420337154
-0.9193519542133591
-0.9174362965544556
-0.9165997034658726
-0.914762596372158
-0.9140145143600363
-0.9122387509666202
-0.9115847458729339
-0.9100521142807934
-0.9094179340515487
-0.9080411615094452
-0.9074859291772143
-0.9061814941176749
-0.9056710503709691
-0.904577293280655
-0.904142610965251
-0.9030750054801943
-0.9026935225775194
-0.901816609358168
-0.9013923872090069
-0.9004421107345117
-0.9000715404745929
-0.8993565020762146
-0.8990336764711324
-0.8983838893331076
-0.8980868902814759
-0.8974646279188041
-0.8972243690596525
-0.8966021535436105
-0.8964021719889507
-0.8958204207462814
-0.8955562331934439
-0.8950733285567345
-0.8949141114919393
-0.8944071732710412
-0.8942441604072385
-0.8937034561721475
-0.8935962153578065
-0.8931297567640968
-0.8930046607064945
-0.8926072511029741
-0.89241767154768
-0.8920553365986943
-0.8919339027438823
-0.8915915537648355
-0.8914573973391579
-0.89121357467132
-0.8910710982353272
-0.8908543972212375
-0.8907087130665564
-0.8905095661280434
-0.8903083633161983
-0.8900683716991948
-0.8899562500478323
-0.8898509938620311
-0.8897194644998286
-0.8896031584645537
-0.8894380649643162
-0.8893295383724286
-0.8891232859346864
-0.888997005883364
-0.888997005883364
-0.8888776666685925
-0.8888776666685925
-0.8887501678041512
-0.8887501678041511
-0.8886013820213865
-0.8886013820213866
-0.8885043690061037
-0.8885043690061037
-0.88838437640042
-0.88838437640042
-0.8882763848649382
-0.8882763848649382
-0.8881281830943198
-0.8881281830943198
-0.8879614052226232
-0.8879614052226233
-0.8879049782395878
-0.8879049782395878
-0.8878302400976216
-0.8878302400976216
-0.8877279348850587
-0.8877279348850587
-0.8876252300086411
-0.8876252300086411
-0.8874607530001648
-0.8874607530001648
-0.8872512894065885
