1.3458258478091452
-0.8608007496916075
-0.6063539398124858
0.6797012081784031
0.09574026724630716
-0.27495707518063994
-0.06905113716409861
-0.0693961147037162
0.31552985798827593
1.096076628016338
-0.06046995231457408
-0.5629466488912702
1.0662888871708778
-0.39382015021306327
-0.26440010264542285
0.04329951983928382
-0.1277956100802084
0.7251879546290619
0.023419946421750937
0.5924318962851154
0.6545577915249439
-0.24063154861956226
-0.21132482550609138
-0.01020714137602674
0.40320973388070613
0.7296745359372312
1.1567437171876451
1.6385544156656298
-0.17667189589103915
0.2005815581883319
0.09156197204499061
0.6844245553164703
-0.4051626338104507
-1.4139152689248173
-0.024392286399012253
0.39959189863671857
-1.2767899576486674
0.3562411773617905
-0.2560231777279717
-0.31399975926626067
-0.0048003339693764024
-3.286242110427316
-0.5035689706951723
0.27860850120357405
0.6191245137160944
0.9729743230490779
0.5111455956174582
0.5488910599617868
-0.116662252367985
0.20421399948722296
0.742569284514306
1.2544727948391656
0.1602524732484577
-1.4608400884646473
-0.09832976019430295
0.10440954683971704
0.14630478399258595
-0.7016993909009194
1.038697914863872
-2.929661279117248
0.2095615294032998
0.9249609158245148
-0.27787125423154335
-0.6597691311991548
0.8268262180015625
-1.7843327158864424
-0.8459309276007847
0.07724445538633634
1.3700001526541852
0.26406619962603695
-0.20723341309728505
-0.41638733020802937
0.3374488400801864
0.6298111357608374
1.5482514067248478
0.5494203391178932
0.0110493389158699
1.0749691422373933
-0.03733249945377404
0.13082238926052742
0.8279794262268874
-0.9307601277824764
1.0499878481853115
-0.2925378979894988
-0.33716749172614424
0.8516401591205903
-0.06555003833808709
-0.27529297589750285
1.9773993289575336
0.2700531336910923
-0.1559744196784592
1.233948364113803
0.5359079312963895
-0.9156186114369398
0.07883693384500157
-0.25701796201959093
1.1549521588506404
-0.11089358973270502
1.0900859275921324
0.4416565136678936
-0.5274932828572204
0.24900692700468174
0.563886698038597
-0.09096913819077024
-1.865505352831358
-1.2995229651295657
-1.5276366916110842
-1.5561458505064991
-0.2571708395357526
-0.3825845511395406
1.5865510269991516
-0.3771073683217937
-0.6307301281360779
-1.0823183961043696
0.06611089536379211
-0.6769773743109948
0.5248202358929145
-0.8670221504668253
-0.441166153577309
0.40873168187739684
-0.9024468871459851
-0.0676916588749557
0.052004044195368526
1.1951313212731374
-0.25471597992533757
-0.15730443397278526
-0.5110427237576789
-0.36942583893448805
1.3399937798148724
-0.12467007131092583
0.44027048465022217
-0.22106242914627267
0.014945713847798747
-0.7177566998868095
0.7750087342786214
5.952865839232713E-4
0.7101177984618496
0.7865893226465847
-0.049325640760265355
-0.33178192623876174
-0.1661350694189775
-0.2889089589591242
0.9054360039229706
0.6080227715885711
0.1038861481845807
-0.39987816296857476
-0.6261458274290777
-0.7743185891463383
0.7738977634286561
-0.13319749611077908
-0.38272687301967045
0.7979243404856684
-0.2756282774488164
0.8301653164036877
0.020308550216545262
-0.05259058272687245
-0.06956321928006337
0.8052282033430931
0.6919600890725499
-0.057439144440380535
-0.2487768276754067
-0.4314317146326048
0.07604771024934476
-0.044056727164865916
-0.19457125947379172
0.6875548258955853
-0.17635435631849894
-0.1892321203393751
0.7120841509974067
-0.08481718774871971
-0.7241268051874934
-0.6539086064282004
-0.7209567787294557
-0.02906085073459075
-0.04168751231360074
-0.08478819447980118
-0.09728190062988595
-0.10645163472245678
-0.133448651289021
-0.14939490307096875
-0.17856252384567894
-0.130164007767205
-0.18728017200281655
-0.0896109741805321
-0.042249511309842336
-0.16112024935783753
0.7364434585359605
-0.07301181207162466
-0.07069696996889607
-0.09627385821877898
-0.023933589597843752
-0.04364799644385958
-0.09201139812523612
-0.123306624768421
-0.00316847777787288
-0.06516695534947098
-0.0870860545032312
-0.08148211255252358
-0.06712355786622187
-0.037248860841328724
-0.025800434505676817
-0.05956126171319659
-0.022579416388255058
-0.01806547923899926
0.0103391356921268
-0.018382045212675502
-0.06330670518197101
0.010890510202976988
-0.03964103606387098
-0.058046568713913727
-0.005286817313658043
-0.052614497242987446
-0.0833474518048623
-0.05888857957848964
-0.0628668528084359
-0.07593220272197077
-0.05656733452954893
-0.07226282410429125
-0.06286240944233851
-0.05987297980307521
-0.07374037315392812
-0.05424845902604036
-0.06486042236144846
-0.03551953043722472
-0.02223934085794882
-0.04577728776628687
-0.05938632561514601
-0.07060640388655193
-0.08835667698314742
-0.03733919468624414
-0.01967057551036161
-0.03582418694069062
-0.03556356190978033
-0.03801044326741582
-0.02116324884560611
-0.005087137374956585
-0.01145501348276029
-0.011142528536311369
-0.005976501959801983
-0.01521200601461059
-0.02725999581901356
-0.02176658805165671
-0.022153834502258496
-0.03066991023942517
-0.05130524538123532
-0.058220338570500685
-0.0659073875077325
-0.054768924557199006
-0.04332252075870896
-0.041861134780916076
-0.048712497960533396
-0.05061721130099334
-0.05186871600442855
-0.04522371176715484
-0.04507699840942164
-0.04627548121635561
-0.0444644142787633
-0.032087528712399005
-0.02966779692204119
-0.02475279131796415
-0.02274831744685335
-0.01394463028480053
-0.021118565064740413
-0.013708212002194686
-0.01741320039402594
-0.012111687317517605
-0.01537831506155507
-0.016416068568612385
-0.014993835243616305
-0.01506993227218928
-0.015752374150090398
-0.019149882539267638
-0.02703156677866292
-0.03081578661083806
-0.032527822942771845
-0.023040847939466664
-0.03344514174768526
-0.03515604827418972
-0.035401424456188935
-0.03703234796871846
-0.03710122694897794
-0.03754515501422123
-0.0352286866532901
-0.03358432628592478
-0.031199571064163545
-0.027580389630255442
-0.024845466989106557
-0.02296220725148701
-0.01929843135824555
-0.01579661601228738
-0.008754434325403349
-0.004845335701621434
-0.0012243776174173937
0.0036592956553833655
0.006325798159479146
0.008892295448472087
0.010656007078397589
0.012399161639801315
0.013379956698335305
0.014988667540180023
0.01602892192530997
0.01768678405714924
0.01864954098227245
0.019342644158629574
0.019666687180615705
0.01963324389513732
0.020422252703784782
0.020830063963894196
0.020735546206043842
0.020714927899468716
0.020534880819768675
0.02094592315895666
0.020857542127204365
0.019900785095648965
0.019982622530000993
0.02027345560838112
0.020155463528070405
0.020127001409118106
0.02026812286908236
0.020787565694018295
0.021301617089142355
0.02128931306921439
0.021578659774405595
0.021811525893401462
0.021749649364969148
0.02250865242860456
0.022816067029982956
0.02324942814290437
0.023449777342407052
0.02369709360974881
0.02388504565139521
0.02428919101674265
0.024742768532140857
0.024688182569406636
0.024472443505948904
0.024851957471616226
0.025409575485514313
0.026011094805481527
0.02653512997316637
0.026387725228277537
0.02641847715164053
0.027021092172949346
0.027362145726928744
0.026525227390648165
0.02727035749358997
0.02767097875884128
0.028015477530875965
0.028346127237060426
0.02825974261297093
0.028968429492142567
0.029286468804652688
0.02920549438442277
0.029570395308895603
0.02999294997167873
0.030215360950576364
