%!PS-Adobe-3.0 EPSF-3.0
%%Creator: MATLAB, The MathWorks, Inc. Version 8.1.0.604 (R2013a). Operating System: Microsoft Windows 8.
%%Title: C:\_FHHAGENBERG\_BitBucket_Repo__MasterProject\mdpm-marker-detection-positioning-method\PositionViewer\Big_S_Plus_23_10___3\results\boxplot_bigs_plus_23_10__3.eps
%%CreationDate: 11/04/2015  11:53:13
%%DocumentNeededFonts: Helvetica
%%DocumentProcessColors: Cyan Magenta Yellow Black
%%LanguageLevel: 2
%%Pages: 1
%%BoundingBox:    96   238   515   553
%%EndComments

%%BeginProlog
% MathWorks dictionary
/MathWorks 160 dict begin
% definition operators
/bdef {bind def} bind def
/ldef {load def} bind def
/xdef {exch def} bdef
/xstore {exch store} bdef
% operator abbreviations
/c  /clip ldef
/cc /concat ldef
/cp /closepath ldef
/gr /grestore ldef
/gs /gsave ldef
/mt /moveto ldef
/np /newpath ldef
/cm /currentmatrix ldef
/sm /setmatrix ldef
/rm /rmoveto ldef
/rl /rlineto ldef
/s {show newpath} bdef
/sc {setcmykcolor} bdef
/sr /setrgbcolor ldef
/sg /setgray ldef
/w /setlinewidth ldef
/j /setlinejoin ldef
/cap /setlinecap ldef
/rc {rectclip} bdef
/rf {rectfill} bdef
% page state control
/pgsv () def
/bpage {/pgsv save def} bdef
/epage {pgsv restore} bdef
/bplot /gsave ldef
/eplot {stroke grestore} bdef
% orientation switch
/portraitMode 0 def /landscapeMode 1 def /rotateMode 2 def
% coordinate system mappings
/dpi2point 0 def
% font control
/FontSize 0 def
/FMS {/FontSize xstore findfont [FontSize 0 0 FontSize neg 0 0]
  makefont setfont} bdef
/ISOLatin1Encoding where {pop /WindowsLatin1Encoding 256 array bdef
ISOLatin1Encoding WindowsLatin1Encoding copy pop
/.notdef/.notdef/quotesinglbase/florin/quotedblbase/ellipsis/dagger
/daggerdbl/circumflex/perthousand/Scaron/guilsinglleft/OE/.notdef/.notdef
/.notdef/.notdef/quoteleft/quoteright/quotedblleft/quotedblright/bullet
/endash/emdash/tilde/trademark/scaron/guilsinglright/oe/.notdef/.notdef
/Ydieresis WindowsLatin1Encoding 128 32 getinterval astore pop}
{/WindowsLatin1Encoding StandardEncoding bdef} ifelse
/reencode {exch dup where {pop load} {pop StandardEncoding} ifelse
  exch dup 3 1 roll findfont dup length dict begin
  { 1 index /FID ne {def}{pop pop} ifelse } forall
  /Encoding exch def currentdict end definefont pop} bdef
/isroman {findfont /CharStrings get /Agrave known} bdef
/FMSR {3 1 roll 1 index dup isroman {reencode} {pop pop} ifelse
  exch FMS} bdef
/csm {1 dpi2point div -1 dpi2point div scale neg translate
 dup landscapeMode eq {pop -90 rotate}
  {rotateMode eq {90 rotate} if} ifelse} bdef
% line types: solid, dotted, dashed, dotdash
/SO { [] 0 setdash } bdef
/DO { [.5 dpi2point mul 4 dpi2point mul] 0 setdash } bdef
/DA { [6 dpi2point mul] 0 setdash } bdef
/DD { [.5 dpi2point mul 4 dpi2point mul 6 dpi2point mul 4
  dpi2point mul] 0 setdash } bdef
% macros for lines and objects
/L {lineto stroke} bdef
/MP {3 1 roll moveto 1 sub {rlineto} repeat} bdef
/AP {{rlineto} repeat} bdef
/PDlw -1 def
/W {/PDlw currentlinewidth def setlinewidth} def
/PP {closepath eofill} bdef
/DP {closepath stroke} bdef
/MR {4 -2 roll moveto dup  0 exch rlineto exch 0 rlineto
  neg 0 exch rlineto closepath} bdef
/FR {MR stroke} bdef
/PR {MR fill} bdef
/L1i {{currentfile picstr readhexstring pop} image} bdef
/tMatrix matrix def
/MakeOval {newpath tMatrix currentmatrix pop translate scale
0 0 1 0 360 arc tMatrix setmatrix} bdef
/FO {MakeOval stroke} bdef
/PO {MakeOval fill} bdef
/PD {currentlinewidth 2 div 0 360 arc fill
   PDlw -1 eq not {PDlw w /PDlw -1 def} if} def
/FA {newpath tMatrix currentmatrix pop translate scale
  0 0 1 5 -2 roll arc tMatrix setmatrix stroke} bdef
/PA {newpath tMatrix currentmatrix pop	translate 0 0 moveto scale
  0 0 1 5 -2 roll arc closepath tMatrix setmatrix fill} bdef
/FAn {newpath tMatrix currentmatrix pop translate scale
  0 0 1 5 -2 roll arcn tMatrix setmatrix stroke} bdef
/PAn {newpath tMatrix currentmatrix pop translate 0 0 moveto scale
  0 0 1 5 -2 roll arcn closepath tMatrix setmatrix fill} bdef
/vradius 0 def /hradius 0 def /lry 0 def
/lrx 0 def /uly 0 def /ulx 0 def /rad 0 def
/MRR {/vradius xdef /hradius xdef /lry xdef /lrx xdef /uly xdef
  /ulx xdef newpath tMatrix currentmatrix pop ulx hradius add uly
  vradius add translate hradius vradius scale 0 0 1 180 270 arc 
  tMatrix setmatrix lrx hradius sub uly vradius add translate
  hradius vradius scale 0 0 1 270 360 arc tMatrix setmatrix
  lrx hradius sub lry vradius sub translate hradius vradius scale
  0 0 1 0 90 arc tMatrix setmatrix ulx hradius add lry vradius sub
  translate hradius vradius scale 0 0 1 90 180 arc tMatrix setmatrix
  closepath} bdef
/FRR {MRR stroke } bdef
/PRR {MRR fill } bdef
/MlrRR {/lry xdef /lrx xdef /uly xdef /ulx xdef /rad lry uly sub 2 div def
  newpath tMatrix currentmatrix pop ulx rad add uly rad add translate
  rad rad scale 0 0 1 90 270 arc tMatrix setmatrix lrx rad sub lry rad
  sub translate rad rad scale 0 0 1 270 90 arc tMatrix setmatrix
  closepath} bdef
/FlrRR {MlrRR stroke } bdef
/PlrRR {MlrRR fill } bdef
/MtbRR {/lry xdef /lrx xdef /uly xdef /ulx xdef /rad lrx ulx sub 2 div def
  newpath tMatrix currentmatrix pop ulx rad add uly rad add translate
  rad rad scale 0 0 1 180 360 arc tMatrix setmatrix lrx rad sub lry rad
  sub translate rad rad scale 0 0 1 0 180 arc tMatrix setmatrix
  closepath} bdef
/FtbRR {MtbRR stroke } bdef
/PtbRR {MtbRR fill } bdef
/stri 6 array def /dtri 6 array def
/smat 6 array def /dmat 6 array def
/tmat1 6 array def /tmat2 6 array def /dif 3 array def
/asub {/ind2 exch def /ind1 exch def dup dup
  ind1 get exch ind2 get sub exch } bdef
/tri_to_matrix {
  2 0 asub 3 1 asub 4 0 asub 5 1 asub
  dup 0 get exch 1 get 7 -1 roll astore } bdef
/compute_transform {
  dmat dtri tri_to_matrix tmat1 invertmatrix 
  smat stri tri_to_matrix tmat2 concatmatrix } bdef
/ds {stri astore pop} bdef
/dt {dtri astore pop} bdef
/db {2 copy /cols xdef /rows xdef mul dup 3 mul string
  currentfile 
  3 index 0 eq {/ASCIIHexDecode filter}
  {/ASCII85Decode filter 3 index 2 eq {/RunLengthDecode filter} if }
  ifelse exch readstring pop
  dup 0 3 index getinterval /rbmap xdef
  dup 2 index dup getinterval /gbmap xdef
  1 index dup 2 mul exch getinterval /bbmap xdef pop pop}bdef
/it {gs np dtri aload pop moveto lineto lineto cp c
  cols rows 8 compute_transform 
  rbmap gbmap bbmap true 3 colorimage gr}bdef
/il {newpath moveto lineto stroke}bdef
currentdict end def
%%EndProlog

%%BeginSetup
MathWorks begin

0 cap

end
%%EndSetup

%%Page: 1 1
%%BeginPageSetup
%%PageBoundingBox:    96   238   515   553
MathWorks begin
bpage
%%EndPageSetup

%%BeginObject: obj1
bplot

/dpi2point 12 def
portraitMode 1152 6636 csm

    0     0  5039  3780 rc
85 dict begin %Colortable dictionary
/c0 { 0.000000 0.000000 0.000000 sr} bdef
/c1 { 1.000000 1.000000 1.000000 sr} bdef
/c2 { 0.900000 0.000000 0.000000 sr} bdef
/c3 { 0.000000 0.820000 0.000000 sr} bdef
/c4 { 0.000000 0.000000 0.800000 sr} bdef
/c5 { 0.910000 0.820000 0.320000 sr} bdef
/c6 { 1.000000 0.260000 0.820000 sr} bdef
/c7 { 0.000000 0.820000 0.820000 sr} bdef
c0
1 j
1 sg
   0    0 5040 3781 rf
6 w
0 2918 3905 0 0 -2918 655 3202 4 MP
PP
-3905 0 0 2918 3905 0 0 -2918 655 3202 5 MP stroke
4 w
DO
0 sg
 655 3070 mt 4560 3070 L
4560 3070 mt 4560 3070 L
 655 2766 mt 4560 2766 L
4560 2766 mt 4560 2766 L
 655 2463 mt 4560 2463 L
4560 2463 mt 4560 2463 L
 655 2160 mt 4560 2160 L
4560 2160 mt 4560 2160 L
 655 1856 mt 4560 1856 L
4560 1856 mt 4560 1856 L
 655 1553 mt 4560 1553 L
4560 1553 mt 4560 1553 L
 655 1249 mt 4560 1249 L
4560 1249 mt 4560 1249 L
 655  946 mt 4560  946 L
4560  946 mt 4560  946 L
 655  643 mt 4560  643 L
4560  643 mt 4560  643 L
 655  339 mt 4560  339 L
4560  339 mt 4560  339 L
SO
6 w
 655  284 mt 4560  284 L
 655 3202 mt 4560 3202 L
4560 3202 mt 4560  284 L
 655 3202 mt  655  284 L
 655 3202 mt 4560 3202 L
 655 3202 mt  655  284 L
 655 3070 mt  694 3070 L
4560 3070 mt 4520 3070 L
%%IncludeResource: font Helvetica
/Helvetica /WindowsLatin1Encoding 120 FMSR

 554 3114 mt 
(0) s
DO
 655 2918 mt 4560 2918 L
4560 2918 mt 4560 2918 L
 655 2766 mt 4560 2766 L
4560 2766 mt 4560 2766 L
 655 2766 mt 4560 2766 L
4560 2766 mt 4560 2766 L
 655 2766 mt 4560 2766 L
4560 2766 mt 4560 2766 L
 655 2766 mt 4560 2766 L
4560 2766 mt 4560 2766 L
 655 2766 mt 4560 2766 L
4560 2766 mt 4560 2766 L
 655 2766 mt 4560 2766 L
4560 2766 mt 4560 2766 L
 655 2766 mt 4560 2766 L
4560 2766 mt 4560 2766 L
 655 2766 mt 4560 2766 L
4560 2766 mt 4560 2766 L
SO
 655 2766 mt  694 2766 L
4560 2766 mt 4520 2766 L
 454 2810 mt 
(0.1) s
DO
 655 2615 mt 4560 2615 L
4560 2615 mt 4560 2615 L
 655 2463 mt 4560 2463 L
4560 2463 mt 4560 2463 L
 655 2463 mt 4560 2463 L
4560 2463 mt 4560 2463 L
 655 2463 mt 4560 2463 L
4560 2463 mt 4560 2463 L
 655 2463 mt 4560 2463 L
4560 2463 mt 4560 2463 L
 655 2463 mt 4560 2463 L
4560 2463 mt 4560 2463 L
 655 2463 mt 4560 2463 L
4560 2463 mt 4560 2463 L
 655 2463 mt 4560 2463 L
4560 2463 mt 4560 2463 L
 655 2463 mt 4560 2463 L
4560 2463 mt 4560 2463 L
SO
 655 2463 mt  694 2463 L
4560 2463 mt 4520 2463 L
 454 2507 mt 
(0.2) s
DO
 655 2311 mt 4560 2311 L
4560 2311 mt 4560 2311 L
 655 2160 mt 4560 2160 L
4560 2160 mt 4560 2160 L
 655 2160 mt 4560 2160 L
4560 2160 mt 4560 2160 L
 655 2160 mt 4560 2160 L
4560 2160 mt 4560 2160 L
 655 2160 mt 4560 2160 L
4560 2160 mt 4560 2160 L
 655 2160 mt 4560 2160 L
4560 2160 mt 4560 2160 L
 655 2160 mt 4560 2160 L
4560 2160 mt 4560 2160 L
 655 2160 mt 4560 2160 L
4560 2160 mt 4560 2160 L
 655 2160 mt 4560 2160 L
4560 2160 mt 4560 2160 L
SO
 655 2160 mt  694 2160 L
4560 2160 mt 4520 2160 L
 454 2204 mt 
(0.3) s
DO
 655 2008 mt 4560 2008 L
4560 2008 mt 4560 2008 L
 655 1856 mt 4560 1856 L
4560 1856 mt 4560 1856 L
 655 1856 mt 4560 1856 L
4560 1856 mt 4560 1856 L
 655 1856 mt 4560 1856 L
4560 1856 mt 4560 1856 L
 655 1856 mt 4560 1856 L
4560 1856 mt 4560 1856 L
 655 1856 mt 4560 1856 L
4560 1856 mt 4560 1856 L
 655 1856 mt 4560 1856 L
4560 1856 mt 4560 1856 L
 655 1856 mt 4560 1856 L
4560 1856 mt 4560 1856 L
 655 1856 mt 4560 1856 L
4560 1856 mt 4560 1856 L
SO
 655 1856 mt  694 1856 L
4560 1856 mt 4520 1856 L
 454 1900 mt 
(0.4) s
DO
 655 1705 mt 4560 1705 L
4560 1705 mt 4560 1705 L
 655 1553 mt 4560 1553 L
4560 1553 mt 4560 1553 L
 655 1553 mt 4560 1553 L
4560 1553 mt 4560 1553 L
 655 1553 mt 4560 1553 L
4560 1553 mt 4560 1553 L
 655 1553 mt 4560 1553 L
4560 1553 mt 4560 1553 L
 655 1553 mt 4560 1553 L
4560 1553 mt 4560 1553 L
 655 1553 mt 4560 1553 L
4560 1553 mt 4560 1553 L
 655 1553 mt 4560 1553 L
4560 1553 mt 4560 1553 L
 655 1553 mt 4560 1553 L
4560 1553 mt 4560 1553 L
SO
 655 1553 mt  694 1553 L
4560 1553 mt 4520 1553 L
 454 1597 mt 
(0.5) s
DO
 655 1401 mt 4560 1401 L
4560 1401 mt 4560 1401 L
 655 1249 mt 4560 1249 L
4560 1249 mt 4560 1249 L
 655 1249 mt 4560 1249 L
4560 1249 mt 4560 1249 L
 655 1249 mt 4560 1249 L
4560 1249 mt 4560 1249 L
 655 1249 mt 4560 1249 L
4560 1249 mt 4560 1249 L
 655 1249 mt 4560 1249 L
4560 1249 mt 4560 1249 L
 655 1249 mt 4560 1249 L
4560 1249 mt 4560 1249 L
 655 1249 mt 4560 1249 L
4560 1249 mt 4560 1249 L
 655 1249 mt 4560 1249 L
4560 1249 mt 4560 1249 L
SO
 655 1249 mt  694 1249 L
4560 1249 mt 4520 1249 L
 454 1293 mt 
(0.6) s
DO
 655 1098 mt 4560 1098 L
4560 1098 mt 4560 1098 L
 655  946 mt 4560  946 L
4560  946 mt 4560  946 L
 655  946 mt 4560  946 L
4560  946 mt 4560  946 L
 655  946 mt 4560  946 L
4560  946 mt 4560  946 L
 655  946 mt 4560  946 L
4560  946 mt 4560  946 L
 655  946 mt 4560  946 L
4560  946 mt 4560  946 L
 655  946 mt 4560  946 L
4560  946 mt 4560  946 L
 655  946 mt 4560  946 L
4560  946 mt 4560  946 L
 655  946 mt 4560  946 L
4560  946 mt 4560  946 L
SO
 655  946 mt  694  946 L
4560  946 mt 4520  946 L
 454  990 mt 
(0.7) s
DO
 655  794 mt 4560  794 L
4560  794 mt 4560  794 L
 655  643 mt 4560  643 L
4560  643 mt 4560  643 L
 655  643 mt 4560  643 L
4560  643 mt 4560  643 L
 655  643 mt 4560  643 L
4560  643 mt 4560  643 L
 655  643 mt 4560  643 L
4560  643 mt 4560  643 L
 655  643 mt 4560  643 L
4560  643 mt 4560  643 L
 655  643 mt 4560  643 L
4560  643 mt 4560  643 L
 655  643 mt 4560  643 L
4560  643 mt 4560  643 L
 655  643 mt 4560  643 L
4560  643 mt 4560  643 L
SO
 655  643 mt  694  643 L
4560  643 mt 4520  643 L
 454  687 mt 
(0.8) s
DO
 655  491 mt 4560  491 L
4560  491 mt 4560  491 L
 655  339 mt 4560  339 L
4560  339 mt 4560  339 L
 655  339 mt 4560  339 L
4560  339 mt 4560  339 L
 655  339 mt 4560  339 L
4560  339 mt 4560  339 L
 655  339 mt 4560  339 L
4560  339 mt 4560  339 L
 655  339 mt 4560  339 L
4560  339 mt 4560  339 L
 655  339 mt 4560  339 L
4560  339 mt 4560  339 L
 655  339 mt 4560  339 L
4560  339 mt 4560  339 L
 655  339 mt 4560  339 L
4560  339 mt 4560  339 L
SO
 655  339 mt  694  339 L
4560  339 mt 4520  339 L
 454  383 mt 
(0.9) s
 655  284 mt 4560  284 L
 655 3202 mt 4560 3202 L
4560 3202 mt 4560  284 L
 655 3202 mt  655  284 L
gs 655 284 3906 2919 rc
DA
0 -1361 2607 1822 2 MP stroke
0 -318 2607 3069 2 MP stroke
SO
292 0 2461 461 2 MP stroke
292 0 2461 3069 2 MP stroke
/c8 { 0.000000 0.000000 1.000000 sr} bdef
c8
-586 0 0 929 586 0 0 -929 2314 2751 5 MP stroke
/c9 { 1.000000 0.000000 0.000000 sr} bdef
c9
586 0 2314 2364 2 MP stroke
gs 2534 343 147 147 rc
2571  416 mt 2643  416 L
2607  380 mt 2607  452 L
gr

gr

c9
0 sg
2575 3338 mt 
(1) s

end %%Color Dict

eplot
%%EndObject

epage
end

showpage

%%Trailer
%%EOF
