%!PS-Adobe-3.0 EPSF-3.0
%%Creator: MATLAB, The MathWorks, Inc. Version 8.1.0.604 (R2013a). Operating System: Microsoft Windows 8.
%%Title: C:\_FHHAGENBERG\_BitBucket_Repo__MasterProject\mdpm-marker-detection-positioning-method\PositionViewer\Big_S_Plus_23_10___3\results\cdf_bigs_plu_23_10___3.eps
%%CreationDate: 11/04/2015  11:42:04
%%DocumentNeededFonts: Helvetica
%%DocumentProcessColors: Cyan Magenta Yellow Black
%%LanguageLevel: 2
%%Pages: 1
%%BoundingBox:    96   238   515   553
%%EndComments

%%BeginProlog
% MathWorks dictionary
/MathWorks 160 dict begin
% definition operators
/bdef {bind def} bind def
/ldef {load def} bind def
/xdef {exch def} bdef
/xstore {exch store} bdef
% operator abbreviations
/c  /clip ldef
/cc /concat ldef
/cp /closepath ldef
/gr /grestore ldef
/gs /gsave ldef
/mt /moveto ldef
/np /newpath ldef
/cm /currentmatrix ldef
/sm /setmatrix ldef
/rm /rmoveto ldef
/rl /rlineto ldef
/s {show newpath} bdef
/sc {setcmykcolor} bdef
/sr /setrgbcolor ldef
/sg /setgray ldef
/w /setlinewidth ldef
/j /setlinejoin ldef
/cap /setlinecap ldef
/rc {rectclip} bdef
/rf {rectfill} bdef
% page state control
/pgsv () def
/bpage {/pgsv save def} bdef
/epage {pgsv restore} bdef
/bplot /gsave ldef
/eplot {stroke grestore} bdef
% orientation switch
/portraitMode 0 def /landscapeMode 1 def /rotateMode 2 def
% coordinate system mappings
/dpi2point 0 def
% font control
/FontSize 0 def
/FMS {/FontSize xstore findfont [FontSize 0 0 FontSize neg 0 0]
  makefont setfont} bdef
/ISOLatin1Encoding where {pop /WindowsLatin1Encoding 256 array bdef
ISOLatin1Encoding WindowsLatin1Encoding copy pop
/.notdef/.notdef/quotesinglbase/florin/quotedblbase/ellipsis/dagger
/daggerdbl/circumflex/perthousand/Scaron/guilsinglleft/OE/.notdef/.notdef
/.notdef/.notdef/quoteleft/quoteright/quotedblleft/quotedblright/bullet
/endash/emdash/tilde/trademark/scaron/guilsinglright/oe/.notdef/.notdef
/Ydieresis WindowsLatin1Encoding 128 32 getinterval astore pop}
{/WindowsLatin1Encoding StandardEncoding bdef} ifelse
/reencode {exch dup where {pop load} {pop StandardEncoding} ifelse
  exch dup 3 1 roll findfont dup length dict begin
  { 1 index /FID ne {def}{pop pop} ifelse } forall
  /Encoding exch def currentdict end definefont pop} bdef
/isroman {findfont /CharStrings get /Agrave known} bdef
/FMSR {3 1 roll 1 index dup isroman {reencode} {pop pop} ifelse
  exch FMS} bdef
/csm {1 dpi2point div -1 dpi2point div scale neg translate
 dup landscapeMode eq {pop -90 rotate}
  {rotateMode eq {90 rotate} if} ifelse} bdef
% line types: solid, dotted, dashed, dotdash
/SO { [] 0 setdash } bdef
/DO { [.5 dpi2point mul 4 dpi2point mul] 0 setdash } bdef
/DA { [6 dpi2point mul] 0 setdash } bdef
/DD { [.5 dpi2point mul 4 dpi2point mul 6 dpi2point mul 4
  dpi2point mul] 0 setdash } bdef
% macros for lines and objects
/L {lineto stroke} bdef
/MP {3 1 roll moveto 1 sub {rlineto} repeat} bdef
/AP {{rlineto} repeat} bdef
/PDlw -1 def
/W {/PDlw currentlinewidth def setlinewidth} def
/PP {closepath eofill} bdef
/DP {closepath stroke} bdef
/MR {4 -2 roll moveto dup  0 exch rlineto exch 0 rlineto
  neg 0 exch rlineto closepath} bdef
/FR {MR stroke} bdef
/PR {MR fill} bdef
/L1i {{currentfile picstr readhexstring pop} image} bdef
/tMatrix matrix def
/MakeOval {newpath tMatrix currentmatrix pop translate scale
0 0 1 0 360 arc tMatrix setmatrix} bdef
/FO {MakeOval stroke} bdef
/PO {MakeOval fill} bdef
/PD {currentlinewidth 2 div 0 360 arc fill
   PDlw -1 eq not {PDlw w /PDlw -1 def} if} def
/FA {newpath tMatrix currentmatrix pop translate scale
  0 0 1 5 -2 roll arc tMatrix setmatrix stroke} bdef
/PA {newpath tMatrix currentmatrix pop	translate 0 0 moveto scale
  0 0 1 5 -2 roll arc closepath tMatrix setmatrix fill} bdef
/FAn {newpath tMatrix currentmatrix pop translate scale
  0 0 1 5 -2 roll arcn tMatrix setmatrix stroke} bdef
/PAn {newpath tMatrix currentmatrix pop translate 0 0 moveto scale
  0 0 1 5 -2 roll arcn closepath tMatrix setmatrix fill} bdef
/vradius 0 def /hradius 0 def /lry 0 def
/lrx 0 def /uly 0 def /ulx 0 def /rad 0 def
/MRR {/vradius xdef /hradius xdef /lry xdef /lrx xdef /uly xdef
  /ulx xdef newpath tMatrix currentmatrix pop ulx hradius add uly
  vradius add translate hradius vradius scale 0 0 1 180 270 arc 
  tMatrix setmatrix lrx hradius sub uly vradius add translate
  hradius vradius scale 0 0 1 270 360 arc tMatrix setmatrix
  lrx hradius sub lry vradius sub translate hradius vradius scale
  0 0 1 0 90 arc tMatrix setmatrix ulx hradius add lry vradius sub
  translate hradius vradius scale 0 0 1 90 180 arc tMatrix setmatrix
  closepath} bdef
/FRR {MRR stroke } bdef
/PRR {MRR fill } bdef
/MlrRR {/lry xdef /lrx xdef /uly xdef /ulx xdef /rad lry uly sub 2 div def
  newpath tMatrix currentmatrix pop ulx rad add uly rad add translate
  rad rad scale 0 0 1 90 270 arc tMatrix setmatrix lrx rad sub lry rad
  sub translate rad rad scale 0 0 1 270 90 arc tMatrix setmatrix
  closepath} bdef
/FlrRR {MlrRR stroke } bdef
/PlrRR {MlrRR fill } bdef
/MtbRR {/lry xdef /lrx xdef /uly xdef /ulx xdef /rad lrx ulx sub 2 div def
  newpath tMatrix currentmatrix pop ulx rad add uly rad add translate
  rad rad scale 0 0 1 180 360 arc tMatrix setmatrix lrx rad sub lry rad
  sub translate rad rad scale 0 0 1 0 180 arc tMatrix setmatrix
  closepath} bdef
/FtbRR {MtbRR stroke } bdef
/PtbRR {MtbRR fill } bdef
/stri 6 array def /dtri 6 array def
/smat 6 array def /dmat 6 array def
/tmat1 6 array def /tmat2 6 array def /dif 3 array def
/asub {/ind2 exch def /ind1 exch def dup dup
  ind1 get exch ind2 get sub exch } bdef
/tri_to_matrix {
  2 0 asub 3 1 asub 4 0 asub 5 1 asub
  dup 0 get exch 1 get 7 -1 roll astore } bdef
/compute_transform {
  dmat dtri tri_to_matrix tmat1 invertmatrix 
  smat stri tri_to_matrix tmat2 concatmatrix } bdef
/ds {stri astore pop} bdef
/dt {dtri astore pop} bdef
/db {2 copy /cols xdef /rows xdef mul dup 3 mul string
  currentfile 
  3 index 0 eq {/ASCIIHexDecode filter}
  {/ASCII85Decode filter 3 index 2 eq {/RunLengthDecode filter} if }
  ifelse exch readstring pop
  dup 0 3 index getinterval /rbmap xdef
  dup 2 index dup getinterval /gbmap xdef
  1 index dup 2 mul exch getinterval /bbmap xdef pop pop}bdef
/it {gs np dtri aload pop moveto lineto lineto cp c
  cols rows 8 compute_transform 
  rbmap gbmap bbmap true 3 colorimage gr}bdef
/il {newpath moveto lineto stroke}bdef
currentdict end def
%%EndProlog

%%BeginSetup
MathWorks begin

0 cap

end
%%EndSetup

%%Page: 1 1
%%BeginPageSetup
%%PageBoundingBox:    96   238   515   553
MathWorks begin
bpage
%%EndPageSetup

%%BeginObject: obj1
bplot

/dpi2point 12 def
portraitMode 1152 6636 csm

    0     0  5039  3780 rc
86 dict begin %Colortable dictionary
/c0 { 0.000000 0.000000 0.000000 sr} bdef
/c1 { 1.000000 1.000000 1.000000 sr} bdef
/c2 { 0.900000 0.000000 0.000000 sr} bdef
/c3 { 0.000000 0.820000 0.000000 sr} bdef
/c4 { 0.000000 0.000000 0.800000 sr} bdef
/c5 { 0.910000 0.820000 0.320000 sr} bdef
/c6 { 1.000000 0.260000 0.820000 sr} bdef
/c7 { 0.000000 0.820000 0.820000 sr} bdef
c0
1 j
1 sg
   0    0 5040 3781 rf
6 w
0 3081 3905 0 0 -3081 655 3364 4 MP
PP
-3905 0 0 3081 3905 0 0 -3081 655 3364 5 MP stroke
4 w
DO
0 sg
 655 3364 mt  655  283 L
 655  283 mt  655  283 L
1088 3364 mt 1088  283 L
1088  283 mt 1088  283 L
1522 3364 mt 1522  283 L
1522  283 mt 1522  283 L
1956 3364 mt 1956  283 L
1956  283 mt 1956  283 L
2390 3364 mt 2390  283 L
2390  283 mt 2390  283 L
2824 3364 mt 2824  283 L
2824  283 mt 2824  283 L
3258 3364 mt 3258  283 L
3258  283 mt 3258  283 L
3692 3364 mt 3692  283 L
3692  283 mt 3692  283 L
4126 3364 mt 4126  283 L
4126  283 mt 4126  283 L
4560 3364 mt 4560  283 L
4560  283 mt 4560  283 L
 655 3364 mt 4560 3364 L
4560 3364 mt 4560 3364 L
 655 3055 mt 4560 3055 L
4560 3055 mt 4560 3055 L
 655 2747 mt 4560 2747 L
4560 2747 mt 4560 2747 L
 655 2439 mt 4560 2439 L
4560 2439 mt 4560 2439 L
 655 2131 mt 4560 2131 L
4560 2131 mt 4560 2131 L
 655 1823 mt 4560 1823 L
4560 1823 mt 4560 1823 L
 655 1515 mt 4560 1515 L
4560 1515 mt 4560 1515 L
 655 1207 mt 4560 1207 L
4560 1207 mt 4560 1207 L
 655  899 mt 4560  899 L
4560  899 mt 4560  899 L
 655  591 mt 4560  591 L
4560  591 mt 4560  591 L
 655  283 mt 4560  283 L
4560  283 mt 4560  283 L
SO
6 w
 655  283 mt 4560  283 L
 655 3364 mt 4560 3364 L
4560 3364 mt 4560  283 L
 655 3364 mt  655  283 L
 655 3364 mt 4560 3364 L
 655 3364 mt  655  283 L
 655 3364 mt  655 3324 L
 655  283 mt  655  322 L
%%IncludeResource: font Helvetica
/Helvetica /WindowsLatin1Encoding 120 FMSR

 622 3509 mt 
(0) s
1088 3364 mt 1088 3324 L
1088  283 mt 1088  322 L
1005 3509 mt 
(0.1) s
1522 3364 mt 1522 3324 L
1522  283 mt 1522  322 L
1439 3509 mt 
(0.2) s
1956 3364 mt 1956 3324 L
1956  283 mt 1956  322 L
1873 3509 mt 
(0.3) s
2390 3364 mt 2390 3324 L
2390  283 mt 2390  322 L
2307 3509 mt 
(0.4) s
2824 3364 mt 2824 3324 L
2824  283 mt 2824  322 L
2741 3509 mt 
(0.5) s
3258 3364 mt 3258 3324 L
3258  283 mt 3258  322 L
3175 3509 mt 
(0.6) s
3692 3364 mt 3692 3324 L
3692  283 mt 3692  322 L
3609 3509 mt 
(0.7) s
4126 3364 mt 4126 3324 L
4126  283 mt 4126  322 L
4043 3509 mt 
(0.8) s
4560 3364 mt 4560 3324 L
4560  283 mt 4560  322 L
4477 3509 mt 
(0.9) s
 655 3364 mt  694 3364 L
4560 3364 mt 4520 3364 L
 554 3408 mt 
(0) s
 655 3055 mt  694 3055 L
4560 3055 mt 4520 3055 L
 454 3099 mt 
(0.1) s
 655 2747 mt  694 2747 L
4560 2747 mt 4520 2747 L
 454 2791 mt 
(0.2) s
 655 2439 mt  694 2439 L
4560 2439 mt 4520 2439 L
 454 2483 mt 
(0.3) s
 655 2131 mt  694 2131 L
4560 2131 mt 4520 2131 L
 454 2175 mt 
(0.4) s
 655 1823 mt  694 1823 L
4560 1823 mt 4520 1823 L
 454 1867 mt 
(0.5) s
 655 1515 mt  694 1515 L
4560 1515 mt 4520 1515 L
 454 1559 mt 
(0.6) s
 655 1207 mt  694 1207 L
4560 1207 mt 4520 1207 L
 454 1251 mt 
(0.7) s
 655  899 mt  694  899 L
4560  899 mt 4520  899 L
 454  943 mt 
(0.8) s
 655  591 mt  694  591 L
4560  591 mt 4520  591 L
 454  635 mt 
(0.9) s
 655  283 mt  694  283 L
4560  283 mt 4520  283 L
 554  327 mt 
(1) s
 655  283 mt 4560  283 L
 655 3364 mt 4560 3364 L
4560 3364 mt 4560  283 L
 655 3364 mt  655  283 L
gs 655 283 3906 3082 rc
/c8 { 0.000000 1.000000 0.000000 sr} bdef
c8
64 -16 9 -16 147 -16 0 -16 64 -17 33 -16 29 -16 72 -16 
19 -16 13 -17 36 -16 68 -16 67 -16 3 -17 1 -16 63 -16 
15 -16 246 -16 1 -17 21 -16 19 -16 102 -16 108 -16 97 -17 
17 -16 32 -16 35 -16 116 -17 51 -16 35 -16 115 -16 2 -16 
53 -17 22 -16 13 -16 59 -16 38 -16 26 -17 24 -16 36 -16 
9 -16 9 -17 8 -16 2 -16 6 -16 3 -16 3 -17 21 -16 
40 -16 23 -16 6 -17 9 -16 0 -16 27 -16 1 -16 14 -17 
73 -16 8 -16 0 -16 39 -16 13 -17 21 -16 9 -16 14 -16 
46 -17 18 -16 0 -16 4 -16 48 -16 5 -17 5 -16 7 -16 
59 -16 4 -16 42 -17 10 -16 3 -16 12 -16 44 -17 19 -16 
10 -16 9 -16 3 -16 10 -17 28 -16 4 -16 22 -16 18 -16 
10 -17 1 -16 2 -16 0 -16 4 -17 8 -16 5 -16 13 -16 
3 -16 12 -17 6 -16 7 -16 11 -16 9 -17 7 -16 2 -16 
8 -16 9 -16 4 -17 17 -16 1 -16 3 -16 43 -16 11 -17 
9 -16 0 -16 13 -16 15 -17 4 -16 30 -16 4 -16 3 -16 
17 -17 42 -16 7 -16 8 -16 0 -16 16 -17 14 -16 11 -16 
11 -16 4 -17 22 -16 4 -16 6 -16 2 -16 7 -17 10 -16 
57 -16 17 -16 10 -16 19 -17 4 -16 19 -16 29 -16 3 -17 
4 -16 11 -16 5 -16 27 -16 30 -17 12 -16 17 -16 41 -16 
2 -17 0 -16 29 -16 6 -16 2 -16 19 -17 0 -16 22 -16 
13 -16 2 -16 15 -17 6 -16 11 -16 19 -16 7 -17 0 -32 
2 -16 2 -16 11 -17 3 -16 7 -16 3 -16 7 -16 18 -17 
2 -16 15 -16 0 -16 17 -17 2 -16 1 -16 8 -16 5 -16 
1 -17 1 -16 8 -16 9 -16 0 -17 656 3364 190 MP stroke
gr

c8
0 sg
1843  188 mt 
(Cumulative Error Distribution) s
2070 3652 mt 
(Error \(Accuracy\) [m]) s
 372 2835 mt  -90 rotate
(Cumulative Error Distribution Function) s
90 rotate

end %%Color Dict

eplot
%%EndObject

epage
end

showpage

%%Trailer
%%EOF
