%!PS-Adobe-3.0 EPSF-3.0
%%Creator: MATLAB, The MathWorks, Inc. Version 8.1.0.604 (R2013a). Operating System: Microsoft Windows 8.
%%Title: C:\_FHHAGENBERG\_BitBucket_Repo__MasterProject\mdpm-marker-detection-positioning-method\PositionViewer\Big_S_Plus_23_10___3\results\results_bigs_plus_23_10__3.eps
%%CreationDate: 11/04/2015  11:52:19
%%DocumentNeededFonts: Helvetica
%%DocumentProcessColors: Cyan Magenta Yellow Black
%%LanguageLevel: 2
%%Pages: 1
%%BoundingBox:   117   109   494   683
%%EndComments

%%BeginProlog
% MathWorks dictionary
/MathWorks 160 dict begin
% definition operators
/bdef {bind def} bind def
/ldef {load def} bind def
/xdef {exch def} bdef
/xstore {exch store} bdef
% operator abbreviations
/c  /clip ldef
/cc /concat ldef
/cp /closepath ldef
/gr /grestore ldef
/gs /gsave ldef
/mt /moveto ldef
/np /newpath ldef
/cm /currentmatrix ldef
/sm /setmatrix ldef
/rm /rmoveto ldef
/rl /rlineto ldef
/s {show newpath} bdef
/sc {setcmykcolor} bdef
/sr /setrgbcolor ldef
/sg /setgray ldef
/w /setlinewidth ldef
/j /setlinejoin ldef
/cap /setlinecap ldef
/rc {rectclip} bdef
/rf {rectfill} bdef
% page state control
/pgsv () def
/bpage {/pgsv save def} bdef
/epage {pgsv restore} bdef
/bplot /gsave ldef
/eplot {stroke grestore} bdef
% orientation switch
/portraitMode 0 def /landscapeMode 1 def /rotateMode 2 def
% coordinate system mappings
/dpi2point 0 def
% font control
/FontSize 0 def
/FMS {/FontSize xstore findfont [FontSize 0 0 FontSize neg 0 0]
  makefont setfont} bdef
/ISOLatin1Encoding where {pop /WindowsLatin1Encoding 256 array bdef
ISOLatin1Encoding WindowsLatin1Encoding copy pop
/.notdef/.notdef/quotesinglbase/florin/quotedblbase/ellipsis/dagger
/daggerdbl/circumflex/perthousand/Scaron/guilsinglleft/OE/.notdef/.notdef
/.notdef/.notdef/quoteleft/quoteright/quotedblleft/quotedblright/bullet
/endash/emdash/tilde/trademark/scaron/guilsinglright/oe/.notdef/.notdef
/Ydieresis WindowsLatin1Encoding 128 32 getinterval astore pop}
{/WindowsLatin1Encoding StandardEncoding bdef} ifelse
/reencode {exch dup where {pop load} {pop StandardEncoding} ifelse
  exch dup 3 1 roll findfont dup length dict begin
  { 1 index /FID ne {def}{pop pop} ifelse } forall
  /Encoding exch def currentdict end definefont pop} bdef
/isroman {findfont /CharStrings get /Agrave known} bdef
/FMSR {3 1 roll 1 index dup isroman {reencode} {pop pop} ifelse
  exch FMS} bdef
/csm {1 dpi2point div -1 dpi2point div scale neg translate
 dup landscapeMode eq {pop -90 rotate}
  {rotateMode eq {90 rotate} if} ifelse} bdef
% line types: solid, dotted, dashed, dotdash
/SO { [] 0 setdash } bdef
/DO { [.5 dpi2point mul 4 dpi2point mul] 0 setdash } bdef
/DA { [6 dpi2point mul] 0 setdash } bdef
/DD { [.5 dpi2point mul 4 dpi2point mul 6 dpi2point mul 4
  dpi2point mul] 0 setdash } bdef
% macros for lines and objects
/L {lineto stroke} bdef
/MP {3 1 roll moveto 1 sub {rlineto} repeat} bdef
/AP {{rlineto} repeat} bdef
/PDlw -1 def
/W {/PDlw currentlinewidth def setlinewidth} def
/PP {closepath eofill} bdef
/DP {closepath stroke} bdef
/MR {4 -2 roll moveto dup  0 exch rlineto exch 0 rlineto
  neg 0 exch rlineto closepath} bdef
/FR {MR stroke} bdef
/PR {MR fill} bdef
/L1i {{currentfile picstr readhexstring pop} image} bdef
/tMatrix matrix def
/MakeOval {newpath tMatrix currentmatrix pop translate scale
0 0 1 0 360 arc tMatrix setmatrix} bdef
/FO {MakeOval stroke} bdef
/PO {MakeOval fill} bdef
/PD {currentlinewidth 2 div 0 360 arc fill
   PDlw -1 eq not {PDlw w /PDlw -1 def} if} def
/FA {newpath tMatrix currentmatrix pop translate scale
  0 0 1 5 -2 roll arc tMatrix setmatrix stroke} bdef
/PA {newpath tMatrix currentmatrix pop	translate 0 0 moveto scale
  0 0 1 5 -2 roll arc closepath tMatrix setmatrix fill} bdef
/FAn {newpath tMatrix currentmatrix pop translate scale
  0 0 1 5 -2 roll arcn tMatrix setmatrix stroke} bdef
/PAn {newpath tMatrix currentmatrix pop translate 0 0 moveto scale
  0 0 1 5 -2 roll arcn closepath tMatrix setmatrix fill} bdef
/vradius 0 def /hradius 0 def /lry 0 def
/lrx 0 def /uly 0 def /ulx 0 def /rad 0 def
/MRR {/vradius xdef /hradius xdef /lry xdef /lrx xdef /uly xdef
  /ulx xdef newpath tMatrix currentmatrix pop ulx hradius add uly
  vradius add translate hradius vradius scale 0 0 1 180 270 arc 
  tMatrix setmatrix lrx hradius sub uly vradius add translate
  hradius vradius scale 0 0 1 270 360 arc tMatrix setmatrix
  lrx hradius sub lry vradius sub translate hradius vradius scale
  0 0 1 0 90 arc tMatrix setmatrix ulx hradius add lry vradius sub
  translate hradius vradius scale 0 0 1 90 180 arc tMatrix setmatrix
  closepath} bdef
/FRR {MRR stroke } bdef
/PRR {MRR fill } bdef
/MlrRR {/lry xdef /lrx xdef /uly xdef /ulx xdef /rad lry uly sub 2 div def
  newpath tMatrix currentmatrix pop ulx rad add uly rad add translate
  rad rad scale 0 0 1 90 270 arc tMatrix setmatrix lrx rad sub lry rad
  sub translate rad rad scale 0 0 1 270 90 arc tMatrix setmatrix
  closepath} bdef
/FlrRR {MlrRR stroke } bdef
/PlrRR {MlrRR fill } bdef
/MtbRR {/lry xdef /lrx xdef /uly xdef /ulx xdef /rad lrx ulx sub 2 div def
  newpath tMatrix currentmatrix pop ulx rad add uly rad add translate
  rad rad scale 0 0 1 180 360 arc tMatrix setmatrix lrx rad sub lry rad
  sub translate rad rad scale 0 0 1 0 180 arc tMatrix setmatrix
  closepath} bdef
/FtbRR {MtbRR stroke } bdef
/PtbRR {MtbRR fill } bdef
/stri 6 array def /dtri 6 array def
/smat 6 array def /dmat 6 array def
/tmat1 6 array def /tmat2 6 array def /dif 3 array def
/asub {/ind2 exch def /ind1 exch def dup dup
  ind1 get exch ind2 get sub exch } bdef
/tri_to_matrix {
  2 0 asub 3 1 asub 4 0 asub 5 1 asub
  dup 0 get exch 1 get 7 -1 roll astore } bdef
/compute_transform {
  dmat dtri tri_to_matrix tmat1 invertmatrix 
  smat stri tri_to_matrix tmat2 concatmatrix } bdef
/ds {stri astore pop} bdef
/dt {dtri astore pop} bdef
/db {2 copy /cols xdef /rows xdef mul dup 3 mul string
  currentfile 
  3 index 0 eq {/ASCIIHexDecode filter}
  {/ASCII85Decode filter 3 index 2 eq {/RunLengthDecode filter} if }
  ifelse exch readstring pop
  dup 0 3 index getinterval /rbmap xdef
  dup 2 index dup getinterval /gbmap xdef
  1 index dup 2 mul exch getinterval /bbmap xdef pop pop}bdef
/it {gs np dtri aload pop moveto lineto lineto cp c
  cols rows 8 compute_transform 
  rbmap gbmap bbmap true 3 colorimage gr}bdef
/il {newpath moveto lineto stroke}bdef
currentdict end def
%%EndProlog

%%BeginSetup
MathWorks begin

0 cap

end
%%EndSetup

%%Page: 1 1
%%BeginPageSetup
%%PageBoundingBox:   117   109   494   683
MathWorks begin
bpage
%%EndPageSetup

%%BeginObject: obj1
bplot

/dpi2point 12 def
portraitMode 1404 8196 csm

    0     0  4526  6885 rc
85 dict begin %Colortable dictionary
/c0 { 0.000000 0.000000 0.000000 sr} bdef
/c1 { 1.000000 1.000000 1.000000 sr} bdef
/c2 { 0.900000 0.000000 0.000000 sr} bdef
/c3 { 0.000000 0.820000 0.000000 sr} bdef
/c4 { 0.000000 0.000000 0.800000 sr} bdef
/c5 { 0.910000 0.820000 0.320000 sr} bdef
/c6 { 1.000000 0.260000 0.820000 sr} bdef
/c7 { 0.000000 0.820000 0.820000 sr} bdef
c0
1 j
1 sg
   0    0 4527 6886 rf
6 w
0 6479 2879 0 0 -6479 902 6552 4 MP
PP
-2879 0 0 6479 2879 0 0 -6479 902 6552 5 MP stroke
4 w
DO
0 sg
1142 6552 mt 1142   73 L
1142   73 mt 1142   73 L
1622 6552 mt 1622   73 L
1622   73 mt 1622   73 L
2102 6552 mt 2102   73 L
2102   73 mt 2102   73 L
2581 6552 mt 2581   73 L
2581   73 mt 2581   73 L
3061 6552 mt 3061   73 L
3061   73 mt 3061   73 L
3541 6552 mt 3541   73 L
3541   73 mt 3541   73 L
 902 6072 mt 3781 6072 L
3781 6072 mt 3781 6072 L
 902 4872 mt 3781 4872 L
3781 4872 mt 3781 4872 L
 902 3672 mt 3781 3672 L
3781 3672 mt 3781 3672 L
 902 2473 mt 3781 2473 L
3781 2473 mt 3781 2473 L
 902 1273 mt 3781 1273 L
3781 1273 mt 3781 1273 L
 902   73 mt 3781   73 L
3781   73 mt 3781   73 L
SO
6 w
 902   73 mt 3781   73 L
 902 6552 mt 3781 6552 L
3781 6552 mt 3781   73 L
 902 6552 mt  902   73 L
 902 6552 mt 3781 6552 L
 902 6552 mt  902   73 L
DO
 902 6552 mt  902   73 L
 902   73 mt  902   73 L
SO
1142 6552 mt 1142 6487 L
1142   73 mt 1142  138 L
%%IncludeResource: font Helvetica
/Helvetica /WindowsLatin1Encoding 120 FMSR

1109 6697 mt 
(0) s
DO
1382 6552 mt 1382   73 L
1382   73 mt 1382   73 L
1622 6552 mt 1622   73 L
1622   73 mt 1622   73 L
1622 6552 mt 1622   73 L
1622   73 mt 1622   73 L
1622 6552 mt 1622   73 L
1622   73 mt 1622   73 L
1622 6552 mt 1622   73 L
1622   73 mt 1622   73 L
1622 6552 mt 1622   73 L
1622   73 mt 1622   73 L
1622 6552 mt 1622   73 L
1622   73 mt 1622   73 L
1622 6552 mt 1622   73 L
1622   73 mt 1622   73 L
1622 6552 mt 1622   73 L
1622   73 mt 1622   73 L
SO
1622 6552 mt 1622 6487 L
1622   73 mt 1622  138 L
1589 6697 mt 
(2) s
DO
1862 6552 mt 1862   73 L
1862   73 mt 1862   73 L
2102 6552 mt 2102   73 L
2102   73 mt 2102   73 L
2102 6552 mt 2102   73 L
2102   73 mt 2102   73 L
2102 6552 mt 2102   73 L
2102   73 mt 2102   73 L
2102 6552 mt 2102   73 L
2102   73 mt 2102   73 L
2102 6552 mt 2102   73 L
2102   73 mt 2102   73 L
2102 6552 mt 2102   73 L
2102   73 mt 2102   73 L
2102 6552 mt 2102   73 L
2102   73 mt 2102   73 L
2102 6552 mt 2102   73 L
2102   73 mt 2102   73 L
SO
2102 6552 mt 2102 6487 L
2102   73 mt 2102  138 L
2069 6697 mt 
(4) s
DO
2342 6552 mt 2342   73 L
2342   73 mt 2342   73 L
2581 6552 mt 2581   73 L
2581   73 mt 2581   73 L
2581 6552 mt 2581   73 L
2581   73 mt 2581   73 L
2581 6552 mt 2581   73 L
2581   73 mt 2581   73 L
2581 6552 mt 2581   73 L
2581   73 mt 2581   73 L
2581 6552 mt 2581   73 L
2581   73 mt 2581   73 L
2581 6552 mt 2581   73 L
2581   73 mt 2581   73 L
2581 6552 mt 2581   73 L
2581   73 mt 2581   73 L
2581 6552 mt 2581   73 L
2581   73 mt 2581   73 L
SO
2581 6552 mt 2581 6487 L
2581   73 mt 2581  138 L
2548 6697 mt 
(6) s
DO
2821 6552 mt 2821   73 L
2821   73 mt 2821   73 L
3061 6552 mt 3061   73 L
3061   73 mt 3061   73 L
3061 6552 mt 3061   73 L
3061   73 mt 3061   73 L
3061 6552 mt 3061   73 L
3061   73 mt 3061   73 L
3061 6552 mt 3061   73 L
3061   73 mt 3061   73 L
3061 6552 mt 3061   73 L
3061   73 mt 3061   73 L
3061 6552 mt 3061   73 L
3061   73 mt 3061   73 L
3061 6552 mt 3061   73 L
3061   73 mt 3061   73 L
3061 6552 mt 3061   73 L
3061   73 mt 3061   73 L
SO
3061 6552 mt 3061 6487 L
3061   73 mt 3061  138 L
3028 6697 mt 
(8) s
DO
3301 6552 mt 3301   73 L
3301   73 mt 3301   73 L
3541 6552 mt 3541   73 L
3541   73 mt 3541   73 L
3541 6552 mt 3541   73 L
3541   73 mt 3541   73 L
3541 6552 mt 3541   73 L
3541   73 mt 3541   73 L
3541 6552 mt 3541   73 L
3541   73 mt 3541   73 L
3541 6552 mt 3541   73 L
3541   73 mt 3541   73 L
3541 6552 mt 3541   73 L
3541   73 mt 3541   73 L
3541 6552 mt 3541   73 L
3541   73 mt 3541   73 L
3541 6552 mt 3541   73 L
3541   73 mt 3541   73 L
SO
3541 6552 mt 3541 6487 L
3541   73 mt 3541  138 L
3475 6697 mt 
(10) s
DO
3781 6552 mt 3781   73 L
3781   73 mt 3781   73 L
 902 6312 mt 3781 6312 L
3781 6312 mt 3781 6312 L
 902 6552 mt 3781 6552 L
3781 6552 mt 3781 6552 L
SO
 902 6072 mt  967 6072 L
3781 6072 mt 3716 6072 L
 731 6116 mt 
(-5) s
DO
 902 5832 mt 3781 5832 L
3781 5832 mt 3781 5832 L
 902 5592 mt 3781 5592 L
3781 5592 mt 3781 5592 L
 902 5352 mt 3781 5352 L
3781 5352 mt 3781 5352 L
 902 5112 mt 3781 5112 L
3781 5112 mt 3781 5112 L
 902 4872 mt 3781 4872 L
3781 4872 mt 3781 4872 L
 902 4872 mt 3781 4872 L
3781 4872 mt 3781 4872 L
 902 4872 mt 3781 4872 L
3781 4872 mt 3781 4872 L
 902 4872 mt 3781 4872 L
3781 4872 mt 3781 4872 L
 902 4872 mt 3781 4872 L
3781 4872 mt 3781 4872 L
SO
 902 4872 mt  967 4872 L
3781 4872 mt 3716 4872 L
 801 4916 mt 
(0) s
DO
 902 4632 mt 3781 4632 L
3781 4632 mt 3781 4632 L
 902 4392 mt 3781 4392 L
3781 4392 mt 3781 4392 L
 902 4152 mt 3781 4152 L
3781 4152 mt 3781 4152 L
 902 3912 mt 3781 3912 L
3781 3912 mt 3781 3912 L
 902 3672 mt 3781 3672 L
3781 3672 mt 3781 3672 L
 902 3672 mt 3781 3672 L
3781 3672 mt 3781 3672 L
 902 3672 mt 3781 3672 L
3781 3672 mt 3781 3672 L
 902 3672 mt 3781 3672 L
3781 3672 mt 3781 3672 L
 902 3672 mt 3781 3672 L
3781 3672 mt 3781 3672 L
SO
 902 3672 mt  967 3672 L
3781 3672 mt 3716 3672 L
 801 3716 mt 
(5) s
DO
 902 3432 mt 3781 3432 L
3781 3432 mt 3781 3432 L
 902 3193 mt 3781 3193 L
3781 3193 mt 3781 3193 L
 902 2953 mt 3781 2953 L
3781 2953 mt 3781 2953 L
 902 2713 mt 3781 2713 L
3781 2713 mt 3781 2713 L
 902 2473 mt 3781 2473 L
3781 2473 mt 3781 2473 L
 902 2473 mt 3781 2473 L
3781 2473 mt 3781 2473 L
 902 2473 mt 3781 2473 L
3781 2473 mt 3781 2473 L
 902 2473 mt 3781 2473 L
3781 2473 mt 3781 2473 L
 902 2473 mt 3781 2473 L
3781 2473 mt 3781 2473 L
SO
 902 2473 mt  967 2473 L
3781 2473 mt 3716 2473 L
 734 2517 mt 
(10) s
DO
 902 2233 mt 3781 2233 L
3781 2233 mt 3781 2233 L
 902 1993 mt 3781 1993 L
3781 1993 mt 3781 1993 L
 902 1753 mt 3781 1753 L
3781 1753 mt 3781 1753 L
 902 1513 mt 3781 1513 L
3781 1513 mt 3781 1513 L
 902 1273 mt 3781 1273 L
3781 1273 mt 3781 1273 L
 902 1273 mt 3781 1273 L
3781 1273 mt 3781 1273 L
 902 1273 mt 3781 1273 L
3781 1273 mt 3781 1273 L
 902 1273 mt 3781 1273 L
3781 1273 mt 3781 1273 L
 902 1273 mt 3781 1273 L
3781 1273 mt 3781 1273 L
SO
 902 1273 mt  967 1273 L
3781 1273 mt 3716 1273 L
 734 1317 mt 
(15) s
DO
 902 1033 mt 3781 1033 L
3781 1033 mt 3781 1033 L
 902  793 mt 3781  793 L
3781  793 mt 3781  793 L
 902  553 mt 3781  553 L
3781  553 mt 3781  553 L
 902  313 mt 3781  313 L
3781  313 mt 3781  313 L
 902   73 mt 3781   73 L
3781   73 mt 3781   73 L
 902   73 mt 3781   73 L
3781   73 mt 3781   73 L
 902   73 mt 3781   73 L
3781   73 mt 3781   73 L
 902   73 mt 3781   73 L
3781   73 mt 3781   73 L
 902   73 mt 3781   73 L
3781   73 mt 3781   73 L
SO
 902   73 mt  967   73 L
3781   73 mt 3716   73 L
 734  117 mt 
(20) s
 902   73 mt 3781   73 L
 902 6552 mt 3781 6552 L
3781 6552 mt 3781   73 L
 902 6552 mt  902   73 L
gs 902 73 2880 6480 rc
gr

gs 828 0 3007 6411 rc
/c8 { 1.000000 0.000000 0.000000 sr} bdef
c8
3299 1236 mt 3349 1286 L
3349 1236 mt 3299 1286 L
gr

c8
gs 902 73 2880 6480 rc
gr

gs 828 0 3007 6411 rc
3266  173 mt 3316  223 L
3316  173 mt 3266  223 L
3277  239 mt 3327  289 L
3327  239 mt 3277  289 L
3146 1473 mt 3196 1523 L
3196 1473 mt 3146 1523 L
3264  326 mt 3314  376 L
3314  326 mt 3264  376 L
3238  214 mt 3288  264 L
3288  214 mt 3238  264 L
3164  103 mt 3214  153 L
3214  103 mt 3164  153 L
3172 1371 mt 3222 1421 L
3222 1371 mt 3172 1421 L
3226  529 mt 3276  579 L
3276  529 mt 3226  579 L
3137  209 mt 3187  259 L
3187  209 mt 3137  259 L
3126  217 mt 3176  267 L
3176  217 mt 3126  267 L
3126  119 mt 3176  169 L
3176  119 mt 3126  169 L
gr

gs 902 73 2880 6480 rc
gr

gs 828 0 3007 6411 rc
3094  139 mt 3144  189 L
3144  139 mt 3094  189 L
3060  197 mt 3110  247 L
3110  197 mt 3060  247 L
3066  472 mt 3116  522 L
3116  472 mt 3066  522 L
gr

gs 902 73 2880 6480 rc
gr

gs 828 0 3007 6411 rc
3095  421 mt 3145  471 L
3145  421 mt 3095  471 L
2952  959 mt 3002 1009 L
3002  959 mt 2952 1009 L
2882  100 mt 2932  150 L
2932  100 mt 2882  150 L
2924  287 mt 2974  337 L
2974  287 mt 2924  337 L
gr

gs 902 73 2880 6480 rc
gr

gs 828 0 3007 6411 rc
2788  211 mt 2838  261 L
2838  211 mt 2788  261 L
2837  343 mt 2887  393 L
2887  343 mt 2837  393 L
2719  242 mt 2769  292 L
2769  242 mt 2719  292 L
2657  205 mt 2707  255 L
2707  205 mt 2657  255 L
2694  245 mt 2744  295 L
2744  245 mt 2694  295 L
2540  109 mt 2590  159 L
2590  109 mt 2540  159 L
2534  264 mt 2584  314 L
2584  264 mt 2534  314 L
2464  226 mt 2514  276 L
2514  226 mt 2464  276 L
2586  415 mt 2636  465 L
2636  415 mt 2586  465 L
2340  104 mt 2390  154 L
2390  104 mt 2340  154 L
2369  142 mt 2419  192 L
2419  142 mt 2369  192 L
2402  222 mt 2452  272 L
2452  222 mt 2402  272 L
2430  341 mt 2480  391 L
2480  341 mt 2430  391 L
gr

gs 902 73 2880 6480 rc
gr

gs 828 0 3007 6411 rc
2275  164 mt 2325  214 L
2325  164 mt 2275  214 L
2469  405 mt 2519  455 L
2519  405 mt 2469  455 L
2224  255 mt 2274  305 L
2274  255 mt 2224  305 L
2209  178 mt 2259  228 L
2259  178 mt 2209  228 L
2394  440 mt 2444  490 L
2444  440 mt 2394  490 L
2373  397 mt 2423  447 L
2423  397 mt 2373  447 L
1313  215 mt 1363  265 L
1363  215 mt 1313  265 L
1980  197 mt 2030  247 L
2030  197 mt 1980  247 L
1419  211 mt 1469  261 L
1469  211 mt 1419  261 L
1252  164 mt 1302  214 L
1302  164 mt 1252  214 L
2255  300 mt 2305  350 L
2305  300 mt 2255  350 L
2104  212 mt 2154  262 L
2154  212 mt 2104  262 L
2016  278 mt 2066  328 L
2066  278 mt 2016  328 L
2108  336 mt 2158  386 L
2158  336 mt 2108  386 L
2062  273 mt 2112  323 L
2112  273 mt 2062  323 L
2041  318 mt 2091  368 L
2091  318 mt 2041  368 L
1801  592 mt 1851  642 L
1851  592 mt 1801  642 L
1435  562 mt 1485  612 L
1485  562 mt 1435  612 L
1353  512 mt 1403  562 L
1403  512 mt 1353  562 L
1775  449 mt 1825  499 L
1825  449 mt 1775  499 L
1985  398 mt 2035  448 L
2035  398 mt 1985  448 L
1926  344 mt 1976  394 L
1976  344 mt 1926  394 L
1931  340 mt 1981  390 L
1981  340 mt 1931  390 L
1859  274 mt 1909  324 L
1909  274 mt 1859  324 L
1843  286 mt 1893  336 L
1893  286 mt 1843  336 L
1847  312 mt 1897  362 L
1897  312 mt 1847  362 L
1825  314 mt 1875  364 L
1875  314 mt 1825  364 L
1855  371 mt 1905  421 L
1905  371 mt 1855  421 L
1886  387 mt 1936  437 L
1936  387 mt 1886  437 L
1779  327 mt 1829  377 L
1829  327 mt 1779  377 L
1759  374 mt 1809  424 L
1809  374 mt 1759  424 L
1740  381 mt 1790  431 L
1790  381 mt 1740  431 L
1737  400 mt 1787  450 L
1787  400 mt 1737  450 L
1683  396 mt 1733  446 L
1733  396 mt 1683  446 L
1670  412 mt 1720  462 L
1720  412 mt 1670  462 L
1666  428 mt 1716  478 L
1716  428 mt 1666  478 L
1641  436 mt 1691  486 L
1691  436 mt 1641  486 L
1629  445 mt 1679  495 L
1679  445 mt 1629  495 L
1600  504 mt 1650  554 L
1650  504 mt 1600  554 L
1116  495 mt 1166  545 L
1166  495 mt 1116  545 L
1029  553 mt 1079  603 L
1079  553 mt 1029  603 L
gr

gs 902 73 2880 6480 rc
gr

gs 828 0 3007 6411 rc
1489  595 mt 1539  645 L
1539  595 mt 1489  645 L
gr

gs 902 73 2880 6480 rc
gr

gs 828 0 3007 6411 rc
 926  881 mt  976  931 L
 976  881 mt  926  931 L
1242 1020 mt 1292 1070 L
1292 1020 mt 1242 1070 L
1494 1123 mt 1544 1173 L
1544 1123 mt 1494 1173 L
1386 1610 mt 1436 1660 L
1436 1610 mt 1386 1660 L
1417 1858 mt 1467 1908 L
1467 1858 mt 1417 1908 L
1518 1812 mt 1568 1862 L
1568 1812 mt 1518 1862 L
1604 1938 mt 1654 1988 L
1654 1938 mt 1604 1988 L
1659 1850 mt 1709 1900 L
1709 1850 mt 1659 1900 L
1734 1791 mt 1784 1841 L
1784 1791 mt 1734 1841 L
1748 2094 mt 1798 2144 L
1798 2094 mt 1748 2144 L
1877 2092 mt 1927 2142 L
1927 2092 mt 1877 2142 L
1873 2123 mt 1923 2173 L
1923 2123 mt 1873 2173 L
1852 1884 mt 1902 1934 L
1902 1884 mt 1852 1934 L
1879 1851 mt 1929 1901 L
1929 1851 mt 1879 1901 L
1887 1899 mt 1937 1949 L
1937 1899 mt 1887 1949 L
1930 2041 mt 1980 2091 L
1980 2041 mt 1930 2091 L
1933 2151 mt 1983 2201 L
1983 2151 mt 1933 2201 L
1953 2125 mt 2003 2175 L
2003 2125 mt 1953 2175 L
1996 2079 mt 2046 2129 L
2046 2079 mt 1996 2129 L
2012 2105 mt 2062 2155 L
2062 2105 mt 2012 2155 L
2044 2118 mt 2094 2168 L
2094 2118 mt 2044 2168 L
2061 2076 mt 2111 2126 L
2111 2076 mt 2061 2126 L
2066 2099 mt 2116 2149 L
2116 2099 mt 2066 2149 L
2087 2093 mt 2137 2143 L
2137 2093 mt 2087 2143 L
2120 2078 mt 2170 2128 L
2170 2078 mt 2120 2128 L
2111 2070 mt 2161 2120 L
2161 2070 mt 2111 2120 L
2120 2162 mt 2170 2212 L
2170 2162 mt 2120 2212 L
2201 2166 mt 2251 2216 L
2251 2166 mt 2201 2216 L
2210 2137 mt 2260 2187 L
2260 2137 mt 2210 2187 L
2205 2119 mt 2255 2169 L
2255 2119 mt 2205 2169 L
2194 2066 mt 2244 2116 L
2244 2066 mt 2194 2116 L
2278 2157 mt 2328 2207 L
2328 2157 mt 2278 2207 L
2299 2156 mt 2349 2206 L
2349 2156 mt 2299 2206 L
2307 2167 mt 2357 2217 L
2357 2167 mt 2307 2217 L
2319 2149 mt 2369 2199 L
2369 2149 mt 2319 2199 L
2316 2127 mt 2366 2177 L
2366 2127 mt 2316 2177 L
2397 2185 mt 2447 2235 L
2447 2185 mt 2397 2235 L
2426 2171 mt 2476 2221 L
2476 2171 mt 2426 2221 L
2399 2142 mt 2449 2192 L
2449 2142 mt 2399 2192 L
2382 2096 mt 2432 2146 L
2432 2096 mt 2382 2146 L
2386 2082 mt 2436 2132 L
2436 2082 mt 2386 2132 L
2409 2103 mt 2459 2153 L
2459 2103 mt 2409 2153 L
2441 2098 mt 2491 2148 L
2491 2098 mt 2441 2148 L
2483 2147 mt 2533 2197 L
2533 2147 mt 2483 2197 L
2521 2156 mt 2571 2206 L
2571 2156 mt 2521 2206 L
2505 2126 mt 2555 2176 L
2555 2126 mt 2505 2176 L
2507 2119 mt 2557 2169 L
2557 2119 mt 2507 2169 L
2522 2126 mt 2572 2176 L
2572 2126 mt 2522 2176 L
2553 2116 mt 2603 2166 L
2603 2116 mt 2553 2166 L
2576 2125 mt 2626 2175 L
2626 2125 mt 2576 2175 L
2585 2121 mt 2635 2171 L
2635 2121 mt 2585 2171 L
2611 2165 mt 2661 2215 L
2661 2165 mt 2611 2215 L
2627 2147 mt 2677 2197 L
2677 2147 mt 2627 2197 L
3115 2838 mt 3165 2888 L
3165 2838 mt 3115 2888 L
3222 2989 mt 3272 3039 L
3272 2989 mt 3222 3039 L
3736 3141 mt 3786 3191 L
3786 3141 mt 3736 3191 L
3224 3114 mt 3274 3164 L
3274 3114 mt 3224 3164 L
3264 3190 mt 3314 3240 L
3314 3190 mt 3264 3240 L
3289 3264 mt 3339 3314 L
3339 3264 mt 3289 3314 L
3149 3188 mt 3199 3238 L
3199 3188 mt 3149 3238 L
3229 3342 mt 3279 3392 L
3279 3342 mt 3229 3392 L
3173 3357 mt 3223 3407 L
3223 3357 mt 3173 3407 L
3227 3339 mt 3277 3389 L
3277 3339 mt 3227 3389 L
3287 3322 mt 3337 3372 L
3337 3322 mt 3287 3372 L
3159 3357 mt 3209 3407 L
3209 3357 mt 3159 3407 L
3241 3343 mt 3291 3393 L
3291 3343 mt 3241 3393 L
3243 3401 mt 3293 3451 L
3293 3401 mt 3243 3451 L
3238 3458 mt 3288 3508 L
3288 3458 mt 3238 3508 L
3239 3513 mt 3289 3563 L
3289 3513 mt 3239 3563 L
3272 3509 mt 3322 3559 L
3322 3509 mt 3272 3559 L
3222 3469 mt 3272 3519 L
3272 3469 mt 3222 3519 L
3182 3500 mt 3232 3550 L
3232 3500 mt 3182 3550 L
3252 3549 mt 3302 3599 L
3302 3549 mt 3252 3599 L
3208 3543 mt 3258 3593 L
3258 3543 mt 3208 3593 L
3154 3557 mt 3204 3607 L
3204 3557 mt 3154 3607 L
3312 3552 mt 3362 3602 L
3362 3552 mt 3312 3602 L
3401 3715 mt 3451 3765 L
3451 3715 mt 3401 3765 L
3164 3624 mt 3214 3674 L
3214 3624 mt 3164 3674 L
3188 3635 mt 3238 3685 L
3238 3635 mt 3188 3685 L
3219 3664 mt 3269 3714 L
3269 3664 mt 3219 3714 L
3196 3680 mt 3246 3730 L
3246 3680 mt 3196 3730 L
3378 3793 mt 3428 3843 L
3428 3793 mt 3378 3843 L
3249 3780 mt 3299 3830 L
3299 3780 mt 3249 3830 L
3231 3772 mt 3281 3822 L
3281 3772 mt 3231 3822 L
3270 3747 mt 3320 3797 L
3320 3747 mt 3270 3797 L
3221 3808 mt 3271 3858 L
3271 3808 mt 3221 3858 L
3202 3833 mt 3252 3883 L
3252 3833 mt 3202 3883 L
3223 3836 mt 3273 3886 L
3273 3836 mt 3223 3886 L
3230 3859 mt 3280 3909 L
3280 3859 mt 3230 3909 L
3229 3844 mt 3279 3894 L
3279 3844 mt 3229 3894 L
3382 3867 mt 3432 3917 L
3432 3867 mt 3382 3917 L
3213 3870 mt 3263 3920 L
3263 3870 mt 3213 3920 L
3252 3900 mt 3302 3950 L
3302 3900 mt 3252 3950 L
3073 3942 mt 3123 3992 L
3123 3942 mt 3073 3992 L
3328 3940 mt 3378 3990 L
3378 3940 mt 3328 3990 L
3088 3974 mt 3138 4024 L
3138 3974 mt 3088 4024 L
3211 3984 mt 3261 4034 L
3261 3984 mt 3211 4034 L
2903 4563 mt 2953 4613 L
2953 4563 mt 2903 4613 L
3165 4018 mt 3215 4068 L
3215 4018 mt 3165 4068 L
2759 4677 mt 2809 4727 L
2809 4677 mt 2759 4727 L
2767 4701 mt 2817 4751 L
2817 4701 mt 2767 4751 L
2828 4738 mt 2878 4788 L
2878 4738 mt 2828 4788 L
2827 4735 mt 2877 4785 L
2877 4735 mt 2827 4785 L
3144 4139 mt 3194 4189 L
3194 4139 mt 3144 4189 L
2837 4753 mt 2887 4803 L
2887 4753 mt 2837 4803 L
2901 4762 mt 2951 4812 L
2951 4762 mt 2901 4812 L
2908 4766 mt 2958 4816 L
2958 4766 mt 2908 4816 L
2810 4769 mt 2860 4819 L
2860 4769 mt 2810 4819 L
2767 4768 mt 2817 4818 L
2817 4768 mt 2767 4818 L
2799 4799 mt 2849 4849 L
2849 4799 mt 2799 4849 L
3087 4279 mt 3137 4329 L
3137 4279 mt 3087 4329 L
3084 4297 mt 3134 4347 L
3134 4297 mt 3084 4347 L
3076 4316 mt 3126 4366 L
3126 4316 mt 3076 4366 L
3072 4340 mt 3122 4390 L
3122 4340 mt 3072 4390 L
3077 4382 mt 3127 4432 L
3127 4382 mt 3077 4432 L
2629 4534 mt 2679 4584 L
2679 4534 mt 2629 4584 L
2574 4968 mt 2624 5018 L
2624 4968 mt 2574 5018 L
2526 4855 mt 2576 4905 L
2576 4855 mt 2526 4905 L
2523 5213 mt 2573 5263 L
2573 5213 mt 2523 5263 L
2576 5010 mt 2626 5060 L
2626 5010 mt 2576 5060 L
2525 5019 mt 2575 5069 L
2575 5019 mt 2525 5069 L
2467 5034 mt 2517 5084 L
2517 5034 mt 2467 5084 L
2417 5062 mt 2467 5112 L
2467 5062 mt 2417 5112 L
2364 5123 mt 2414 5173 L
2414 5123 mt 2364 5173 L
2282 5179 mt 2332 5229 L
2332 5179 mt 2282 5229 L
2349 5190 mt 2399 5240 L
2399 5190 mt 2349 5240 L
1975 5344 mt 2025 5394 L
2025 5344 mt 1975 5394 L
1836 5217 mt 1886 5267 L
1886 5217 mt 1836 5267 L
1884 5350 mt 1934 5400 L
1934 5350 mt 1884 5400 L
1880 5362 mt 1930 5412 L
1930 5362 mt 1880 5412 L
1877 5365 mt 1927 5415 L
1927 5365 mt 1877 5415 L
1811 5339 mt 1861 5389 L
1861 5339 mt 1811 5389 L
1820 5419 mt 1870 5469 L
1870 5419 mt 1820 5469 L
1814 5407 mt 1864 5457 L
1864 5407 mt 1814 5457 L
1784 5380 mt 1834 5430 L
1834 5380 mt 1784 5430 L
1732 5404 mt 1782 5454 L
1782 5404 mt 1732 5454 L
1764 5448 mt 1814 5498 L
1814 5448 mt 1764 5498 L
1770 5446 mt 1820 5496 L
1820 5446 mt 1770 5496 L
1734 5486 mt 1784 5536 L
1784 5486 mt 1734 5536 L
1654 5404 mt 1704 5454 L
1704 5404 mt 1654 5454 L
1626 5405 mt 1676 5455 L
1676 5405 mt 1626 5455 L
1717 5460 mt 1767 5510 L
1767 5460 mt 1717 5510 L
1664 5428 mt 1714 5478 L
1714 5428 mt 1664 5478 L
1635 5483 mt 1685 5533 L
1685 5483 mt 1635 5533 L
1664 5539 mt 1714 5589 L
1714 5539 mt 1664 5589 L
1605 5486 mt 1655 5536 L
1655 5486 mt 1605 5536 L
1610 5515 mt 1660 5565 L
1660 5515 mt 1610 5565 L
1646 5569 mt 1696 5619 L
1696 5569 mt 1646 5619 L
1653 5577 mt 1703 5627 L
1703 5577 mt 1653 5627 L
1628 5597 mt 1678 5647 L
1678 5597 mt 1628 5647 L
1595 5582 mt 1645 5632 L
1645 5582 mt 1595 5632 L
1626 5627 mt 1676 5677 L
1676 5627 mt 1626 5677 L
1607 5627 mt 1657 5677 L
1657 5627 mt 1607 5677 L
1556 5613 mt 1606 5663 L
1606 5613 mt 1556 5663 L
1586 5653 mt 1636 5703 L
1636 5653 mt 1586 5703 L
1589 5685 mt 1639 5735 L
1639 5685 mt 1589 5735 L
1570 5684 mt 1620 5734 L
1620 5684 mt 1570 5734 L
1556 5692 mt 1606 5742 L
1606 5692 mt 1556 5742 L
1550 5704 mt 1600 5754 L
1600 5704 mt 1550 5754 L
1553 5737 mt 1603 5787 L
1603 5737 mt 1553 5787 L
1513 5712 mt 1563 5762 L
1563 5712 mt 1513 5762 L
1525 5753 mt 1575 5803 L
1575 5753 mt 1525 5803 L
1525 5776 mt 1575 5826 L
1575 5776 mt 1525 5826 L
1526 5795 mt 1576 5845 L
1576 5795 mt 1526 5845 L
1508 5805 mt 1558 5855 L
1558 5805 mt 1508 5855 L
1480 5802 mt 1530 5852 L
1530 5802 mt 1480 5852 L
1478 5815 mt 1528 5865 L
1528 5815 mt 1478 5865 L
1470 5837 mt 1520 5887 L
1520 5837 mt 1470 5887 L
1450 5839 mt 1500 5889 L
1500 5839 mt 1450 5889 L
1454 5872 mt 1504 5922 L
1504 5872 mt 1454 5922 L
1432 5875 mt 1482 5925 L
1482 5875 mt 1432 5925 L
1441 5906 mt 1491 5956 L
1491 5906 mt 1441 5956 L
1399 5895 mt 1449 5945 L
1449 5895 mt 1399 5945 L
1395 5915 mt 1445 5965 L
1445 5915 mt 1395 5965 L
1399 5934 mt 1449 5984 L
1449 5934 mt 1399 5984 L
1385 5943 mt 1435 5993 L
1435 5943 mt 1385 5993 L
1392 5971 mt 1442 6021 L
1442 5971 mt 1392 6021 L
1372 5977 mt 1422 6027 L
1422 5977 mt 1372 6027 L
1363 5992 mt 1413 6042 L
1413 5992 mt 1363 6042 L
1350 6020 mt 1400 6070 L
1400 6020 mt 1350 6070 L
1327 6022 mt 1377 6072 L
1377 6022 mt 1327 6072 L
1325 6034 mt 1375 6084 L
1375 6034 mt 1325 6084 L
1323 6056 mt 1373 6106 L
1373 6056 mt 1323 6106 L
1317 6075 mt 1367 6125 L
1367 6075 mt 1317 6125 L
1313 6086 mt 1363 6136 L
1363 6086 mt 1313 6136 L
1276 6094 mt 1326 6144 L
1326 6094 mt 1276 6144 L
1288 6105 mt 1338 6155 L
1338 6105 mt 1288 6155 L
1283 6121 mt 1333 6171 L
1333 6121 mt 1283 6171 L
1281 6137 mt 1331 6187 L
1331 6137 mt 1281 6187 L
1275 6145 mt 1325 6195 L
1325 6145 mt 1275 6195 L
1264 6152 mt 1314 6202 L
1314 6152 mt 1264 6202 L
1252 6156 mt 1302 6206 L
1302 6156 mt 1252 6206 L
1242 6169 mt 1292 6219 L
1292 6169 mt 1242 6219 L
1246 6185 mt 1296 6235 L
1296 6185 mt 1246 6235 L
1240 6194 mt 1290 6244 L
1290 6194 mt 1240 6244 L
1232 6205 mt 1282 6255 L
1282 6205 mt 1232 6255 L
1227 6215 mt 1277 6265 L
1277 6215 mt 1227 6265 L
1226 6223 mt 1276 6273 L
1276 6223 mt 1226 6273 L
1218 6227 mt 1268 6277 L
1268 6227 mt 1218 6277 L
1213 6239 mt 1263 6289 L
1263 6239 mt 1213 6289 L
1203 6246 mt 1253 6296 L
1253 6246 mt 1203 6296 L
1196 6255 mt 1246 6305 L
1246 6255 mt 1196 6305 L
1195 6265 mt 1245 6315 L
1245 6265 mt 1195 6315 L
1161 6312 mt 1211 6362 L
1211 6312 mt 1161 6362 L
1165 6304 mt 1215 6354 L
1215 6304 mt 1165 6354 L
1165 6303 mt 1215 6353 L
1215 6303 mt 1165 6353 L
1170 6301 mt 1220 6351 L
1220 6301 mt 1170 6351 L
1172 6300 mt 1222 6350 L
1222 6300 mt 1172 6350 L
1173 6298 mt 1223 6348 L
1223 6298 mt 1173 6348 L
1174 6295 mt 1224 6345 L
1224 6295 mt 1174 6345 L
1170 6295 mt 1220 6345 L
1220 6295 mt 1170 6345 L
1169 6298 mt 1219 6348 L
1219 6298 mt 1169 6348 L
1169 6299 mt 1219 6349 L
1219 6299 mt 1169 6349 L
1165 6300 mt 1215 6350 L
1215 6300 mt 1165 6350 L
1167 6299 mt 1217 6349 L
1217 6299 mt 1167 6349 L
1168 6298 mt 1218 6348 L
1218 6298 mt 1168 6348 L
1169 6295 mt 1219 6345 L
1219 6295 mt 1169 6345 L
1168 6294 mt 1218 6344 L
1218 6294 mt 1168 6344 L
1164 6297 mt 1214 6347 L
1214 6297 mt 1164 6347 L
1162 6299 mt 1212 6349 L
1212 6299 mt 1162 6349 L
1161 6300 mt 1211 6350 L
1211 6300 mt 1161 6350 L
1160 6300 mt 1210 6350 L
1210 6300 mt 1160 6350 L
1160 6299 mt 1210 6349 L
1210 6299 mt 1160 6349 L
1162 6297 mt 1212 6347 L
1212 6297 mt 1162 6347 L
1164 6300 mt 1214 6350 L
1214 6300 mt 1164 6350 L
1164 6299 mt 1214 6349 L
1214 6299 mt 1164 6349 L
1165 6298 mt 1215 6348 L
1215 6298 mt 1165 6348 L
1165 6299 mt 1215 6349 L
1215 6299 mt 1165 6349 L
1164 6300 mt 1214 6350 L
1214 6300 mt 1164 6350 L
1165 6300 mt 1215 6350 L
1215 6300 mt 1165 6350 L
1166 6300 mt 1216 6350 L
1216 6300 mt 1166 6350 L
1166 6301 mt 1216 6351 L
1216 6301 mt 1166 6351 L
1165 6302 mt 1215 6352 L
1215 6302 mt 1165 6352 L
1165 6303 mt 1215 6353 L
1215 6303 mt 1165 6353 L
1165 6302 mt 1215 6352 L
1215 6302 mt 1165 6352 L
1166 6302 mt 1216 6352 L
1216 6302 mt 1166 6352 L
1167 6303 mt 1217 6353 L
1217 6303 mt 1167 6353 L
1167 6301 mt 1217 6351 L
1217 6301 mt 1167 6351 L
1167 6302 mt 1217 6352 L
1217 6302 mt 1167 6352 L
1168 6303 mt 1218 6353 L
1218 6303 mt 1168 6353 L
1167 6303 mt 1217 6353 L
1217 6303 mt 1167 6353 L
1167 6304 mt 1217 6354 L
1217 6304 mt 1167 6354 L
1166 6305 mt 1216 6355 L
1216 6305 mt 1166 6355 L
1165 6306 mt 1215 6356 L
1215 6306 mt 1165 6356 L
1166 6304 mt 1216 6354 L
1216 6304 mt 1166 6354 L
1167 6303 mt 1217 6353 L
1217 6303 mt 1167 6353 L
1166 6304 mt 1216 6354 L
1216 6304 mt 1166 6354 L
1167 6304 mt 1217 6354 L
1217 6304 mt 1167 6354 L
1167 6303 mt 1217 6353 L
1217 6303 mt 1167 6353 L
1168 6303 mt 1218 6353 L
1218 6303 mt 1168 6353 L
1167 6303 mt 1217 6353 L
1217 6303 mt 1167 6353 L
1167 6302 mt 1217 6352 L
1217 6302 mt 1167 6352 L
1167 6303 mt 1217 6353 L
1217 6303 mt 1167 6353 L
1167 6302 mt 1217 6352 L
1217 6302 mt 1167 6352 L
1167 6303 mt 1217 6353 L
1217 6303 mt 1167 6353 L
1167 6304 mt 1217 6354 L
1217 6304 mt 1167 6354 L
1168 6302 mt 1218 6352 L
1218 6302 mt 1168 6352 L
1167 6302 mt 1217 6352 L
1217 6302 mt 1167 6352 L
1167 6303 mt 1217 6353 L
1217 6303 mt 1167 6353 L
1167 6304 mt 1217 6354 L
1217 6304 mt 1167 6354 L
1166 6303 mt 1216 6353 L
1216 6303 mt 1166 6353 L
1167 6304 mt 1217 6354 L
1217 6304 mt 1167 6354 L
1167 6303 mt 1217 6353 L
1217 6303 mt 1167 6353 L
1167 6304 mt 1217 6354 L
1217 6304 mt 1167 6354 L
1167 6303 mt 1217 6353 L
1217 6303 mt 1167 6353 L
1167 6302 mt 1217 6352 L
1217 6302 mt 1167 6352 L
1166 6302 mt 1216 6352 L
1216 6302 mt 1166 6352 L
1166 6303 mt 1216 6353 L
1216 6303 mt 1166 6353 L
gr

gs 902 73 2880 6480 rc
gs 1058 207 2276 6323 rc
24 W
0 sg
3260 280 PD
24 W
3205 280 PD
24 W
3157 280 PD
24 W
3109 280 PD
24 W
3061 280 PD
24 W
3013 280 PD
24 W
2965 280 PD
24 W
2917 280 PD
24 W
2869 280 PD
24 W
2821 280 PD
24 W
2773 282 PD
24 W
2725 285 PD
24 W
2677 288 PD
24 W
2629 289 PD
24 W
2581 291 PD
24 W
2533 292 PD
24 W
2485 292 PD
24 W
2437 293 PD
24 W
2389 294 PD
24 W
2342 301 PD
24 W
2294 307 PD
24 W
2246 313 PD
24 W
2198 322 PD
24 W
2150 331 PD
24 W
2102 340 PD
24 W
2054 347 PD
24 W
2006 357 PD
24 W
1958 369 PD
24 W
1910 381 PD
24 W
1862 390 PD
24 W
1814 403 PD
24 W
1766 426 PD
24 W
1718 450 PD
24 W
1670 474 PD
24 W
1622 491 PD
24 W
1574 522 PD
24 W
1526 552 PD
24 W
1478 579 PD
24 W
1430 613 PD
24 W
1382 649 PD
24 W
1334 702 PD
24 W
1286 770 PD
24 W
1267 829 PD
24 W
1250 877 PD
24 W
1234 925 PD
24 W
1216 973 PD
24 W
1204 1021 PD
24 W
1190 1069 PD
24 W
1180 1117 PD
24 W
1174 1165 PD
24 W
1171 1213 PD
24 W
1168 1261 PD
24 W
1166 1309 PD
24 W
1171 1357 PD
24 W
1174 1405 PD
24 W
1178 1453 PD
24 W
1191 1501 PD
24 W
1208 1549 PD
24 W
1221 1585 PD
24 W
1243 1633 PD
24 W
1271 1681 PD
24 W
1305 1729 PD
24 W
1351 1777 PD
24 W
1394 1825 PD
24 W
1449 1873 PD
24 W
1528 1921 PD
24 W
1574 1979 PD
24 W
1622 2010 PD
24 W
1670 2040 PD
24 W
1718 2065 PD
24 W
1766 2084 PD
24 W
1814 2103 PD
24 W
1862 2124 PD
24 W
1910 2139 PD
24 W
1958 2149 PD
24 W
2006 2161 PD
24 W
2054 2170 PD
24 W
2102 2179 PD
24 W
2150 2180 PD
24 W
2198 2182 PD
24 W
2246 2185 PD
24 W
2294 2187 PD
24 W
2342 2188 PD
24 W
2389 2190 PD
24 W
2437 2191 PD
24 W
2485 2192 PD
24 W
2533 2194 PD
24 W
2581 2196 PD
24 W
2629 2197 PD
24 W
2677 2198 PD
24 W
2725 2199 PD
24 W
2773 2200 PD
24 W
2821 2202 PD
24 W
2869 2211 PD
24 W
2917 2233 PD
24 W
2965 2264 PD
24 W
3013 2310 PD
24 W
3061 2367 PD
24 W
3109 2437 PD
24 W
3157 2509 PD
24 W
3174 2545 PD
24 W
3200 2593 PD
24 W
3224 2641 PD
24 W
3234 2689 PD
24 W
3241 2737 PD
24 W
3241 2785 PD
24 W
3244 2833 PD
24 W
3246 2881 PD
24 W
3248 2929 PD
24 W
3248 2977 PD
24 W
3248 3025 PD
24 W
3248 3073 PD
24 W
3248 3121 PD
24 W
3248 3169 PD
24 W
3248 3217 PD
24 W
3248 3265 PD
24 W
3247 3313 PD
24 W
3246 3360 PD
24 W
3246 3408 PD
24 W
3245 3456 PD
24 W
3244 3504 PD
24 W
3242 3552 PD
24 W
3241 3600 PD
24 W
3240 3648 PD
24 W
3240 3696 PD
24 W
3240 3744 PD
24 W
3239 3792 PD
24 W
3239 3840 PD
24 W
3236 3888 PD
24 W
3234 3936 PD
24 W
3233 3984 PD
24 W
3224 4032 PD
24 W
3220 4080 PD
24 W
3215 4128 PD
24 W
3210 4176 PD
24 W
3205 4224 PD
24 W
3199 4272 PD
24 W
3191 4320 PD
24 W
3185 4368 PD
24 W
3174 4416 PD
24 W
3163 4464 PD
24 W
3148 4512 PD
24 W
3126 4560 PD
24 W
3104 4608 PD
24 W
3078 4656 PD
24 W
3052 4704 PD
24 W
3020 4762 PD
24 W
2973 4829 PD
24 W
2925 4882 PD
24 W
2877 4925 PD
24 W
2829 4973 PD
24 W
2781 5004 PD
24 W
2733 5021 PD
24 W
2685 5040 PD
24 W
2637 5047 PD
24 W
2589 5053 PD
24 W
2541 5059 PD
24 W
2493 5064 PD
24 W
2445 5070 PD
24 W
2397 5076 PD
24 W
2349 5082 PD
24 W
2301 5088 PD
24 W
2253 5094 PD
24 W
2205 5098 PD
24 W
2157 5102 PD
24 W
2109 5108 PD
24 W
2061 5114 PD
24 W
2013 5129 PD
24 W
1965 5152 PD
24 W
1917 5179 PD
24 W
1869 5222 PD
24 W
1821 5264 PD
24 W
1773 5324 PD
24 W
1749 5352 PD
24 W
1725 5382 PD
24 W
1701 5418 PD
24 W
1677 5453 PD
24 W
1636 5496 PD
24 W
1607 5544 PD
24 W
1574 5592 PD
24 W
1546 5640 PD
24 W
1519 5688 PD
24 W
1492 5736 PD
24 W
1465 5784 PD
24 W
1439 5832 PD
24 W
1418 5880 PD
24 W
1394 5928 PD
24 W
1369 5976 PD
24 W
1346 6024 PD
24 W
1322 6072 PD
24 W
1301 6120 PD
24 W
1276 6168 PD
24 W
1252 6216 PD
24 W
1231 6264 PD
24 W
1207 6312 PD
24 W
1183 6360 PD
24 W
1156 6408 PD
24 W
1131 6456 PD
gr

0 sg
gr

0 sg
gs 1113 0 2238 6411 rc
0 j
0 -58 -58 0 0 58 58 0 3230 58 5 MP
/c9 { 0.000000 0.500000 0.000000 sr} bdef
c9
DP
0 -58 -58 0 0 58 58 0 3207 76 5 MP
DP
0 -58 -58 0 0 58 58 0 3198 82 5 MP
DP
0 -58 -58 0 0 58 58 0 3190 88 5 MP
DP
0 -58 -58 0 0 58 58 0 3182 93 5 MP
DP
0 -58 -58 0 0 58 58 0 3147 115 5 MP
DP
0 -58 -58 0 0 58 58 0 3137 120 5 MP
DP
0 -58 -58 0 0 58 58 0 3128 125 5 MP
DP
0 -58 -58 0 0 58 58 0 3119 129 5 MP
DP
0 -58 -58 0 0 58 58 0 3109 134 5 MP
DP
0 -58 -58 0 0 58 58 0 3071 152 5 MP
DP
0 -58 -58 0 0 58 58 0 3061 156 5 MP
DP
0 -58 -58 0 0 58 58 0 3051 160 5 MP
DP
0 -58 -58 0 0 58 58 0 3022 172 5 MP
DP
0 -58 -58 0 0 58 58 0 2986 183 5 MP
DP
0 -58 -58 0 0 58 58 0 2886 206 5 MP
DP
0 -58 -58 0 0 58 58 0 2869 209 5 MP
DP
0 -58 -58 0 0 58 58 0 2852 211 5 MP
DP
0 -58 -58 0 0 58 58 0 2836 213 5 MP
DP
0 -58 -58 0 0 58 58 0 2819 214 5 MP
DP
0 -58 -58 0 0 58 58 0 2786 218 5 MP
DP
0 -58 -58 0 0 58 58 0 2769 220 5 MP
DP
0 -58 -58 0 0 58 58 0 2715 222 5 MP
DP
0 -58 -58 0 0 58 58 0 2660 223 5 MP
DP
0 -58 -58 0 0 58 58 0 2604 222 5 MP
DP
0 -58 -58 0 0 58 58 0 2548 209 5 MP
DP
0 -58 -58 0 0 58 58 0 2527 204 5 MP
DP
0 -58 -58 0 0 58 58 0 2507 203 5 MP
DP
0 -58 -58 0 0 58 58 0 2488 201 5 MP
DP
0 -58 -58 0 0 58 58 0 2469 200 5 MP
DP
0 -58 -58 0 0 58 58 0 2450 199 5 MP
DP
0 -58 -58 0 0 58 58 0 2431 198 5 MP
DP
0 -58 -58 0 0 58 58 0 2412 196 5 MP
DP
0 -58 -58 0 0 58 58 0 2394 195 5 MP
DP
0 -58 -58 0 0 58 58 0 2375 193 5 MP
DP
0 -58 -58 0 0 58 58 0 2356 192 5 MP
DP
0 -58 -58 0 0 58 58 0 2337 191 5 MP
DP
0 -58 -58 0 0 58 58 0 2318 191 5 MP
DP
0 -58 -58 0 0 58 58 0 2279 192 5 MP
DP
0 -58 -58 0 0 58 58 0 2260 194 5 MP
DP
0 -58 -58 0 0 58 58 0 2240 198 5 MP
DP
0 -58 -58 0 0 58 58 0 2221 202 5 MP
DP
0 -58 -58 0 0 58 58 0 2201 209 5 MP
DP
0 -58 -58 0 0 58 58 0 2181 216 5 MP
DP
0 -58 -58 0 0 58 58 0 2162 225 5 MP
DP
0 -58 -58 0 0 58 58 0 2085 272 5 MP
DP
0 -58 -58 0 0 58 58 0 2048 290 5 MP
DP
0 -58 -58 0 0 58 58 0 2030 298 5 MP
DP
0 -58 -58 0 0 58 58 0 2012 304 5 MP
DP
0 -58 -58 0 0 58 58 0 1994 308 5 MP
DP
0 -58 -58 0 0 58 58 0 1977 312 5 MP
DP
0 -58 -58 0 0 58 58 0 1960 316 5 MP
DP
0 -58 -58 0 0 58 58 0 1944 315 5 MP
DP
0 -58 -58 0 0 58 58 0 1927 311 5 MP
DP
0 -58 -58 0 0 58 58 0 1911 308 5 MP
DP
0 -58 -58 0 0 58 58 0 1895 307 5 MP
DP
0 -58 -58 0 0 58 58 0 1880 308 5 MP
DP
0 -58 -58 0 0 58 58 0 1865 310 5 MP
DP
0 -58 -58 0 0 58 58 0 1851 313 5 MP
DP
0 -58 -58 0 0 58 58 0 1837 314 5 MP
DP
0 -58 -58 0 0 58 58 0 1825 316 5 MP
DP
0 -58 -58 0 0 58 58 0 1812 320 5 MP
DP
0 -58 -58 0 0 58 58 0 1800 328 5 MP
DP
0 -58 -58 0 0 58 58 0 1786 336 5 MP
DP
0 -58 -58 0 0 58 58 0 1746 366 5 MP
DP
0 -58 -58 0 0 58 58 0 1732 374 5 MP
DP
0 -58 -58 0 0 58 58 0 1717 382 5 MP
DP
0 -58 -58 0 0 58 58 0 1687 402 5 MP
DP
0 -58 -58 0 0 58 58 0 1673 413 5 MP
DP
0 -58 -58 0 0 58 58 0 1658 426 5 MP
DP
0 -58 -58 0 0 58 58 0 1644 438 5 MP
DP
0 -58 -58 0 0 58 58 0 1629 451 5 MP
DP
0 -58 -58 0 0 58 58 0 1600 477 5 MP
DP
0 -58 -58 0 0 58 58 0 1585 491 5 MP
DP
0 -58 -58 0 0 58 58 0 1570 505 5 MP
DP
0 -58 -58 0 0 58 58 0 1556 519 5 MP
DP
0 -58 -58 0 0 58 58 0 1481 593 5 MP
DP
0 -58 -58 0 0 58 58 0 1312 903 5 MP
DP
0 -58 -58 0 0 58 58 0 1315 921 5 MP
DP
0 -58 -58 0 0 58 58 0 1285 1031 5 MP
DP
0 -58 -58 0 0 58 58 0 1270 1098 5 MP
DP
0 -58 -58 0 0 58 58 0 1379 1719 5 MP
DP
0 -58 -58 0 0 58 58 0 1536 1860 5 MP
DP
0 -58 -58 0 0 58 58 0 1550 1874 5 MP
DP
0 -58 -58 0 0 58 58 0 1608 1921 5 MP
DP
0 -58 -58 0 0 58 58 0 1700 1979 5 MP
DP
0 -58 -58 0 0 58 58 0 1716 1987 5 MP
DP
0 -58 -58 0 0 58 58 0 1732 1995 5 MP
DP
0 -58 -58 0 0 58 58 0 1825 2033 5 MP
DP
0 -58 -58 0 0 58 58 0 1841 2039 5 MP
DP
0 -58 -58 0 0 58 58 0 1859 2044 5 MP
DP
0 -58 -58 0 0 58 58 0 1878 2048 5 MP
DP
0 -58 -58 0 0 58 58 0 1897 2052 5 MP
DP
0 -58 -58 0 0 58 58 0 1917 2057 5 MP
DP
0 -58 -58 0 0 58 58 0 1940 2063 5 MP
DP
0 -58 -58 0 0 58 58 0 1963 2067 5 MP
DP
0 -58 -58 0 0 58 58 0 1985 2071 5 MP
DP
0 -58 -58 0 0 58 58 0 2008 2075 5 MP
DP
0 -58 -58 0 0 58 58 0 2030 2079 5 MP
DP
0 -58 -58 0 0 58 58 0 2050 2082 5 MP
DP
0 -58 -58 0 0 58 58 0 2069 2086 5 MP
DP
0 -58 -58 0 0 58 58 0 2088 2089 5 MP
DP
0 -58 -58 0 0 58 58 0 2106 2092 5 MP
DP
0 -58 -58 0 0 58 58 0 2125 2093 5 MP
DP
0 -58 -58 0 0 58 58 0 2144 2099 5 MP
DP
0 -58 -58 0 0 58 58 0 2164 2106 5 MP
DP
0 -58 -58 0 0 58 58 0 2187 2117 5 MP
DP
0 -58 -58 0 0 58 58 0 2208 2127 5 MP
DP
0 -58 -58 0 0 58 58 0 2229 2136 5 MP
DP
0 -58 -58 0 0 58 58 0 2268 2149 5 MP
DP
0 -58 -58 0 0 58 58 0 2285 2152 5 MP
DP
0 -58 -58 0 0 58 58 0 2301 2153 5 MP
DP
0 -58 -58 0 0 58 58 0 2315 2151 5 MP
DP
0 -58 -58 0 0 58 58 0 2328 2146 5 MP
DP
0 -58 -58 0 0 58 58 0 2340 2137 5 MP
DP
0 -58 -58 0 0 58 58 0 2352 2126 5 MP
DP
0 -58 -58 0 0 58 58 0 2365 2118 5 MP
DP
0 -58 -58 0 0 58 58 0 2382 2113 5 MP
DP
0 -58 -58 0 0 58 58 0 2398 2108 5 MP
DP
0 -58 -58 0 0 58 58 0 2416 2106 5 MP
DP
0 -58 -58 0 0 58 58 0 2434 2107 5 MP
DP
0 -58 -58 0 0 58 58 0 2453 2109 5 MP
DP
0 -58 -58 0 0 58 58 0 2471 2110 5 MP
DP
0 -58 -58 0 0 58 58 0 2490 2112 5 MP
DP
0 -58 -58 0 0 58 58 0 2509 2115 5 MP
DP
0 -58 -58 0 0 58 58 0 2528 2119 5 MP
DP
0 -58 -58 0 0 58 58 0 2547 2123 5 MP
DP
0 -58 -58 0 0 58 58 0 2566 2127 5 MP
DP
0 -58 -58 0 0 58 58 0 2585 2132 5 MP
DP
0 -58 -58 0 0 58 58 0 2605 2138 5 MP
DP
0 -58 -58 0 0 58 58 0 2624 2144 5 MP
DP
0 -58 -58 0 0 58 58 0 3115 2841 5 MP
DP
0 -58 -58 0 0 58 58 0 3156 2969 5 MP
DP
0 -58 -58 0 0 58 58 0 3202 3141 5 MP
DP
0 -58 -58 0 0 58 58 0 3208 3167 5 MP
DP
0 -58 -58 0 0 58 58 0 3213 3192 5 MP
DP
0 -58 -58 0 0 58 58 0 3217 3216 5 MP
DP
0 -58 -58 0 0 58 58 0 3221 3241 5 MP
DP
0 -58 -58 0 0 58 58 0 3225 3265 5 MP
DP
0 -58 -58 0 0 58 58 0 3227 3289 5 MP
DP
0 -58 -58 0 0 58 58 0 3230 3314 5 MP
DP
0 -58 -58 0 0 58 58 0 3231 3337 5 MP
DP
0 -58 -58 0 0 58 58 0 3232 3359 5 MP
DP
0 -58 -58 0 0 58 58 0 3232 3382 5 MP
DP
0 -58 -58 0 0 58 58 0 3231 3404 5 MP
DP
0 -58 -58 0 0 58 58 0 3231 3427 5 MP
DP
0 -58 -58 0 0 58 58 0 3230 3448 5 MP
DP
0 -58 -58 0 0 58 58 0 3229 3467 5 MP
DP
0 -58 -58 0 0 58 58 0 3228 3485 5 MP
DP
0 -58 -58 0 0 58 58 0 3225 3503 5 MP
DP
0 -58 -58 0 0 58 58 0 3222 3521 5 MP
DP
0 -58 -58 0 0 58 58 0 3219 3537 5 MP
DP
0 -58 -58 0 0 58 58 0 3215 3554 5 MP
DP
0 -58 -58 0 0 58 58 0 3212 3572 5 MP
DP
0 -58 -58 0 0 58 58 0 3210 3591 5 MP
DP
0 -58 -58 0 0 58 58 0 3211 3613 5 MP
DP
0 -58 -58 0 0 58 58 0 3210 3637 5 MP
DP
0 -58 -58 0 0 58 58 0 3210 3660 5 MP
DP
0 -58 -58 0 0 58 58 0 3211 3683 5 MP
DP
0 -58 -58 0 0 58 58 0 3212 3707 5 MP
DP
0 -58 -58 0 0 58 58 0 3213 3732 5 MP
DP
0 -58 -58 0 0 58 58 0 3215 3756 5 MP
DP
0 -58 -58 0 0 58 58 0 3218 3791 5 MP
DP
0 -58 -58 0 0 58 58 0 3219 3805 5 MP
DP
0 -58 -58 0 0 58 58 0 3220 3819 5 MP
DP
0 -58 -58 0 0 58 58 0 3220 3830 5 MP
DP
0 -58 -58 0 0 58 58 0 3219 3842 5 MP
DP
0 -58 -58 0 0 58 58 0 3218 3856 5 MP
DP
0 -58 -58 0 0 58 58 0 3216 3871 5 MP
DP
0 -58 -58 0 0 58 58 0 3214 3886 5 MP
DP
0 -58 -58 0 0 58 58 0 3211 3902 5 MP
DP
0 -58 -58 0 0 58 58 0 3207 3920 5 MP
DP
0 -58 -58 0 0 58 58 0 3202 3938 5 MP
DP
0 -58 -58 0 0 58 58 0 3197 3957 5 MP
DP
0 -58 -58 0 0 58 58 0 3192 3977 5 MP
DP
0 -58 -58 0 0 58 58 0 3185 3998 5 MP
DP
0 -58 -58 0 0 58 58 0 3179 4019 5 MP
DP
0 -58 -58 0 0 58 58 0 3173 4041 5 MP
DP
0 -58 -58 0 0 58 58 0 3166 4064 5 MP
DP
0 -58 -58 0 0 58 58 0 3159 4084 5 MP
DP
0 -58 -58 0 0 58 58 0 3152 4105 5 MP
DP
0 -58 -58 0 0 58 58 0 3145 4126 5 MP
DP
0 -58 -58 0 0 58 58 0 3138 4146 5 MP
DP
0 -58 -58 0 0 58 58 0 3131 4167 5 MP
DP
0 -58 -58 0 0 58 58 0 3123 4189 5 MP
DP
0 -58 -58 0 0 58 58 0 3116 4210 5 MP
DP
0 -58 -58 0 0 58 58 0 3108 4231 5 MP
DP
0 -58 -58 0 0 58 58 0 3100 4253 5 MP
DP
0 -58 -58 0 0 58 58 0 3092 4275 5 MP
DP
0 -58 -58 0 0 58 58 0 3084 4297 5 MP
DP
0 -58 -58 0 0 58 58 0 3076 4319 5 MP
DP
0 -58 -58 0 0 58 58 0 3067 4341 5 MP
DP
0 -58 -58 0 0 58 58 0 3059 4364 5 MP
DP
0 -58 -58 0 0 58 58 0 2613 4844 5 MP
DP
0 -58 -58 0 0 58 58 0 2602 4859 5 MP
DP
0 -58 -58 0 0 58 58 0 2593 4871 5 MP
DP
0 -58 -58 0 0 58 58 0 2582 4887 5 MP
DP
0 -58 -58 0 0 58 58 0 2571 4899 5 MP
DP
0 -58 -58 0 0 58 58 0 2541 4943 5 MP
DP
0 -58 -58 0 0 58 58 0 2468 5030 5 MP
DP
0 -58 -58 0 0 58 58 0 2435 5067 5 MP
DP
0 -58 -58 0 0 58 58 0 2354 5147 5 MP
DP
0 -58 -58 0 0 58 58 0 2342 5157 5 MP
DP
0 -58 -58 0 0 58 58 0 2329 5168 5 MP
DP
0 -58 -58 0 0 58 58 0 1960 5333 5 MP
DP
0 -58 -58 0 0 58 58 0 1937 5340 5 MP
DP
0 -58 -58 0 0 58 58 0 1899 5354 5 MP
DP
0 -58 -58 0 0 58 58 0 1881 5361 5 MP
DP
0 -58 -58 0 0 58 58 0 1864 5367 5 MP
DP
0 -58 -58 0 0 58 58 0 1848 5374 5 MP
DP
0 -58 -58 0 0 58 58 0 1832 5380 5 MP
DP
0 -58 -58 0 0 58 58 0 1818 5386 5 MP
DP
0 -58 -58 0 0 58 58 0 1781 5404 5 MP
DP
0 -58 -58 0 0 58 58 0 1770 5407 5 MP
DP
0 -58 -58 0 0 58 58 0 1757 5410 5 MP
DP
0 -58 -58 0 0 58 58 0 1746 5412 5 MP
DP
0 -58 -58 0 0 58 58 0 1731 5414 5 MP
DP
0 -58 -58 0 0 58 58 0 1714 5419 5 MP
DP
0 -58 -58 0 0 58 58 0 1697 5427 5 MP
DP
0 -58 -58 0 0 58 58 0 1680 5436 5 MP
DP
0 -58 -58 0 0 58 58 0 1667 5449 5 MP
DP
0 -58 -58 0 0 58 58 0 1656 5463 5 MP
DP
0 -58 -58 0 0 58 58 0 1645 5483 5 MP
DP
0 -58 -58 0 0 58 58 0 1639 5507 5 MP
DP
0 -58 -58 0 0 58 58 0 1635 5528 5 MP
DP
0 -58 -58 0 0 58 58 0 1633 5546 5 MP
DP
0 -58 -58 0 0 58 58 0 1629 5565 5 MP
DP
0 -58 -58 0 0 58 58 0 1624 5581 5 MP
DP
0 -58 -58 0 0 58 58 0 1619 5597 5 MP
DP
0 -58 -58 0 0 58 58 0 1612 5612 5 MP
DP
0 -58 -58 0 0 58 58 0 1604 5625 5 MP
DP
0 -58 -58 0 0 58 58 0 1595 5637 5 MP
DP
0 -58 -58 0 0 58 58 0 1586 5650 5 MP
DP
0 -58 -58 0 0 58 58 0 1576 5664 5 MP
DP
0 -58 -58 0 0 58 58 0 1567 5677 5 MP
DP
0 -58 -58 0 0 58 58 0 1557 5692 5 MP
DP
0 -58 -58 0 0 58 58 0 1548 5706 5 MP
DP
0 -58 -58 0 0 58 58 0 1540 5721 5 MP
DP
0 -58 -58 0 0 58 58 0 1533 5737 5 MP
DP
0 -58 -58 0 0 58 58 0 1525 5751 5 MP
DP
0 -58 -58 0 0 58 58 0 1517 5766 5 MP
DP
0 -58 -58 0 0 58 58 0 1507 5780 5 MP
DP
0 -58 -58 0 0 58 58 0 1498 5793 5 MP
DP
0 -58 -58 0 0 58 58 0 1488 5806 5 MP
DP
0 -58 -58 0 0 58 58 0 1477 5819 5 MP
DP
0 -58 -58 0 0 58 58 0 1465 5832 5 MP
DP
0 -58 -58 0 0 58 58 0 1453 5845 5 MP
DP
0 -58 -58 0 0 58 58 0 1441 5858 5 MP
DP
0 -58 -58 0 0 58 58 0 1430 5872 5 MP
DP
0 -58 -58 0 0 58 58 0 1420 5886 5 MP
DP
0 -58 -58 0 0 58 58 0 1410 5901 5 MP
DP
0 -58 -58 0 0 58 58 0 1401 5916 5 MP
DP
0 -58 -58 0 0 58 58 0 1393 5930 5 MP
DP
0 -58 -58 0 0 58 58 0 1384 5945 5 MP
DP
0 -58 -58 0 0 58 58 0 1375 5958 5 MP
DP
0 -58 -58 0 0 58 58 0 1367 5972 5 MP
DP
0 -58 -58 0 0 58 58 0 1359 5985 5 MP
DP
0 -58 -58 0 0 58 58 0 1343 6012 5 MP
DP
0 -58 -58 0 0 58 58 0 1333 6025 5 MP
DP
0 -58 -58 0 0 58 58 0 1324 6038 5 MP
DP
0 -58 -58 0 0 58 58 0 1316 6051 5 MP
DP
0 -58 -58 0 0 58 58 0 1308 6065 5 MP
DP
0 -58 -58 0 0 58 58 0 1301 6079 5 MP
DP
0 -58 -58 0 0 58 58 0 1294 6092 5 MP
DP
0 -58 -58 0 0 58 58 0 1287 6105 5 MP
DP
0 -58 -58 0 0 58 58 0 1279 6116 5 MP
DP
0 -58 -58 0 0 58 58 0 1272 6127 5 MP
DP
0 -58 -58 0 0 58 58 0 1265 6138 5 MP
DP
0 -58 -58 0 0 58 58 0 1259 6148 5 MP
DP
0 -58 -58 0 0 58 58 0 1252 6159 5 MP
DP
0 -58 -58 0 0 58 58 0 1246 6169 5 MP
DP
0 -58 -58 0 0 58 58 0 1240 6179 5 MP
DP
0 -58 -58 0 0 58 58 0 1234 6189 5 MP
DP
0 -58 -58 0 0 58 58 0 1229 6199 5 MP
DP
0 -58 -58 0 0 58 58 0 1223 6208 5 MP
DP
0 -58 -58 0 0 58 58 0 1217 6217 5 MP
DP
0 -58 -58 0 0 58 58 0 1212 6226 5 MP
DP
0 -58 -58 0 0 58 58 0 1206 6235 5 MP
DP
0 -58 -58 0 0 58 58 0 1201 6243 5 MP
DP
0 -58 -58 0 0 58 58 0 1196 6252 5 MP
DP
0 -58 -58 0 0 58 58 0 1190 6259 5 MP
DP
0 -58 -58 0 0 58 58 0 1157 6308 5 MP
DP
0 -58 -58 0 0 58 58 0 1164 6298 5 MP
DP
0 -58 -58 0 0 58 58 0 1165 6297 5 MP
DP
0 -58 -58 0 0 58 58 0 1165 6296 5 MP
DP
0 -58 -58 0 0 58 58 0 1166 6296 5 MP
DP
0 -58 -58 0 0 58 58 0 1166 6295 5 MP
DP
0 -58 -58 0 0 58 58 0 1166 6294 5 MP
DP
0 -58 -58 0 0 58 58 0 1165 6294 5 MP
DP
0 -58 -58 0 0 58 58 0 1164 6294 5 MP
DP
0 -58 -58 0 0 58 58 0 1163 6294 5 MP
DP
0 -58 -58 0 0 58 58 0 1162 6293 5 MP
DP
0 -58 -58 0 0 58 58 0 1161 6293 5 MP
DP
0 -58 -58 0 0 58 58 0 1160 6293 5 MP
DP
0 -58 -58 0 0 58 58 0 1159 6294 5 MP
DP
0 -58 -58 0 0 58 58 0 1158 6294 5 MP
DP
0 -58 -58 0 0 58 58 0 1157 6295 5 MP
DP
0 -58 -58 0 0 58 58 0 1158 6295 5 MP
DP
0 -58 -58 0 0 58 58 0 1159 6294 5 MP
DP
0 -58 -58 0 0 58 58 0 1160 6294 5 MP
DP
0 -58 -58 0 0 58 58 0 1160 6295 5 MP
DP
0 -58 -58 0 0 58 58 0 1161 6295 5 MP
DP
0 -58 -58 0 0 58 58 0 1161 6296 5 MP
DP
0 -58 -58 0 0 58 58 0 1161 6297 5 MP
DP
0 -58 -58 0 0 58 58 0 1162 6298 5 MP
DP
0 -58 -58 0 0 58 58 0 1163 6298 5 MP
DP
0 -58 -58 0 0 58 58 0 1163 6299 5 MP
DP
0 -58 -58 0 0 58 58 0 1163 6300 5 MP
DP
0 -58 -58 0 0 58 58 0 1162 6301 5 MP
DP
0 -58 -58 0 0 58 58 0 1162 6300 5 MP
DP
0 -58 -58 0 0 58 58 0 1163 6300 5 MP
DP
0 -58 -58 0 0 58 58 0 1163 6299 5 MP
DP
0 -58 -58 0 0 58 58 0 1163 6300 5 MP
DP
0 -58 -58 0 0 58 58 0 1163 6299 5 MP
DP
0 -58 -58 0 0 58 58 0 1162 6298 5 MP
DP
gr

c9
gs 902 73 2880 6480 rc
gr

gs 829 207 2505 5678 rc
0 j
-13 -18 13 -18 -21 0 -10 -18 -10 18 -21 0 13 18 -13 18 
21 0 10 18 10 -18 21 0 3229 262 13 MP
c8
DP
-13 -18 13 -18 -21 0 -10 -18 -10 18 -21 0 13 18 -13 18 
21 0 10 18 10 -18 21 0 3208 262 13 MP
DP
-13 -18 13 -18 -21 0 -10 -18 -10 18 -21 0 13 18 -13 18 
21 0 10 18 10 -18 21 0 3186 263 13 MP
DP
-13 -18 13 -18 -21 0 -10 -18 -10 18 -21 0 13 18 -13 18 
21 0 10 18 10 -18 21 0 3164 263 13 MP
DP
-13 -18 13 -18 -21 0 -10 -18 -10 18 -21 0 13 18 -13 18 
21 0 10 18 10 -18 21 0 3142 264 13 MP
DP
-13 -18 13 -18 -21 0 -10 -18 -10 18 -21 0 13 18 -13 18 
21 0 10 18 10 -18 21 0 3120 265 13 MP
DP
-13 -18 13 -18 -21 0 -10 -18 -10 18 -21 0 13 18 -13 18 
21 0 10 18 10 -18 21 0 3099 266 13 MP
DP
-13 -18 13 -18 -21 0 -10 -18 -10 18 -21 0 13 18 -13 18 
21 0 10 18 10 -18 21 0 3077 267 13 MP
DP
-13 -18 13 -18 -21 0 -10 -18 -10 18 -21 0 13 18 -13 18 
21 0 10 18 10 -18 21 0 3055 268 13 MP
DP
-13 -18 13 -18 -21 0 -10 -18 -10 18 -21 0 13 18 -13 18 
21 0 10 18 10 -18 21 0 3033 269 13 MP
DP
-13 -18 13 -18 -21 0 -10 -18 -10 18 -21 0 13 18 -13 18 
21 0 10 18 10 -18 21 0 3011 271 13 MP
DP
-13 -18 13 -18 -21 0 -10 -18 -10 18 -21 0 13 18 -13 18 
21 0 10 18 10 -18 21 0 2975 275 13 MP
DP
-13 -18 13 -18 -21 0 -10 -18 -10 18 -21 0 13 18 -13 18 
21 0 10 18 10 -18 21 0 2939 280 13 MP
DP
-13 -18 13 -18 -21 0 -10 -18 -10 18 -21 0 13 18 -13 18 
21 0 10 18 10 -18 21 0 2903 284 13 MP
DP
-13 -18 13 -18 -21 0 -10 -18 -10 18 -21 0 13 18 -13 18 
21 0 10 18 10 -18 21 0 2867 289 13 MP
DP
-13 -18 13 -18 -21 0 -10 -18 -10 18 -21 0 13 18 -13 18 
21 0 10 18 10 -18 21 0 2831 294 13 MP
DP
-13 -18 13 -18 -21 0 -10 -18 -10 18 -21 0 13 18 -13 18 
21 0 10 18 10 -18 21 0 2795 297 13 MP
DP
-13 -18 13 -18 -21 0 -10 -18 -10 18 -21 0 13 18 -13 18 
21 0 10 18 10 -18 21 0 2758 301 13 MP
DP
-13 -18 13 -18 -21 0 -10 -18 -10 18 -21 0 13 18 -13 18 
21 0 10 18 10 -18 21 0 2722 305 13 MP
DP
-13 -18 13 -18 -21 0 -10 -18 -10 18 -21 0 13 18 -13 18 
21 0 10 18 10 -18 21 0 2686 310 13 MP
DP
-13 -18 13 -18 -21 0 -10 -18 -10 18 -21 0 13 18 -13 18 
21 0 10 18 10 -18 21 0 2650 315 13 MP
DP
-13 -18 13 -18 -21 0 -10 -18 -10 18 -21 0 13 18 -13 18 
21 0 10 18 10 -18 21 0 2600 323 13 MP
DP
-13 -18 13 -18 -21 0 -10 -18 -10 18 -21 0 13 18 -13 18 
21 0 10 18 10 -18 21 0 2550 331 13 MP
DP
-13 -18 13 -18 -21 0 -10 -18 -10 18 -21 0 13 18 -13 18 
21 0 10 18 10 -18 21 0 2499 340 13 MP
DP
-13 -18 13 -18 -21 0 -10 -18 -10 18 -21 0 13 18 -13 18 
21 0 10 18 10 -18 21 0 2449 350 13 MP
DP
-13 -18 13 -18 -21 0 -10 -18 -10 18 -21 0 13 18 -13 18 
21 0 10 18 10 -18 21 0 2400 361 13 MP
DP
-13 -18 13 -18 -21 0 -10 -18 -10 18 -21 0 13 18 -13 18 
21 0 10 18 10 -18 21 0 2350 372 13 MP
DP
-13 -18 13 -18 -21 0 -10 -18 -10 18 -21 0 13 18 -13 18 
21 0 10 18 10 -18 21 0 2300 383 13 MP
DP
-13 -18 13 -18 -21 0 -10 -18 -10 18 -21 0 13 18 -13 18 
21 0 10 18 10 -18 21 0 2251 394 13 MP
DP
-13 -18 13 -18 -21 0 -10 -18 -10 18 -21 0 13 18 -13 18 
21 0 10 18 10 -18 21 0 2201 406 13 MP
DP
-13 -18 13 -18 -21 0 -10 -18 -10 18 -21 0 13 18 -13 18 
21 0 10 18 10 -18 21 0 2152 419 13 MP
DP
-13 -18 13 -18 -21 0 -10 -18 -10 18 -21 0 13 18 -13 18 
21 0 10 18 10 -18 21 0 2089 438 13 MP
DP
-13 -18 13 -18 -21 0 -10 -18 -10 18 -21 0 13 18 -13 18 
21 0 10 18 10 -18 21 0 2028 460 13 MP
DP
-13 -18 13 -18 -21 0 -10 -18 -10 18 -21 0 13 18 -13 18 
21 0 10 18 10 -18 21 0 1967 485 13 MP
DP
-13 -18 13 -18 -21 0 -10 -18 -10 18 -21 0 13 18 -13 18 
21 0 10 18 10 -18 21 0 1907 511 13 MP
DP
-13 -18 13 -18 -21 0 -10 -18 -10 18 -21 0 13 18 -13 18 
21 0 10 18 10 -18 21 0 1848 539 13 MP
DP
-13 -18 13 -18 -21 0 -10 -18 -10 18 -21 0 13 18 -13 18 
21 0 10 18 10 -18 21 0 1790 571 13 MP
DP
-13 -18 13 -18 -21 0 -10 -18 -10 18 -21 0 13 18 -13 18 
21 0 10 18 10 -18 21 0 1736 607 13 MP
DP
-13 -18 13 -18 -21 0 -10 -18 -10 18 -21 0 13 18 -13 18 
21 0 10 18 10 -18 21 0 1684 647 13 MP
DP
-13 -18 13 -18 -21 0 -10 -18 -10 18 -21 0 13 18 -13 18 
21 0 10 18 10 -18 21 0 1635 690 13 MP
DP
-13 -18 13 -18 -21 0 -10 -18 -10 18 -21 0 13 18 -13 18 
21 0 10 18 10 -18 21 0 1589 738 13 MP
DP
-13 -18 13 -18 -21 0 -10 -18 -10 18 -21 0 13 18 -13 18 
21 0 10 18 10 -18 21 0 1536 715 13 MP
DP
-13 -18 13 -18 -21 0 -10 -18 -10 18 -21 0 13 18 -13 18 
21 0 10 18 10 -18 21 0 1501 762 13 MP
DP
-13 -18 13 -18 -21 0 -10 -18 -10 18 -21 0 13 18 -13 18 
21 0 10 18 10 -18 21 0 1470 811 13 MP
DP
-13 -18 13 -18 -21 0 -10 -18 -10 18 -21 0 13 18 -13 18 
21 0 10 18 10 -18 21 0 1440 861 13 MP
DP
-13 -18 13 -18 -21 0 -10 -18 -10 18 -21 0 13 18 -13 18 
21 0 10 18 10 -18 21 0 1411 912 13 MP
DP
-13 -18 13 -18 -21 0 -10 -18 -10 18 -21 0 13 18 -13 18 
21 0 10 18 10 -18 21 0 1385 964 13 MP
DP
-13 -18 13 -18 -21 0 -10 -18 -10 18 -21 0 13 18 -13 18 
21 0 10 18 10 -18 21 0 1362 1017 13 MP
DP
-13 -18 13 -18 -21 0 -10 -18 -10 18 -21 0 13 18 -13 18 
21 0 10 18 10 -18 21 0 1341 1072 13 MP
DP
-13 -18 13 -18 -21 0 -10 -18 -10 18 -21 0 13 18 -13 18 
21 0 10 18 10 -18 21 0 1324 1127 13 MP
DP
-13 -18 13 -18 -21 0 -10 -18 -10 18 -21 0 13 18 -13 18 
21 0 10 18 10 -18 21 0 1310 1184 13 MP
DP
-13 -18 13 -18 -21 0 -10 -18 -10 18 -21 0 13 18 -13 18 
21 0 10 18 10 -18 21 0 1300 1241 13 MP
DP
-13 -18 13 -18 -21 0 -10 -18 -10 18 -21 0 13 18 -13 18 
21 0 10 18 10 -18 21 0 1295 1299 13 MP
DP
-13 -18 13 -18 -21 0 -10 -18 -10 18 -21 0 13 18 -13 18 
21 0 10 18 10 -18 21 0 1293 1357 13 MP
DP
-13 -18 13 -18 -21 0 -10 -18 -10 18 -21 0 13 18 -13 18 
21 0 10 18 10 -18 21 0 1295 1416 13 MP
DP
-13 -18 13 -18 -21 0 -10 -18 -10 18 -21 0 13 18 -13 18 
21 0 10 18 10 -18 21 0 1301 1473 13 MP
DP
-13 -18 13 -18 -21 0 -10 -18 -10 18 -21 0 13 18 -13 18 
21 0 10 18 10 -18 21 0 1312 1531 13 MP
DP
-13 -18 13 -18 -21 0 -10 -18 -10 18 -21 0 13 18 -13 18 
21 0 10 18 10 -18 21 0 1327 1587 13 MP
DP
-13 -18 13 -18 -21 0 -10 -18 -10 18 -21 0 13 18 -13 18 
21 0 10 18 10 -18 21 0 1345 1642 13 MP
DP
-13 -18 13 -18 -21 0 -10 -18 -10 18 -21 0 13 18 -13 18 
21 0 10 18 10 -18 21 0 1367 1696 13 MP
DP
-13 -18 13 -18 -21 0 -10 -18 -10 18 -21 0 13 18 -13 18 
21 0 10 18 10 -18 21 0 1392 1749 13 MP
DP
-13 -18 13 -18 -21 0 -10 -18 -10 18 -21 0 13 18 -13 18 
21 0 10 18 10 -18 21 0 1421 1799 13 MP
DP
-13 -18 13 -18 -21 0 -10 -18 -10 18 -21 0 13 18 -13 18 
21 0 10 18 10 -18 21 0 1453 1848 13 MP
DP
-13 -18 13 -18 -21 0 -10 -18 -10 18 -21 0 13 18 -13 18 
21 0 10 18 10 -18 21 0 1489 1894 13 MP
DP
-13 -18 13 -18 -21 0 -10 -18 -10 18 -21 0 13 18 -13 18 
21 0 10 18 10 -18 21 0 1528 1937 13 MP
DP
-13 -18 13 -18 -21 0 -10 -18 -10 18 -21 0 13 18 -13 18 
21 0 10 18 10 -18 21 0 1569 1978 13 MP
DP
-13 -18 13 -18 -21 0 -10 -18 -10 18 -21 0 13 18 -13 18 
21 0 10 18 10 -18 21 0 1612 2017 13 MP
DP
-13 -18 13 -18 -21 0 -10 -18 -10 18 -21 0 13 18 -13 18 
21 0 10 18 10 -18 21 0 1656 2056 13 MP
DP
-13 -18 13 -18 -21 0 -10 -18 -10 18 -21 0 13 18 -13 18 
21 0 10 18 10 -18 21 0 1701 2093 13 MP
DP
-13 -18 13 -18 -21 0 -10 -18 -10 18 -21 0 13 18 -13 18 
21 0 10 18 10 -18 21 0 1748 2127 13 MP
DP
-13 -18 13 -18 -21 0 -10 -18 -10 18 -21 0 13 18 -13 18 
21 0 10 18 10 -18 21 0 1797 2158 13 MP
DP
-13 -18 13 -18 -21 0 -10 -18 -10 18 -21 0 13 18 -13 18 
21 0 10 18 10 -18 21 0 1842 2183 13 MP
DP
-13 -18 13 -18 -21 0 -10 -18 -10 18 -21 0 13 18 -13 18 
21 0 10 18 10 -18 21 0 1887 2206 13 MP
DP
-13 -18 13 -18 -21 0 -10 -18 -10 18 -21 0 13 18 -13 18 
21 0 10 18 10 -18 21 0 1934 2227 13 MP
DP
-13 -18 13 -18 -21 0 -10 -18 -10 18 -21 0 13 18 -13 18 
21 0 10 18 10 -18 21 0 1980 2247 13 MP
DP
-13 -18 13 -18 -21 0 -10 -18 -10 18 -21 0 13 18 -13 18 
21 0 10 18 10 -18 21 0 2028 2266 13 MP
DP
-13 -18 13 -18 -21 0 -10 -18 -10 18 -21 0 13 18 -13 18 
21 0 10 18 10 -18 21 0 2075 2284 13 MP
DP
-13 -18 13 -18 -21 0 -10 -18 -10 18 -21 0 13 18 -13 18 
21 0 10 18 10 -18 21 0 2123 2301 13 MP
DP
-13 -18 13 -18 -21 0 -10 -18 -10 18 -21 0 13 18 -13 18 
21 0 10 18 10 -18 21 0 2172 2315 13 MP
DP
-13 -18 13 -18 -21 0 -10 -18 -10 18 -21 0 13 18 -13 18 
21 0 10 18 10 -18 21 0 2222 2326 13 MP
DP
-13 -18 13 -18 -21 0 -10 -18 -10 18 -21 0 13 18 -13 18 
21 0 10 18 10 -18 21 0 2272 2337 13 MP
DP
-13 -18 13 -18 -21 0 -10 -18 -10 18 -21 0 13 18 -13 18 
21 0 10 18 10 -18 21 0 2322 2347 13 MP
DP
-13 -18 13 -18 -21 0 -10 -18 -10 18 -21 0 13 18 -13 18 
21 0 10 18 10 -18 21 0 2372 2357 13 MP
DP
-13 -18 13 -18 -21 0 -10 -18 -10 18 -21 0 13 18 -13 18 
21 0 10 18 10 -18 21 0 2422 2367 13 MP
DP
-13 -18 13 -18 -21 0 -10 -18 -10 18 -21 0 13 18 -13 18 
21 0 10 18 10 -18 21 0 2471 2379 13 MP
DP
-13 -18 13 -18 -21 0 -10 -18 -10 18 -21 0 13 18 -13 18 
21 0 10 18 10 -18 21 0 2520 2394 13 MP
DP
-13 -18 13 -18 -21 0 -10 -18 -10 18 -21 0 13 18 -13 18 
21 0 10 18 10 -18 21 0 2567 2413 13 MP
DP
-13 -18 13 -18 -21 0 -10 -18 -10 18 -21 0 13 18 -13 18 
21 0 10 18 10 -18 21 0 2613 2435 13 MP
DP
-13 -18 13 -18 -21 0 -10 -18 -10 18 -21 0 13 18 -13 18 
21 0 10 18 10 -18 21 0 2656 2462 13 MP
DP
-13 -18 13 -18 -21 0 -10 -18 -10 18 -21 0 13 18 -13 18 
21 0 10 18 10 -18 21 0 2696 2493 13 MP
DP
-13 -18 13 -18 -21 0 -10 -18 -10 18 -21 0 13 18 -13 18 
21 0 10 18 10 -18 21 0 2733 2528 13 MP
DP
-13 -18 13 -18 -21 0 -10 -18 -10 18 -21 0 13 18 -13 18 
21 0 10 18 10 -18 21 0 2771 2573 13 MP
DP
-13 -18 13 -18 -21 0 -10 -18 -10 18 -21 0 13 18 -13 18 
21 0 10 18 10 -18 21 0 2805 2620 13 MP
DP
-13 -18 13 -18 -21 0 -10 -18 -10 18 -21 0 13 18 -13 18 
21 0 10 18 10 -18 21 0 2836 2669 13 MP
DP
-13 -18 13 -18 -21 0 -10 -18 -10 18 -21 0 13 18 -13 18 
21 0 10 18 10 -18 21 0 2863 2721 13 MP
DP
-13 -18 13 -18 -21 0 -10 -18 -10 18 -21 0 13 18 -13 18 
21 0 10 18 10 -18 21 0 2884 2775 13 MP
DP
-13 -18 13 -18 -21 0 -10 -18 -10 18 -21 0 13 18 -13 18 
21 0 10 18 10 -18 21 0 2901 2831 13 MP
DP
-13 -18 13 -18 -21 0 -10 -18 -10 18 -21 0 13 18 -13 18 
21 0 10 18 10 -18 21 0 2914 2888 13 MP
DP
-13 -18 13 -18 -21 0 -10 -18 -10 18 -21 0 13 18 -13 18 
21 0 10 18 10 -18 21 0 2922 2945 13 MP
DP
-13 -18 13 -18 -21 0 -10 -18 -10 18 -21 0 13 18 -13 18 
21 0 10 18 10 -18 21 0 2926 3003 13 MP
DP
-13 -18 13 -18 -21 0 -10 -18 -10 18 -21 0 13 18 -13 18 
21 0 10 18 10 -18 21 0 2927 3062 13 MP
DP
-13 -18 13 -18 -21 0 -10 -18 -10 18 -21 0 13 18 -13 18 
21 0 10 18 10 -18 21 0 2926 3113 13 MP
DP
-13 -18 13 -18 -21 0 -10 -18 -10 18 -21 0 13 18 -13 18 
21 0 10 18 10 -18 21 0 2923 3163 13 MP
DP
-13 -18 13 -18 -21 0 -10 -18 -10 18 -21 0 13 18 -13 18 
21 0 10 18 10 -18 21 0 2920 3214 13 MP
DP
-13 -18 13 -18 -21 0 -10 -18 -10 18 -21 0 13 18 -13 18 
21 0 10 18 10 -18 21 0 2916 3265 13 MP
DP
-13 -18 13 -18 -21 0 -10 -18 -10 18 -21 0 13 18 -13 18 
21 0 10 18 10 -18 21 0 2913 3316 13 MP
DP
-13 -18 13 -18 -21 0 -10 -18 -10 18 -21 0 13 18 -13 18 
21 0 10 18 10 -18 21 0 2908 3367 13 MP
DP
-13 -18 13 -18 -21 0 -10 -18 -10 18 -21 0 13 18 -13 18 
21 0 10 18 10 -18 21 0 2904 3417 13 MP
DP
-13 -18 13 -18 -21 0 -10 -18 -10 18 -21 0 13 18 -13 18 
21 0 10 18 10 -18 21 0 2898 3468 13 MP
DP
-13 -18 13 -18 -21 0 -10 -18 -10 18 -21 0 13 18 -13 18 
21 0 10 18 10 -18 21 0 2892 3519 13 MP
DP
-13 -18 13 -18 -21 0 -10 -18 -10 18 -21 0 13 18 -13 18 
21 0 10 18 10 -18 21 0 2886 3569 13 MP
DP
-13 -18 13 -18 -21 0 -10 -18 -10 18 -21 0 13 18 -13 18 
21 0 10 18 10 -18 21 0 2878 3627 13 MP
DP
-13 -18 13 -18 -21 0 -10 -18 -10 18 -21 0 13 18 -13 18 
21 0 10 18 10 -18 21 0 2870 3685 13 MP
DP
-13 -18 13 -18 -21 0 -10 -18 -10 18 -21 0 13 18 -13 18 
21 0 10 18 10 -18 21 0 2862 3742 13 MP
DP
-13 -18 13 -18 -21 0 -10 -18 -10 18 -21 0 13 18 -13 18 
21 0 10 18 10 -18 21 0 2851 3799 13 MP
DP
-13 -18 13 -18 -21 0 -10 -18 -10 18 -21 0 13 18 -13 18 
21 0 10 18 10 -18 21 0 2840 3856 13 MP
DP
-13 -18 13 -18 -21 0 -10 -18 -10 18 -21 0 13 18 -13 18 
21 0 10 18 10 -18 21 0 2828 3913 13 MP
DP
-13 -18 13 -18 -21 0 -10 -18 -10 18 -21 0 13 18 -13 18 
21 0 10 18 10 -18 21 0 2816 3970 13 MP
DP
-13 -18 13 -18 -21 0 -10 -18 -10 18 -21 0 13 18 -13 18 
21 0 10 18 10 -18 21 0 2803 4027 13 MP
DP
-13 -18 13 -18 -21 0 -10 -18 -10 18 -21 0 13 18 -13 18 
21 0 10 18 10 -18 21 0 2791 4084 13 MP
DP
-13 -18 13 -18 -21 0 -10 -18 -10 18 -21 0 13 18 -13 18 
21 0 10 18 10 -18 21 0 2779 4141 13 MP
DP
-13 -18 13 -18 -21 0 -10 -18 -10 18 -21 0 13 18 -13 18 
21 0 10 18 10 -18 21 0 2766 4198 13 MP
DP
-13 -18 13 -18 -21 0 -10 -18 -10 18 -21 0 13 18 -13 18 
21 0 10 18 10 -18 21 0 2752 4254 13 MP
DP
-13 -18 13 -18 -21 0 -10 -18 -10 18 -21 0 13 18 -13 18 
21 0 10 18 10 -18 21 0 2736 4310 13 MP
DP
-13 -18 13 -18 -21 0 -10 -18 -10 18 -21 0 13 18 -13 18 
21 0 10 18 10 -18 21 0 2719 4366 13 MP
DP
-13 -18 13 -18 -21 0 -10 -18 -10 18 -21 0 13 18 -13 18 
21 0 10 18 10 -18 21 0 2698 4420 13 MP
DP
-13 -18 13 -18 -21 0 -10 -18 -10 18 -21 0 13 18 -13 18 
21 0 10 18 10 -18 21 0 2676 4474 13 MP
DP
-13 -18 13 -18 -21 0 -10 -18 -10 18 -21 0 13 18 -13 18 
21 0 10 18 10 -18 21 0 2650 4526 13 MP
DP
-13 -18 13 -18 -21 0 -10 -18 -10 18 -21 0 13 18 -13 18 
21 0 10 18 10 -18 21 0 2621 4577 13 MP
DP
-13 -18 13 -18 -21 0 -10 -18 -10 18 -21 0 13 18 -13 18 
21 0 10 18 10 -18 21 0 2588 4625 13 MP
DP
-13 -18 13 -18 -21 0 -10 -18 -10 18 -21 0 13 18 -13 18 
21 0 10 18 10 -18 21 0 2552 4671 13 MP
DP
-13 -18 13 -18 -21 0 -10 -18 -10 18 -21 0 13 18 -13 18 
21 0 10 18 10 -18 21 0 2517 4708 13 MP
DP
-13 -18 13 -18 -21 0 -10 -18 -10 18 -21 0 13 18 -13 18 
21 0 10 18 10 -18 21 0 2479 4742 13 MP
DP
-13 -18 13 -18 -21 0 -10 -18 -10 18 -21 0 13 18 -13 18 
21 0 10 18 10 -18 21 0 2439 4772 13 MP
DP
-13 -18 13 -18 -21 0 -10 -18 -10 18 -21 0 13 18 -13 18 
21 0 10 18 10 -18 21 0 2396 4800 13 MP
DP
-13 -18 13 -18 -21 0 -10 -18 -10 18 -21 0 13 18 -13 18 
21 0 10 18 10 -18 21 0 2351 4825 13 MP
DP
-13 -18 13 -18 -21 0 -10 -18 -10 18 -21 0 13 18 -13 18 
21 0 10 18 10 -18 21 0 2305 4846 13 MP
DP
-13 -18 13 -18 -21 0 -10 -18 -10 18 -21 0 13 18 -13 18 
21 0 10 18 10 -18 21 0 2257 4864 13 MP
DP
-13 -18 13 -18 -21 0 -10 -18 -10 18 -21 0 13 18 -13 18 
21 0 10 18 10 -18 21 0 2209 4880 13 MP
DP
-13 -18 13 -18 -21 0 -10 -18 -10 18 -21 0 13 18 -13 18 
21 0 10 18 10 -18 21 0 2160 4893 13 MP
DP
-13 -18 13 -18 -21 0 -10 -18 -10 18 -21 0 13 18 -13 18 
21 0 10 18 10 -18 21 0 2110 4904 13 MP
DP
-13 -18 13 -18 -21 0 -10 -18 -10 18 -21 0 13 18 -13 18 
21 0 10 18 10 -18 21 0 2060 4912 13 MP
DP
-13 -18 13 -18 -21 0 -10 -18 -10 18 -21 0 13 18 -13 18 
21 0 10 18 10 -18 21 0 2009 4920 13 MP
DP
-13 -18 13 -18 -21 0 -10 -18 -10 18 -21 0 13 18 -13 18 
21 0 10 18 10 -18 21 0 1959 4927 13 MP
DP
-13 -18 13 -18 -21 0 -10 -18 -10 18 -21 0 13 18 -13 18 
21 0 10 18 10 -18 21 0 1908 4934 13 MP
DP
-13 -18 13 -18 -21 0 -10 -18 -10 18 -21 0 13 18 -13 18 
21 0 10 18 10 -18 21 0 1858 4943 13 MP
DP
-13 -18 13 -18 -21 0 -10 -18 -10 18 -21 0 13 18 -13 18 
21 0 10 18 10 -18 21 0 1808 4954 13 MP
DP
-13 -18 13 -18 -21 0 -10 -18 -10 18 -21 0 13 18 -13 18 
21 0 10 18 10 -18 21 0 1759 4967 13 MP
DP
-13 -18 13 -18 -21 0 -10 -18 -10 18 -21 0 13 18 -13 18 
21 0 10 18 10 -18 21 0 1711 4983 13 MP
DP
-13 -18 13 -18 -21 0 -10 -18 -10 18 -21 0 13 18 -13 18 
21 0 10 18 10 -18 21 0 1664 5004 13 MP
DP
-13 -18 13 -18 -21 0 -10 -18 -10 18 -21 0 13 18 -13 18 
21 0 10 18 10 -18 21 0 1620 5028 13 MP
DP
-13 -18 13 -18 -21 0 -10 -18 -10 18 -21 0 13 18 -13 18 
21 0 10 18 10 -18 21 0 1571 5060 13 MP
DP
-13 -18 13 -18 -21 0 -10 -18 -10 18 -21 0 13 18 -13 18 
21 0 10 18 10 -18 21 0 1523 5093 13 MP
DP
-13 -18 13 -18 -21 0 -10 -18 -10 18 -21 0 13 18 -13 18 
21 0 10 18 10 -18 21 0 1476 5127 13 MP
DP
-13 -18 13 -18 -21 0 -10 -18 -10 18 -21 0 13 18 -13 18 
21 0 10 18 10 -18 21 0 1430 5163 13 MP
DP
-13 -18 13 -18 -21 0 -10 -18 -10 18 -21 0 13 18 -13 18 
21 0 10 18 10 -18 21 0 1384 5199 13 MP
DP
-13 -18 13 -18 -21 0 -10 -18 -10 18 -21 0 13 18 -13 18 
21 0 10 18 10 -18 21 0 1340 5237 13 MP
DP
-13 -18 13 -18 -21 0 -10 -18 -10 18 -21 0 13 18 -13 18 
21 0 10 18 10 -18 21 0 1297 5277 13 MP
DP
-13 -18 13 -18 -21 0 -10 -18 -10 18 -21 0 13 18 -13 18 
21 0 10 18 10 -18 21 0 1255 5317 13 MP
DP
-13 -18 13 -18 -21 0 -10 -18 -10 18 -21 0 13 18 -13 18 
21 0 10 18 10 -18 21 0 1215 5358 13 MP
DP
-13 -18 13 -18 -21 0 -10 -18 -10 18 -21 0 13 18 -13 18 
21 0 10 18 10 -18 21 0 1176 5402 13 MP
DP
-13 -18 13 -18 -21 0 -10 -18 -10 18 -21 0 13 18 -13 18 
21 0 10 18 10 -18 21 0 1158 5354 13 MP
DP
-13 -18 13 -18 -21 0 -10 -18 -10 18 -21 0 13 18 -13 18 
21 0 10 18 10 -18 21 0 1127 5394 13 MP
DP
-13 -18 13 -18 -21 0 -10 -18 -10 18 -21 0 13 18 -13 18 
21 0 10 18 10 -18 21 0 1097 5436 13 MP
DP
-13 -18 13 -18 -21 0 -10 -18 -10 18 -21 0 13 18 -13 18 
21 0 10 18 10 -18 21 0 1068 5478 13 MP
DP
-13 -18 13 -18 -21 0 -10 -18 -10 18 -21 0 13 18 -13 18 
21 0 10 18 10 -18 21 0 1040 5520 13 MP
DP
-13 -18 13 -18 -21 0 -10 -18 -10 18 -21 0 13 18 -13 18 
21 0 10 18 10 -18 21 0 1013 5563 13 MP
DP
-13 -18 13 -18 -21 0 -10 -18 -10 18 -21 0 13 18 -13 18 
21 0 10 18 10 -18 21 0 986 5607 13 MP
DP
-13 -18 13 -18 -21 0 -10 -18 -10 18 -21 0 13 18 -13 18 
21 0 10 18 10 -18 21 0 960 5650 13 MP
DP
-13 -18 13 -18 -21 0 -10 -18 -10 18 -21 0 13 18 -13 18 
21 0 10 18 10 -18 21 0 933 5693 13 MP
DP
-13 -18 13 -18 -21 0 -10 -18 -10 18 -21 0 13 18 -13 18 
21 0 10 18 10 -18 21 0 906 5736 13 MP
DP
-13 -18 13 -18 -21 0 -10 -18 -10 18 -21 0 13 18 -13 18 
21 0 10 18 10 -18 21 0 879 5780 13 MP
DP
gr

c8
gs 902 73 2880 6480 rc
/c10 { 0.000000 0.750000 0.750000 sr} bdef
c10
2 -3 2 -3 -2 3 -4 6 -4 6 -4 6 -4 5 -4 6 
-4 6 -3 4 -9 13 -16 26 -17 28 -17 30 -20 32 -22 34 
-21 39 -26 40 -25 40 -26 41 -27 43 -31 43 -35 39 -30 40 
-25 44 -24 44 -28 42 -25 44 -18 60 -11 42 -31 52 -45 27 
-41 11 -37 13 -40 19 -49 20 -58 24 -72 38 -47 33 -46 34 
-42 27 -42 24 -42 19 -43 14 -43 10 -44 8 -34 34 -35 34 
-31 36 -30 35 -28 33 -29 36 -31 41 -37 45 -59 60 -46 28 
-45 29 -44 28 -42 30 -38 31 -39 38 -35 40 -31 42 -26 45 
-22 46 -18 48 -15 48 -25 66 -23 65 -23 66 -21 62 -18 63 
-16 59 -11 51 -5 43 -1 40 4 51 3 68 0 68 -4 63 
-10 52 -5 56 -1 66 2 68 9 73 15 75 20 83 26 86 
37 89 81 83 18 52 16 53 16 55 16 55 18 56 18 57 
22 55 24 53 27 52 30 48 30 39 33 33 36 28 39 22 
40 18 43 13 57 15 56 10 56 4 54 -5 43 -20 40 -16 
51 8 60 23 62 23 56 9 60 10 66 12 63 14 54 14 
47 18 46 20 46 23 45 28 45 30 43 34 41 35 39 35 
40 35 42 41 46 59 24 53 24 53 22 53 20 53 16 53 
12 53 7 53 1 52 -4 51 -9 50 -14 49 -18 47 -12 55 
-9 65 12 104 -20 60 -20 58 -23 54 -42 -9 -37 43 -41 39 
-45 35 -44 44 -43 41 -43 38 -43 35 -44 28 -41 28 -43 24 
-41 6 -45 3 -48 -4 -51 10 -54 20 -56 31 -57 32 -58 20 
-59 8 -63 1 -56 -4 -56 -4 -56 -5 -59 -10 -55 -7 -55 -1 
-54 3 -52 3 -51 6 -54 8 -61 15 -56 15 -44 17 -42 19 
-40 21 -38 22 -36 23 -31 19 -19 -14 3289 96 190 MP stroke
gr

c10
gs 1111 9 2252 6406 rc
0 j
-21 -16 8 -25 -22 15 -21 -15 8 25 -21 16 26 0 8 24 
9 -24 26 0 3254 84 11 MP
DP
-21 -16 8 -25 -22 15 -21 -15 8 25 -21 16 26 0 8 24 
9 -24 26 0 3235 70 11 MP
DP
-21 -16 8 -25 -22 15 -21 -15 8 25 -21 16 26 0 8 24 
9 -24 26 0 3204 89 11 MP
DP
-21 -16 8 -25 -22 15 -21 -15 8 25 -21 16 26 0 8 24 
9 -24 26 0 3168 112 11 MP
DP
-21 -16 8 -25 -22 15 -21 -15 8 25 -21 16 26 0 8 24 
9 -24 26 0 3130 134 11 MP
DP
-21 -16 8 -25 -22 15 -21 -15 8 25 -21 16 26 0 8 24 
9 -24 26 0 3090 155 11 MP
DP
-21 -16 8 -25 -22 15 -21 -15 8 25 -21 16 26 0 8 24 
9 -24 26 0 3048 174 11 MP
DP
-21 -16 8 -25 -22 15 -21 -15 8 25 -21 16 26 0 8 24 
9 -24 26 0 3004 191 11 MP
DP
-21 -16 8 -25 -22 15 -21 -15 8 25 -21 16 26 0 8 24 
9 -24 26 0 2948 206 11 MP
DP
-21 -16 8 -25 -22 15 -21 -15 8 25 -21 16 26 0 8 24 
9 -24 26 0 2887 221 11 MP
DP
-21 -16 8 -25 -22 15 -21 -15 8 25 -21 16 26 0 8 24 
9 -24 26 0 2833 229 11 MP
DP
-21 -16 8 -25 -22 15 -21 -15 8 25 -21 16 26 0 8 24 
9 -24 26 0 2782 235 11 MP
DP
-21 -16 8 -25 -22 15 -21 -15 8 25 -21 16 26 0 8 24 
9 -24 26 0 2730 238 11 MP
DP
-21 -16 8 -25 -22 15 -21 -15 8 25 -21 16 26 0 8 24 
9 -24 26 0 2676 241 11 MP
DP
-21 -16 8 -25 -22 15 -21 -15 8 25 -21 16 26 0 8 24 
9 -24 26 0 2621 240 11 MP
DP
-21 -16 8 -25 -22 15 -21 -15 8 25 -21 16 26 0 8 24 
9 -24 26 0 2566 233 11 MP
DP
-21 -16 8 -25 -22 15 -21 -15 8 25 -21 16 26 0 8 24 
9 -24 26 0 2507 223 11 MP
DP
-21 -16 8 -25 -22 15 -21 -15 8 25 -21 16 26 0 8 24 
9 -24 26 0 2451 218 11 MP
DP
-21 -16 8 -25 -22 15 -21 -15 8 25 -21 16 26 0 8 24 
9 -24 26 0 2395 214 11 MP
DP
-21 -16 8 -25 -22 15 -21 -15 8 25 -21 16 26 0 8 24 
9 -24 26 0 2339 210 11 MP
DP
-21 -16 8 -25 -22 15 -21 -15 8 25 -21 16 26 0 8 24 
9 -24 26 0 2276 211 11 MP
DP
-21 -16 8 -25 -22 15 -21 -15 8 25 -21 16 26 0 8 24 
9 -24 26 0 2217 219 11 MP
DP
-21 -16 8 -25 -22 15 -21 -15 8 25 -21 16 26 0 8 24 
9 -24 26 0 2159 239 11 MP
DP
-21 -16 8 -25 -22 15 -21 -15 8 25 -21 16 26 0 8 24 
9 -24 26 0 2102 271 11 MP
DP
-21 -16 8 -25 -22 15 -21 -15 8 25 -21 16 26 0 8 24 
9 -24 26 0 2046 302 11 MP
DP
-21 -16 8 -25 -22 15 -21 -15 8 25 -21 16 26 0 8 24 
9 -24 26 0 1992 322 11 MP
DP
-21 -16 8 -25 -22 15 -21 -15 8 25 -21 16 26 0 8 24 
9 -24 26 0 1941 332 11 MP
DP
-21 -16 8 -25 -22 15 -21 -15 8 25 -21 16 26 0 8 24 
9 -24 26 0 1893 328 11 MP
DP
-21 -16 8 -25 -22 15 -21 -15 8 25 -21 16 26 0 8 24 
9 -24 26 0 1848 331 11 MP
DP
-21 -16 8 -25 -22 15 -21 -15 8 25 -21 16 26 0 8 24 
9 -24 26 0 1807 337 11 MP
DP
-21 -16 8 -25 -22 15 -21 -15 8 25 -21 16 26 0 8 24 
9 -24 26 0 1764 361 11 MP
DP
-21 -16 8 -25 -22 15 -21 -15 8 25 -21 16 26 0 8 24 
9 -24 26 0 1723 389 11 MP
DP
-21 -16 8 -25 -22 15 -21 -15 8 25 -21 16 26 0 8 24 
9 -24 26 0 1679 417 11 MP
DP
-21 -16 8 -25 -22 15 -21 -15 8 25 -21 16 26 0 8 24 
9 -24 26 0 1636 452 11 MP
DP
-21 -16 8 -25 -22 15 -21 -15 8 25 -21 16 26 0 8 24 
9 -24 26 0 1593 490 11 MP
DP
-21 -16 8 -25 -22 15 -21 -15 8 25 -21 16 26 0 8 24 
9 -24 26 0 1550 531 11 MP
DP
-21 -16 8 -25 -22 15 -21 -15 8 25 -21 16 26 0 8 24 
9 -24 26 0 1506 575 11 MP
DP
-21 -16 8 -25 -22 15 -21 -15 8 25 -21 16 26 0 8 24 
9 -24 26 0 1461 610 11 MP
DP
-21 -16 8 -25 -22 15 -21 -15 8 25 -21 16 26 0 8 24 
9 -24 26 0 1420 649 11 MP
DP
-21 -16 8 -25 -22 15 -21 -15 8 25 -21 16 26 0 8 24 
9 -24 26 0 1383 692 11 MP
DP
-21 -16 8 -25 -22 15 -21 -15 8 25 -21 16 26 0 8 24 
9 -24 26 0 1341 683 11 MP
DP
-21 -16 8 -25 -22 15 -21 -15 8 25 -21 16 26 0 8 24 
9 -24 26 0 1318 737 11 MP
DP
-21 -16 8 -25 -22 15 -21 -15 8 25 -21 16 26 0 8 24 
9 -24 26 0 1298 795 11 MP
DP
-21 -16 8 -25 -22 15 -21 -15 8 25 -21 16 26 0 8 24 
9 -24 26 0 1278 855 11 MP
DP
-21 -16 8 -25 -22 15 -21 -15 8 25 -21 16 26 0 8 24 
9 -24 26 0 1290 959 11 MP
DP
-21 -16 8 -25 -22 15 -21 -15 8 25 -21 16 26 0 8 24 
9 -24 26 0 1281 1024 11 MP
DP
-21 -16 8 -25 -22 15 -21 -15 8 25 -21 16 26 0 8 24 
9 -24 26 0 1269 1079 11 MP
DP
-21 -16 8 -25 -22 15 -21 -15 8 25 -21 16 26 0 8 24 
9 -24 26 0 1251 1126 11 MP
DP
-21 -16 8 -25 -22 15 -21 -15 8 25 -21 16 26 0 8 24 
9 -24 26 0 1237 1175 11 MP
DP
-21 -16 8 -25 -22 15 -21 -15 8 25 -21 16 26 0 8 24 
9 -24 26 0 1228 1225 11 MP
DP
-21 -16 8 -25 -22 15 -21 -15 8 25 -21 16 26 0 8 24 
9 -24 26 0 1224 1276 11 MP
DP
-21 -16 8 -25 -22 15 -21 -15 8 25 -21 16 26 0 8 24 
9 -24 26 0 1225 1328 11 MP
DP
-21 -16 8 -25 -22 15 -21 -15 8 25 -21 16 26 0 8 24 
9 -24 26 0 1232 1381 11 MP
DP
-21 -16 8 -25 -22 15 -21 -15 8 25 -21 16 26 0 8 24 
9 -24 26 0 1244 1434 11 MP
DP
-21 -16 8 -25 -22 15 -21 -15 8 25 -21 16 26 0 8 24 
9 -24 26 0 1260 1487 11 MP
DP
-21 -16 8 -25 -22 15 -21 -15 8 25 -21 16 26 0 8 24 
9 -24 26 0 1280 1540 11 MP
DP
-21 -16 8 -25 -22 15 -21 -15 8 25 -21 16 26 0 8 24 
9 -24 26 0 1302 1593 11 MP
DP
-21 -16 8 -25 -22 15 -21 -15 8 25 -21 16 26 0 8 24 
9 -24 26 0 1326 1646 11 MP
DP
-21 -16 8 -25 -22 15 -21 -15 8 25 -21 16 26 0 8 24 
9 -24 26 0 1350 1699 11 MP
DP
-21 -16 8 -25 -22 15 -21 -15 8 25 -21 16 26 0 8 24 
9 -24 26 0 1396 1758 11 MP
DP
-21 -16 8 -25 -22 15 -21 -15 8 25 -21 16 26 0 8 24 
9 -24 26 0 1438 1799 11 MP
DP
-21 -16 8 -25 -22 15 -21 -15 8 25 -21 16 26 0 8 24 
9 -24 26 0 1478 1834 11 MP
DP
-21 -16 8 -25 -22 15 -21 -15 8 25 -21 16 26 0 8 24 
9 -24 26 0 1517 1869 11 MP
DP
-21 -16 8 -25 -22 15 -21 -15 8 25 -21 16 26 0 8 24 
9 -24 26 0 1558 1904 11 MP
DP
-21 -16 8 -25 -22 15 -21 -15 8 25 -21 16 26 0 8 24 
9 -24 26 0 1601 1938 11 MP
DP
-21 -16 8 -25 -22 15 -21 -15 8 25 -21 16 26 0 8 24 
9 -24 26 0 1646 1968 11 MP
DP
-21 -16 8 -25 -22 15 -21 -15 8 25 -21 16 26 0 8 24 
9 -24 26 0 1691 1996 11 MP
DP
-21 -16 8 -25 -22 15 -21 -15 8 25 -21 16 26 0 8 24 
9 -24 26 0 1737 2019 11 MP
DP
-21 -16 8 -25 -22 15 -21 -15 8 25 -21 16 26 0 8 24 
9 -24 26 0 1783 2039 11 MP
DP
-21 -16 8 -25 -22 15 -21 -15 8 25 -21 16 26 0 8 24 
9 -24 26 0 1830 2057 11 MP
DP
-21 -16 8 -25 -22 15 -21 -15 8 25 -21 16 26 0 8 24 
9 -24 26 0 1884 2071 11 MP
DP
-21 -16 8 -25 -22 15 -21 -15 8 25 -21 16 26 0 8 24 
9 -24 26 0 1947 2085 11 MP
DP
-21 -16 8 -25 -22 15 -21 -15 8 25 -21 16 26 0 8 24 
9 -24 26 0 2013 2097 11 MP
DP
-21 -16 8 -25 -22 15 -21 -15 8 25 -21 16 26 0 8 24 
9 -24 26 0 2073 2107 11 MP
DP
-21 -16 8 -25 -22 15 -21 -15 8 25 -21 16 26 0 8 24 
9 -24 26 0 2129 2116 11 MP
DP
-21 -16 8 -25 -22 15 -21 -15 8 25 -21 16 26 0 8 24 
9 -24 26 0 2191 2139 11 MP
DP
-21 -16 8 -25 -22 15 -21 -15 8 25 -21 16 26 0 8 24 
9 -24 26 0 2251 2162 11 MP
DP
-21 -16 8 -25 -22 15 -21 -15 8 25 -21 16 26 0 8 24 
9 -24 26 0 2302 2170 11 MP
DP
-21 -16 8 -25 -22 15 -21 -15 8 25 -21 16 26 0 8 24 
9 -24 26 0 2342 2154 11 MP
DP
-21 -16 8 -25 -22 15 -21 -15 8 25 -21 16 26 0 8 24 
9 -24 26 0 2385 2134 11 MP
DP
-21 -16 8 -25 -22 15 -21 -15 8 25 -21 16 26 0 8 24 
9 -24 26 0 2439 2129 11 MP
DP
-21 -16 8 -25 -22 15 -21 -15 8 25 -21 16 26 0 8 24 
9 -24 26 0 2495 2133 11 MP
DP
-21 -16 8 -25 -22 15 -21 -15 8 25 -21 16 26 0 8 24 
9 -24 26 0 2551 2143 11 MP
DP
-21 -16 8 -25 -22 15 -21 -15 8 25 -21 16 26 0 8 24 
9 -24 26 0 2608 2158 11 MP
DP
-21 -16 8 -25 -22 15 -21 -15 8 25 -21 16 26 0 8 24 
9 -24 26 0 2651 2171 11 MP
DP
-21 -16 8 -25 -22 15 -21 -15 8 25 -21 16 26 0 8 24 
9 -24 26 0 2691 2189 11 MP
DP
-21 -16 8 -25 -22 15 -21 -15 8 25 -21 16 26 0 8 24 
9 -24 26 0 2730 2211 11 MP
DP
-21 -16 8 -25 -22 15 -21 -15 8 25 -21 16 26 0 8 24 
9 -24 26 0 2766 2239 11 MP
DP
-21 -16 8 -25 -22 15 -21 -15 8 25 -21 16 26 0 8 24 
9 -24 26 0 2799 2272 11 MP
DP
-21 -16 8 -25 -22 15 -21 -15 8 25 -21 16 26 0 8 24 
9 -24 26 0 2829 2311 11 MP
DP
-21 -16 8 -25 -22 15 -21 -15 8 25 -21 16 26 0 8 24 
9 -24 26 0 2859 2359 11 MP
DP
-21 -16 8 -25 -22 15 -21 -15 8 25 -21 16 26 0 8 24 
9 -24 26 0 2886 2411 11 MP
DP
-21 -16 8 -25 -22 15 -21 -15 8 25 -21 16 26 0 8 24 
9 -24 26 0 2910 2464 11 MP
DP
-21 -16 8 -25 -22 15 -21 -15 8 25 -21 16 26 0 8 24 
9 -24 26 0 2932 2519 11 MP
DP
-21 -16 8 -25 -22 15 -21 -15 8 25 -21 16 26 0 8 24 
9 -24 26 0 2950 2576 11 MP
DP
-21 -16 8 -25 -22 15 -21 -15 8 25 -21 16 26 0 8 24 
9 -24 26 0 2968 2632 11 MP
DP
-21 -16 8 -25 -22 15 -21 -15 8 25 -21 16 26 0 8 24 
9 -24 26 0 2984 2687 11 MP
DP
-21 -16 8 -25 -22 15 -21 -15 8 25 -21 16 26 0 8 24 
9 -24 26 0 3000 2742 11 MP
DP
-21 -16 8 -25 -22 15 -21 -15 8 25 -21 16 26 0 8 24 
9 -24 26 0 3016 2795 11 MP
DP
-21 -16 8 -25 -22 15 -21 -15 8 25 -21 16 26 0 8 24 
9 -24 26 0 3034 2847 11 MP
DP
-21 -16 8 -25 -22 15 -21 -15 8 25 -21 16 26 0 8 24 
9 -24 26 0 3115 2930 11 MP
DP
-21 -16 8 -25 -22 15 -21 -15 8 25 -21 16 26 0 8 24 
9 -24 26 0 3152 3019 11 MP
DP
-21 -16 8 -25 -22 15 -21 -15 8 25 -21 16 26 0 8 24 
9 -24 26 0 3178 3105 11 MP
DP
-21 -16 8 -25 -22 15 -21 -15 8 25 -21 16 26 0 8 24 
9 -24 26 0 3198 3188 11 MP
DP
-21 -16 8 -25 -22 15 -21 -15 8 25 -21 16 26 0 8 24 
9 -24 26 0 3213 3263 11 MP
DP
-21 -16 8 -25 -22 15 -21 -15 8 25 -21 16 26 0 8 24 
9 -24 26 0 3222 3336 11 MP
DP
-21 -16 8 -25 -22 15 -21 -15 8 25 -21 16 26 0 8 24 
9 -24 26 0 3224 3404 11 MP
DP
-21 -16 8 -25 -22 15 -21 -15 8 25 -21 16 26 0 8 24 
9 -24 26 0 3223 3470 11 MP
DP
-21 -16 8 -25 -22 15 -21 -15 8 25 -21 16 26 0 8 24 
9 -24 26 0 3218 3526 11 MP
DP
-21 -16 8 -25 -22 15 -21 -15 8 25 -21 16 26 0 8 24 
9 -24 26 0 3208 3578 11 MP
DP
-21 -16 8 -25 -22 15 -21 -15 8 25 -21 16 26 0 8 24 
9 -24 26 0 3204 3641 11 MP
DP
-21 -16 8 -25 -22 15 -21 -15 8 25 -21 16 26 0 8 24 
9 -24 26 0 3204 3709 11 MP
DP
-21 -16 8 -25 -22 15 -21 -15 8 25 -21 16 26 0 8 24 
9 -24 26 0 3207 3777 11 MP
DP
-21 -16 8 -25 -22 15 -21 -15 8 25 -21 16 26 0 8 24 
9 -24 26 0 3211 3828 11 MP
DP
-21 -16 8 -25 -22 15 -21 -15 8 25 -21 16 26 0 8 24 
9 -24 26 0 3210 3868 11 MP
DP
-21 -16 8 -25 -22 15 -21 -15 8 25 -21 16 26 0 8 24 
9 -24 26 0 3205 3911 11 MP
DP
-21 -16 8 -25 -22 15 -21 -15 8 25 -21 16 26 0 8 24 
9 -24 26 0 3194 3962 11 MP
DP
-21 -16 8 -25 -22 15 -21 -15 8 25 -21 16 26 0 8 24 
9 -24 26 0 3178 4021 11 MP
DP
-21 -16 8 -25 -22 15 -21 -15 8 25 -21 16 26 0 8 24 
9 -24 26 0 3160 4084 11 MP
DP
-21 -16 8 -25 -22 15 -21 -15 8 25 -21 16 26 0 8 24 
9 -24 26 0 3139 4146 11 MP
DP
-21 -16 8 -25 -22 15 -21 -15 8 25 -21 16 26 0 8 24 
9 -24 26 0 3116 4212 11 MP
DP
-21 -16 8 -25 -22 15 -21 -15 8 25 -21 16 26 0 8 24 
9 -24 26 0 3093 4277 11 MP
DP
-21 -16 8 -25 -22 15 -21 -15 8 25 -21 16 26 0 8 24 
9 -24 26 0 3068 4343 11 MP
DP
-21 -16 8 -25 -22 15 -21 -15 8 25 -21 16 26 0 8 24 
9 -24 26 0 3053 4391 11 MP
DP
-21 -16 8 -25 -22 15 -21 -15 8 25 -21 16 26 0 8 24 
9 -24 26 0 3035 4439 11 MP
DP
-21 -16 8 -25 -22 15 -21 -15 8 25 -21 16 26 0 8 24 
9 -24 26 0 3013 4485 11 MP
DP
-21 -16 8 -25 -22 15 -21 -15 8 25 -21 16 26 0 8 24 
9 -24 26 0 2987 4530 11 MP
DP
-21 -16 8 -25 -22 15 -21 -15 8 25 -21 16 26 0 8 24 
9 -24 26 0 2956 4572 11 MP
DP
-21 -16 8 -25 -22 15 -21 -15 8 25 -21 16 26 0 8 24 
9 -24 26 0 2921 4612 11 MP
DP
-21 -16 8 -25 -22 15 -21 -15 8 25 -21 16 26 0 8 24 
9 -24 26 0 2882 4650 11 MP
DP
-21 -16 8 -25 -22 15 -21 -15 8 25 -21 16 26 0 8 24 
9 -24 26 0 2844 4681 11 MP
DP
-21 -16 8 -25 -22 15 -21 -15 8 25 -21 16 26 0 8 24 
9 -24 26 0 2802 4711 11 MP
DP
-21 -16 8 -25 -22 15 -21 -15 8 25 -21 16 26 0 8 24 
9 -24 26 0 2758 4739 11 MP
DP
-21 -16 8 -25 -22 15 -21 -15 8 25 -21 16 26 0 8 24 
9 -24 26 0 2713 4768 11 MP
DP
-21 -16 8 -25 -22 15 -21 -15 8 25 -21 16 26 0 8 24 
9 -24 26 0 2667 4796 11 MP
DP
-21 -16 8 -25 -22 15 -21 -15 8 25 -21 16 26 0 8 24 
9 -24 26 0 2608 4856 11 MP
DP
-21 -16 8 -25 -22 15 -21 -15 8 25 -21 16 26 0 8 24 
9 -24 26 0 2571 4901 11 MP
DP
-21 -16 8 -25 -22 15 -21 -15 8 25 -21 16 26 0 8 24 
9 -24 26 0 2540 4942 11 MP
DP
-21 -16 8 -25 -22 15 -21 -15 8 25 -21 16 26 0 8 24 
9 -24 26 0 2511 4978 11 MP
DP
-21 -16 8 -25 -22 15 -21 -15 8 25 -21 16 26 0 8 24 
9 -24 26 0 2483 5011 11 MP
DP
-21 -16 8 -25 -22 15 -21 -15 8 25 -21 16 26 0 8 24 
9 -24 26 0 2453 5046 11 MP
DP
-21 -16 8 -25 -22 15 -21 -15 8 25 -21 16 26 0 8 24 
9 -24 26 0 2422 5082 11 MP
DP
-21 -16 8 -25 -22 15 -21 -15 8 25 -21 16 26 0 8 24 
9 -24 26 0 2387 5116 11 MP
DP
-21 -16 8 -25 -22 15 -21 -15 8 25 -21 16 26 0 8 24 
9 -24 26 0 2353 5150 11 MP
DP
-21 -16 8 -25 -22 15 -21 -15 8 25 -21 16 26 0 8 24 
9 -24 26 0 2309 5158 11 MP
DP
-21 -16 8 -25 -22 15 -21 -15 8 25 -21 16 26 0 8 24 
9 -24 26 0 2266 5168 11 MP
DP
-21 -16 8 -25 -22 15 -21 -15 8 25 -21 16 26 0 8 24 
9 -24 26 0 2223 5182 11 MP
DP
-21 -16 8 -25 -22 15 -21 -15 8 25 -21 16 26 0 8 24 
9 -24 26 0 2181 5201 11 MP
DP
-21 -16 8 -25 -22 15 -21 -15 8 25 -21 16 26 0 8 24 
9 -24 26 0 2139 5225 11 MP
DP
-21 -16 8 -25 -22 15 -21 -15 8 25 -21 16 26 0 8 24 
9 -24 26 0 2097 5252 11 MP
DP
-21 -16 8 -25 -22 15 -21 -15 8 25 -21 16 26 0 8 24 
9 -24 26 0 2051 5286 11 MP
DP
-21 -16 8 -25 -22 15 -21 -15 8 25 -21 16 26 0 8 24 
9 -24 26 0 2004 5319 11 MP
DP
-21 -16 8 -25 -22 15 -21 -15 8 25 -21 16 26 0 8 24 
9 -24 26 0 1932 5357 11 MP
DP
-21 -16 8 -25 -22 15 -21 -15 8 25 -21 16 26 0 8 24 
9 -24 26 0 1874 5381 11 MP
DP
-21 -16 8 -25 -22 15 -21 -15 8 25 -21 16 26 0 8 24 
9 -24 26 0 1825 5401 11 MP
DP
-21 -16 8 -25 -22 15 -21 -15 8 25 -21 16 26 0 8 24 
9 -24 26 0 1785 5420 11 MP
DP
-21 -16 8 -25 -22 15 -21 -15 8 25 -21 16 26 0 8 24 
9 -24 26 0 1748 5433 11 MP
DP
-21 -16 8 -25 -22 15 -21 -15 8 25 -21 16 26 0 8 24 
9 -24 26 0 1707 5444 11 MP
DP
-21 -16 8 -25 -22 15 -21 -15 8 25 -21 16 26 0 8 24 
9 -24 26 0 1662 5471 11 MP
DP
-21 -16 8 -25 -22 15 -21 -15 8 25 -21 16 26 0 8 24 
9 -24 26 0 1631 5523 11 MP
DP
-21 -16 8 -25 -22 15 -21 -15 8 25 -21 16 26 0 8 24 
9 -24 26 0 1620 5565 11 MP
DP
-21 -16 8 -25 -22 15 -21 -15 8 25 -21 16 26 0 8 24 
9 -24 26 0 1602 5625 11 MP
DP
-21 -16 8 -25 -22 15 -21 -15 8 25 -21 16 26 0 8 24 
9 -24 26 0 1577 5669 11 MP
DP
-21 -16 8 -25 -22 15 -21 -15 8 25 -21 16 26 0 8 24 
9 -24 26 0 1549 5711 11 MP
DP
-21 -16 8 -25 -22 15 -21 -15 8 25 -21 16 26 0 8 24 
9 -24 26 0 1525 5755 11 MP
DP
-21 -16 8 -25 -22 15 -21 -15 8 25 -21 16 26 0 8 24 
9 -24 26 0 1500 5799 11 MP
DP
-21 -16 8 -25 -22 15 -21 -15 8 25 -21 16 26 0 8 24 
9 -24 26 0 1470 5839 11 MP
DP
-21 -16 8 -25 -22 15 -21 -15 8 25 -21 16 26 0 8 24 
9 -24 26 0 1435 5878 11 MP
DP
-21 -16 8 -25 -22 15 -21 -15 8 25 -21 16 26 0 8 24 
9 -24 26 0 1404 5921 11 MP
DP
-21 -16 8 -25 -22 15 -21 -15 8 25 -21 16 26 0 8 24 
9 -24 26 0 1377 5964 11 MP
DP
-21 -16 8 -25 -22 15 -21 -15 8 25 -21 16 26 0 8 24 
9 -24 26 0 1351 6005 11 MP
DP
-21 -16 8 -25 -22 15 -21 -15 8 25 -21 16 26 0 8 24 
9 -24 26 0 1326 6045 11 MP
DP
-21 -16 8 -25 -22 15 -21 -15 8 25 -21 16 26 0 8 24 
9 -24 26 0 1300 6085 11 MP
DP
-21 -16 8 -25 -22 15 -21 -15 8 25 -21 16 26 0 8 24 
9 -24 26 0 1279 6124 11 MP
DP
-21 -16 8 -25 -22 15 -21 -15 8 25 -21 16 26 0 8 24 
9 -24 26 0 1257 6158 11 MP
DP
-21 -16 8 -25 -22 15 -21 -15 8 25 -21 16 26 0 8 24 
9 -24 26 0 1237 6190 11 MP
DP
-21 -16 8 -25 -22 15 -21 -15 8 25 -21 16 26 0 8 24 
9 -24 26 0 1220 6220 11 MP
DP
-21 -16 8 -25 -22 15 -21 -15 8 25 -21 16 26 0 8 24 
9 -24 26 0 1203 6248 11 MP
DP
-21 -16 8 -25 -22 15 -21 -15 8 25 -21 16 26 0 8 24 
9 -24 26 0 1187 6274 11 MP
DP
-21 -16 8 -25 -22 15 -21 -15 8 25 -21 16 26 0 8 24 
9 -24 26 0 1178 6287 11 MP
DP
-21 -16 8 -25 -22 15 -21 -15 8 25 -21 16 26 0 8 24 
9 -24 26 0 1175 6291 11 MP
DP
-21 -16 8 -25 -22 15 -21 -15 8 25 -21 16 26 0 8 24 
9 -24 26 0 1171 6297 11 MP
DP
-21 -16 8 -25 -22 15 -21 -15 8 25 -21 16 26 0 8 24 
9 -24 26 0 1167 6303 11 MP
DP
-21 -16 8 -25 -22 15 -21 -15 8 25 -21 16 26 0 8 24 
9 -24 26 0 1163 6308 11 MP
DP
-21 -16 8 -25 -22 15 -21 -15 8 25 -21 16 26 0 8 24 
9 -24 26 0 1159 6314 11 MP
DP
-21 -16 8 -25 -22 15 -21 -15 8 25 -21 16 26 0 8 24 
9 -24 26 0 1155 6320 11 MP
DP
-21 -16 8 -25 -22 15 -21 -15 8 25 -21 16 26 0 8 24 
9 -24 26 0 1151 6326 11 MP
DP
-21 -16 8 -25 -22 15 -21 -15 8 25 -21 16 26 0 8 24 
9 -24 26 0 1149 6329 11 MP
DP
-21 -16 8 -25 -22 15 -21 -15 8 25 -21 16 26 0 8 24 
9 -24 26 0 1151 6326 11 MP
DP
-21 -16 8 -25 -22 15 -21 -15 8 25 -21 16 26 0 8 24 
9 -24 26 0 1153 6323 11 MP
DP
gr

gs 902 73 2880 6480 rc
gr

0 sg
2211 6840 mt 
(x [m]) s
 649 3444 mt  -90 rotate
(y [m]) s
90 rotate
 885 6595 mt 
( ) s
3765  115 mt 
( ) s
1 sg
0 888 1980 0 0 -888 1686 1722 4 MP
PP
-1980 0 0 888 1980 0 0 -888 1686 1722 5 MP stroke
4 w
DO
SO
6 w
0 sg
1686  834 mt 3666  834 L
1686 1722 mt 3666 1722 L
3666 1722 mt 3666  834 L
1686 1722 mt 1686  834 L
1686 1722 mt 3666 1722 L
1686 1722 mt 1686  834 L
1686  834 mt 3666  834 L
1686 1722 mt 3666 1722 L
3666 1722 mt 3666  834 L
1686 1722 mt 1686  834 L
%%IncludeResource: font Helvetica
/Helvetica /WindowsLatin1Encoding 96 FMSR

2154  976 mt 
(raw marker based positions) s
gs 1686 834 1981 889 rc
gs 1865 868 147 147 rc
c8
1913  916 mt 1963  966 L
1963  916 mt 1913  966 L
gr

c8
gr

c8
0 sg
2154 1144 mt 
(true positions) s
gs 1686 834 1981 889 rc
gs 1865 1036 147 147 rc
24 W
1938 1109 PD
gr

gr

2154 1313 mt 
(smoothed marker based positions) s
gs 1686 834 1981 889 rc
gs 1865 1205 147 147 rc
0 j
0 -58 -58 0 0 58 58 0 1909 1249 5 MP
c9
DP
gr

c9
gr

c9
0 sg
2154 1481 mt 
(Dead Reckoning Data) s
gs 1686 834 1981 889 rc
gs 1865 1373 147 147 rc
0 j
-13 -18 13 -18 -21 0 -10 -18 -10 18 -21 0 13 18 -13 18 
21 0 10 18 10 -18 21 0 1907 1428 13 MP
c8
DP
gr

c8
gr

c8
0 sg
2154 1649 mt 
(Kalman filtered Positions) s
gs 1686 834 1981 889 rc
c10
360 0 1758 1614 2 MP stroke
gs 1865 1541 147 147 rc
0 j
-21 -16 8 -25 -22 15 -21 -15 8 25 -21 16 26 0 8 24 
9 -24 26 0 1903 1602 11 MP
DP
gr

gr

c10

end %%Color Dict

eplot
%%EndObject

epage
end

showpage

%%Trailer
%%EOF
