0.0
4.1637991171010006E-15
0.17839217951392616
2.667945637210758
8.310142842944918
17.481338579152133
20.563803831725807
-12.547122980931434
-51.49418964114717
-106.29554088468075
-171.37865134508314
-239.36919240631613
-306.5511191858876
-368.8596047223814
-423.25108061426215
-439.4226550230305
-471.69070599189104
-489.21944151181003
-493.68513165388885
-482.6110161726341
-452.3313284345146
-401.94857948921094
-339.8333055058167
-274.0046559505366
-205.16265421158835
-136.97206518120652
-77.98776356548274
-35.37616932052288
-9.054409271748256
7.441083325488883
18.399319840848467
23.551489523328122
16.46495060068351
-44.293958306684175
-95.39705286390972
-159.7543050192819
-228.6778129988524
-295.65668383649256
-359.9338071955882
-418.3293614636312
-482.57106837155027
-516.6301490876529
-534.4864977304479
-537.8060608837037
-525.276946534829
-496.0269501599325
-448.9082374364617
-387.2213762641954
-319.61574182414677
-183.0825501009161
-115.30715387368764
-46.389420202052165
22.562989391559455
